<?xml version="1.0" ?>
<Project Revision="8200">
 <General EndDateTime="55276 36716.714869999996" Name="" StartDateTime="55276 18000"/>
 <!--Initialise the starting time and end time and some parameters for the visualisation-->
 <MetaData>
  <Description/>
 </MetaData>
 <MonitorConfiguration>
  <Monitor Height="1080" Width="1920" X="0" Y="0"/>
 </MonitorConfiguration>
 <StartOptions AutoClosed="0" Hidden="0" Looped="1" Minimized="0" Paused="0" SysTimeSynced="0" TimeRatio="1" UseStateTimeRatio="1"/>
 <BrokerOptions ActiveTab="0" AlwaysOnTop="1" Collapsed="1" Height="84" HiddenTabs="" Width="710" WindowMode="Undocked" XPos="605" YPos="266"/>
 <TimelineOptions BadgeFiltered="" CursorLocked="0" CursorRatio="0" DateFormat="ISODATE" NoBadgeFiltered="0" ProjectLocked="1" ViewSpan="0" ViewStart="33282 0.000000">
  <TimelineScenario Name="Scenario" Pos="0" Size="22"/>
  <TimelineFile Badges="" Mode="DEFAULT" Name="test_Orion.txt" Overlay="false" Pos="1" Size="280"/>
  <TimelineFile Badges="" Mode="DEFAULT" Name="Orion_attitude.txt" Overlay="false" Pos="2" Size="280"/>
  <TimelineFile Badges="" Mode="DEFAULT" Name="test_Gateway.txt" Overlay="false" Pos="3" Size="280"/>
 </TimelineOptions>
 <Sky>
  <!--Initialise planets and sky for the visualisation-->
  <Sun>
   <Prop2d>
    <Icon Anchor="CENTER" Opacity="100" Size="MEDIUM">
     <Font Color="1 1 1" Size="MEDIUM"/>
     <ImageLayer Type="Default"/>
    </Icon>
   </Prop2d>
   <Track Color="0.862745 0.862745 0" PenStyle="SolidLine" PenWidth="2"/>
   <VisibilityCircle ContourColor="0.501961 0.501961 0" FillColor="0 0 0" FillOpacity="50"/>
  </Sun>
  <StarCatalog CatalogMode="Builtin">
   <Track Color="0.862745 0.862745 0" PenStyle="DotLine" PenWidth="1"/>
  </StarCatalog>
 </Sky>
 <ToBeUsedApps>
  <!--Initialise all the application for the visualisation-->
  <Application AutoStarted="1" Id="1" Label="" Name="Celestia"/>
 </ToBeUsedApps>
 <Entities>
  <Body Name="Earth" ParentPath="Sol">
   <!--Set all the planets for needed for the visualisation-->
   <Prop2d>
    <Icon Anchor="CENTER" Opacity="100" Size="MEDIUM">
     <Font Color="1 1 1" Size="MEDIUM"/>
     <ImageLayer Type="Default"/>
    </Icon>
   </Prop2d>
   <Track Color="1 0 0.0156863" PenStyle="SolidLine" PenWidth="2"/>
   <VisibilityCircle ContourColor="1 0 0" FillColor="1 0 0" FillOpacity="100"/>
   <EphemerisMode Mode="Default"/>
   <Layers>
    <BuiltinLayer Name="defaultLayer"/>
   </Layers>
  </Body>
  <Body Name="Moon" ParentPath="Sol/Earth">
   <!--Set all the planets for needed for the visualisation-->
   <Prop2d>
    <Icon Anchor="CENTER" Opacity="100" Size="MEDIUM">
     <Font Color="1 1 1" Size="MEDIUM"/>
     <ImageLayer Type="Default"/>
    </Icon>
   </Prop2d>
   <Track Color="1 0 0.0156863" PenStyle="SolidLine" PenWidth="2"/>
   <VisibilityCircle ContourColor="1 0 0" FillColor="1 0 0" FillOpacity="100"/>
   <EphemerisMode Mode="Default"/>
   <Layers>
    <BuiltinLayer Name="defaultLayer"/>
   </Layers>
  </Body>
  <Satellite Name="Orion" ParentPath="Sol/Earth">
   <!--Add the satellite for the visualisation with its trajectory and attitude file and 3D file-->
   <CommonProp>
    <OrbitPath Color="1 1 0" PenStyle="SolidLine" PenWidth="1"/>
   </CommonProp>
   <Prop2d>
    <Icon Anchor="CENTER" Opacity="100" Size="MEDIUM">
     <Font Color="1 1 1" Size="MEDIUM"/>
     <ImageLayer Type="Default"/>
    </Icon>
   </Prop2d>
   <Track Color="1 1 0" PenStyle="SolidLine" PenWidth="1"/>
   <VisibilityCircle ContourColor="1 0 0" FillColor="1 0 0" FillOpacity="100"/>
   <Component Name="Orion">
    <Graphics3d>
     <File3ds Name="models/Orion.obj"/>
     <Radius Value="1"/>
     <LightSensitive Value="1"/>
     <Use3dsCoords MeshScale="1" Value="1"/>
     <AxesPosition Value="1"/>
     <RotationCenter X="0" Y="0" Z="0"/>
    </Graphics3d>
    <Geometry>
     <Position>
      <Value>
       <File Name="C:/Users/Valentin Prudhomme/Desktop/Dossier_Git/sempy/src/visualisation/data/test_Orion_vts.txt"/>
      </Value>
     </Position>
     <Orientation>
      <Quaternion>
       <Value>
        <File Name="C:/Users/Valentin Prudhomme/Desktop/Dossier_Git/sempy/src/visualisation/data/Orion_attitude_vts.txt"/>
       </Value>
      </Quaternion>
     </Orientation>
    </Geometry>
    <Component Name="OrionPlume">
     <!--Add a constraint to the satellite-->
     <Graphics3d>
      <File3ds Name="models/plume.obj"/>
      <Radius Value="2"/>
      <LightSensitive Value="0"/>
      <Use3dsCoords MeshScale="1" Value="1"/>
      <AxesPosition Value="1"/>
      <RotationCenter X="0" Y="0" Z="0"/>
     </Graphics3d>
     <Geometry>
      <Position>
       <Value>
        <Fixed Data="0 0 -3.7"/>
       </Value>
      </Position>
      <Orientation>
       <EulerAngle RotationSequence="123">
        <Value>
         <Fixed Data="0 180 0"/>
        </Value>
       </EulerAngle>
      </Orientation>
     </Geometry>
    </Component>
    <Component Name="OrionSphere1">
     <!--Add a constraint to the satellite-->
     <Graphics3d>
      <File3ds Name="models/purple_sphere.obj"/>
      <Radius Value="6000"/>
      <LightSensitive Value="0"/>
      <Use3dsCoords MeshScale="1" Value="0"/>
      <AxesPosition Value="1"/>
      <RotationCenter X="0" Y="0" Z="0"/>
     </Graphics3d>
     <Geometry>
      <Position>
       <Value>
        <Fixed Data="0 0 0"/>
       </Value>
      </Position>
      <Orientation>
       <EulerAngle RotationSequence="123">
        <Value>
         <Fixed Data="0 0 0"/>
        </Value>
       </EulerAngle>
      </Orientation>
     </Geometry>
    </Component>
    <SensorSatellite>
     <!--Add cone constraint to the satellite with a sensor-->
     <Sensor Name="OrionCone">
      <SensorProp>
       <SensorElliptical HalfAngleX="0.258698569856985" HalfAngleY="0.254258458584"/>
       <SensorGraphics ContourColor="0 1 0" Range="300" VolumeColor="0 1 0" VolumeOpacity="35">
        <SensorTrace Duration="0" Opacity="60">
         <FixedColor Value="1 0 0"/>
        </SensorTrace>
       </SensorGraphics>
      </SensorProp>
      <Geometry>
       <Position>
        <Value>
         <Fixed Data="0 0 3"/>
        </Value>
       </Position>
       <Orientation>
        <EulerAngle RotationSequence="123">
         <Value>
          <Fixed Data="0 0 0"/>
         </Value>
        </EulerAngle>
       </Orientation>
      </Geometry>
     </Sensor>
    </SensorSatellite>
   </Component>
   <Events/>
  </Satellite>
  <Satellite Name="OrionPoint" ParentPath="Sol/Earth">
   <!--Add the satellite for the visualisation with its trajectory and attitude file and 3D file-->
   <CommonProp>
    <OrbitPath Color="1 0 0" PenStyle="SolidLine" PenWidth="2"/>
   </CommonProp>
   <Prop2d>
    <Icon Anchor="CENTER" Opacity="100" Size="MEDIUM">
     <Font Color="1 1 1" Size="MEDIUM"/>
     <ImageLayer Type="Default"/>
    </Icon>
   </Prop2d>
   <Track Color="1 0 0" PenStyle="SolidLine" PenWidth="2"/>
   <VisibilityCircle ContourColor="1 0 0" FillColor="1 0 0" FillOpacity="100"/>
   <Component Name="OrionPoint">
    <Graphics3d>
     <File3ds Name="models/pink_sphere.obj"/>
     <Radius Value="1"/>
     <LightSensitive Value="1"/>
     <Use3dsCoords MeshScale="1" Value="1"/>
     <AxesPosition Value="1"/>
     <RotationCenter X="0" Y="0" Z="0"/>
    </Graphics3d>
    <Geometry>
     <Position>
      <Value>
       <Fixed Data="379455.6727 1944.584128 7540.378581"/>
      </Value>
     </Position>
     <Orientation>
      <Quaternion>
       <Value>
        <Fixed Data="1 0 0 0"/>
       </Value>
      </Quaternion>
     </Orientation>
    </Geometry>
   </Component>
   <Events/>
  </Satellite>
  <Satellite Name="Gateway" ParentPath="Sol/Earth">
   <!--Add the satellite for the visualisation with its trajectory and attitude file and 3D file-->
   <CommonProp>
    <OrbitPath Color="0 0 1" PenStyle="SolidLine" PenWidth="1"/>
   </CommonProp>
   <Prop2d>
    <Icon Anchor="CENTER" Opacity="100" Size="MEDIUM">
     <Font Color="1 1 1" Size="MEDIUM"/>
     <ImageLayer Type="Default"/>
    </Icon>
   </Prop2d>
   <Track Color="0 0 1" PenStyle="SolidLine" PenWidth="1"/>
   <VisibilityCircle ContourColor="1 0 0" FillColor="1 0 0" FillOpacity="100"/>
   <Component Name="Gateway">
    <Graphics3d>
     <File3ds Name="models/Gateway.obj"/>
     <Radius Value="1"/>
     <LightSensitive Value="1"/>
     <Use3dsCoords MeshScale="1" Value="1"/>
     <AxesPosition Value="1"/>
     <RotationCenter X="0" Y="0" Z="0"/>
    </Graphics3d>
    <Geometry>
     <Position>
      <Value>
       <File Name="C:/Users/Valentin Prudhomme/Desktop/Dossier_Git/sempy/src/visualisation/data/test_Gateway_vts.txt"/>
      </Value>
     </Position>
     <Orientation>
      <Quaternion>
       <Value>
        <Fixed Data="1 -1 0 0"/>
       </Value>
      </Quaternion>
     </Orientation>
    </Geometry>
    <SensorSatellite>
     <!--Add cone constraint to the satellite with a sensor-->
     <Sensor Name="GatewayCone">
      <SensorProp>
       <SensorElliptical HalfAngleX="0.258698569856985" HalfAngleY="0.254258458584"/>
       <SensorGraphics ContourColor="0 0 1" Range="300" VolumeColor="0 0 1" VolumeOpacity="35">
        <SensorTrace Duration="0" Opacity="60">
         <FixedColor Value="1 0 0"/>
        </SensorTrace>
       </SensorGraphics>
      </SensorProp>
      <Geometry>
       <Position>
        <Value>
         <Fixed Data="2 -20.7 0"/>
        </Value>
       </Position>
       <Orientation>
        <EulerAngle RotationSequence="123">
         <Value>
          <Fixed Data="90 0 0"/>
         </Value>
        </EulerAngle>
       </Orientation>
      </Geometry>
     </Sensor>
    </SensorSatellite>
    <Component Name="GatewaySphere">
     <!--Add a constraint to the satellite-->
     <Graphics3d>
      <File3ds Name="models/red_sphere.obj"/>
      <Radius Value="2000"/>
      <LightSensitive Value="0"/>
      <Use3dsCoords MeshScale="1" Value="0"/>
      <AxesPosition Value="1"/>
      <RotationCenter X="0" Y="0" Z="0"/>
     </Graphics3d>
     <Geometry>
      <Position>
       <Value>
        <Fixed Data="0 0 0"/>
       </Value>
      </Position>
      <Orientation>
       <EulerAngle RotationSequence="123">
        <Value>
         <Fixed Data="0 0 0"/>
        </Value>
       </EulerAngle>
      </Orientation>
     </Geometry>
    </Component>
   </Component>
   <Events/>
  </Satellite>
 </Entities>
 <Events/>
 <States>
  <Instant Label="initial step for time ratio" Time="55276 18000.0" TimeRatio="1">
   <AppState Id="1">
    <!--Add a step to the visualisation (to undisplay constraints and change time ratio and camera)-->
    <Command Str="CMD PROP WindowGeometry 0 0 1920 1080"/>
    <Command Str="CMD PROP CameraDesc bodyfixed &quot;Sol/Earth/Orion_ref/Orion_QswAxes&quot; nil -2.55516e-09 4.361542e-09 -1.29603709999999e-08 -0.05573241 -0.7291487 0.6555173 0.188502 0.872664625997165"/>
    <Command Str="CMD STRUCT TrackWindow &quot;Sol/Earth/Orion&quot; 1000 1000"/>
    <Command Str="CMD STRUCT TrackWindow &quot;Sol/Earth/Gateway&quot; 1000 1000"/>
   </AppState>
  </Instant>
  <Instant Label="initial step" Time="55276 18000.0" TimeRatio="100">
   <AppState Id="1">
    <!--Add a step to the visualisation (to undisplay constraints and change time ratio and camera)-->
    <Command Str="CMD PROP WindowGeometry 0 0 1920 1080"/>
    <Command Str="CMD PROP CameraDesc bodyfixed &quot;Sol/Earth/Orion_ref/Orion_QswAxes&quot; nil -2.55516e-09 4.361542e-09 -1.29603709999999e-08 -0.05573241 -0.7291487 0.6555173 0.188502 0.872664625997165"/>
    <Command Str="CMD STRUCT TrackWindow &quot;Sol/Earth/Orion&quot; 1000 1000"/>
    <Command Str="CMD STRUCT TrackWindow &quot;Sol/Earth/Gateway&quot; 1000 1000"/>
    <Command Str="CMD STRUCT Visible &quot;Sol/Earth/Orion/OrionPlume&quot; false"/>
   </AppState>
  </Instant>
  <Instant Label="first" Time="55276 25500.0" TimeRatio="100">
   <AppState Id="1">
    <!--Add a step to the visualisation (to undisplay constraints and change time ratio and camera)-->
    <Command Str="CMD PROP WindowGeometry 0 0 1920 1080"/>
    <Command Str="CMD PROP CameraDesc bodyfixed &quot;Sol/Earth/Orion_ref/Orion_QswAxes&quot; nil -2.55516e-09 4.361542e-09 -1.29603709999999e-08 -0.05573241 -0.7291487 0.6555173 0.188502 0.872664625997165"/>
    <Command Str="CMD STRUCT TrackWindow &quot;Sol/Earth/Orion&quot; 1000 1000"/>
    <Command Str="CMD STRUCT TrackWindow &quot;Sol/Earth/Gateway&quot; 1000 1000"/>
    <Command Str="CMD STRUCT Visible &quot;Sol/Earth/Orion/OrionSphere1&quot; false"/>
   </AppState>
  </Instant>
  <Instant Label="second" Time="55276 31000.0" TimeRatio="100">
   <AppState Id="1">
    <!--Add a step to the visualisation (to undisplay constraints and change time ratio and camera)-->
    <Command Str="CMD PROP WindowGeometry 0 0 1920 1080"/>
    <Command Str="CMD PROP CameraDesc bodyfixed &quot;Sol/Earth/Orion_ref/Orion_QswAxes&quot; nil -2.55516e-09 4.361542e-09 -1.29603709999999e-08 -0.05573241 -0.7291487 0.6555173 0.188502 0.872664625997165"/>
    <Command Str="CMD STRUCT TrackWindow &quot;Sol/Earth/Orion&quot; 1000 1000"/>
    <Command Str="CMD STRUCT TrackWindow &quot;Sol/Earth/Gateway&quot; 1000 1000"/>
    <Command Str="CMD STRUCT Visible &quot;Sol/Earth/Orion/OrionPlume&quot; false"/>
    <Command Str="CMD STRUCT Visible &quot;Sol/Earth/Orion/OrionSphere1&quot; false"/>
   </AppState>
  </Instant>
 </States>
</Project>
