# Blender v2.82 (sub 7) OBJ File: ''
# www.blender.org
mtllib pink_sphere.mtl
o Sphere
v 0.000000 0.490393 -0.097545
v 0.000000 0.461940 -0.191342
v 0.000000 0.415735 -0.277785
v 0.000000 0.353553 -0.353553
v 0.000000 0.277785 -0.415735
v 0.000000 0.191342 -0.461940
v 0.000000 0.097545 -0.490393
v 0.000000 0.000000 -0.500000
v 0.000000 -0.097545 -0.490393
v 0.000000 -0.415735 -0.277785
v 0.019030 0.490393 -0.095671
v 0.037329 0.461940 -0.187665
v 0.054193 0.415735 -0.272448
v 0.068975 0.353553 -0.346760
v 0.081106 0.277785 -0.407747
v 0.090120 0.191342 -0.453064
v 0.095671 0.097545 -0.480970
v 0.097545 0.000000 -0.490393
v 0.095671 -0.097545 -0.480970
v 0.090120 -0.191342 -0.453064
v 0.081106 -0.277785 -0.407747
v 0.068975 -0.353553 -0.346760
v 0.054193 -0.415735 -0.272448
v 0.037329 -0.461940 -0.187665
v 0.019030 -0.490393 -0.095671
v 0.037329 0.490393 -0.090120
v 0.073223 0.461940 -0.176777
v 0.106304 0.415735 -0.256640
v 0.135299 0.353553 -0.326641
v 0.159095 0.277785 -0.384089
v 0.176777 0.191342 -0.426777
v 0.187665 0.097545 -0.453064
v 0.191342 0.000000 -0.461940
v 0.187665 -0.097545 -0.453064
v 0.176777 -0.191342 -0.426777
v 0.159095 -0.277785 -0.384089
v 0.135299 -0.353553 -0.326641
v 0.106304 -0.415735 -0.256640
v 0.073223 -0.461940 -0.176777
v 0.037329 -0.490393 -0.090120
v 0.054193 0.490393 -0.081106
v 0.106304 0.461940 -0.159095
v 0.154329 0.415735 -0.230970
v 0.196424 0.353553 -0.293969
v 0.230970 0.277785 -0.345671
v 0.256640 0.191342 -0.384089
v 0.272448 0.097545 -0.407746
v 0.277785 0.000000 -0.415735
v 0.272448 -0.097545 -0.407746
v 0.256640 -0.191342 -0.384089
v 0.230970 -0.277785 -0.345671
v 0.196424 -0.353553 -0.293969
v 0.154329 -0.415735 -0.230970
v 0.106304 -0.461940 -0.159095
v 0.054193 -0.490393 -0.081106
v 0.068975 0.490393 -0.068975
v 0.135299 0.461940 -0.135299
v 0.196424 0.415735 -0.196424
v 0.250000 0.353553 -0.250000
v 0.293969 0.277785 -0.293969
v 0.326641 0.191342 -0.326641
v 0.346760 0.097545 -0.346760
v 0.353554 0.000000 -0.353553
v 0.346760 -0.097545 -0.346760
v 0.326641 -0.191342 -0.326641
v 0.293969 -0.277785 -0.293969
v 0.250000 -0.353553 -0.250000
v 0.196424 -0.415735 -0.196424
v 0.135299 -0.461940 -0.135299
v 0.068975 -0.490393 -0.068975
v 0.081106 0.490393 -0.054193
v 0.159095 0.461940 -0.106304
v 0.230970 0.415735 -0.154329
v 0.293969 0.353553 -0.196424
v 0.345671 0.277785 -0.230970
v 0.384089 0.191342 -0.256640
v 0.407747 0.097545 -0.272447
v 0.415735 0.000000 -0.277785
v 0.407747 -0.097545 -0.272447
v 0.384089 -0.191342 -0.256640
v 0.345671 -0.277785 -0.230970
v 0.293969 -0.353553 -0.196424
v 0.230970 -0.415735 -0.154329
v 0.159095 -0.461940 -0.106304
v 0.081106 -0.490393 -0.054193
v 0.090120 0.490393 -0.037329
v 0.176777 0.461940 -0.073223
v 0.256640 0.415735 -0.106304
v 0.326641 0.353553 -0.135299
v 0.384089 0.277785 -0.159095
v 0.426777 0.191342 -0.176777
v 0.453064 0.097545 -0.187665
v 0.461940 0.000000 -0.191342
v 0.453064 -0.097545 -0.187665
v 0.426777 -0.191342 -0.176777
v 0.384089 -0.277785 -0.159095
v 0.326641 -0.353553 -0.135299
v 0.256640 -0.415735 -0.106304
v 0.176777 -0.461940 -0.073223
v 0.090120 -0.490393 -0.037329
v 0.095671 0.490393 -0.019030
v 0.187665 0.461940 -0.037329
v 0.272448 0.415735 -0.054193
v 0.346760 0.353553 -0.068975
v 0.407747 0.277785 -0.081106
v 0.453064 0.191342 -0.090120
v 0.480970 0.097545 -0.095671
v 0.490393 0.000000 -0.097545
v 0.480970 -0.097545 -0.095671
v 0.453064 -0.191342 -0.090120
v 0.407747 -0.277785 -0.081106
v 0.346760 -0.353553 -0.068975
v 0.272448 -0.415735 -0.054193
v 0.187665 -0.461940 -0.037329
v 0.095671 -0.490393 -0.019030
v 0.097545 0.490393 0.000000
v 0.191342 0.461940 0.000000
v 0.277785 0.415735 0.000000
v 0.353553 0.353553 0.000000
v 0.415735 0.277785 0.000000
v 0.461940 0.191342 0.000000
v 0.490393 0.097545 0.000000
v 0.500000 0.000000 0.000000
v 0.490393 -0.097545 0.000000
v 0.461940 -0.191342 0.000000
v 0.415735 -0.277785 0.000000
v 0.353553 -0.353553 0.000000
v 0.277785 -0.415735 0.000000
v 0.191342 -0.461940 0.000000
v 0.097545 -0.490393 0.000000
v 0.095671 0.490393 0.019030
v 0.187665 0.461940 0.037329
v 0.272448 0.415735 0.054193
v 0.346760 0.353553 0.068975
v 0.407747 0.277785 0.081106
v 0.453064 0.191342 0.090120
v 0.480970 0.097545 0.095671
v 0.490393 0.000000 0.097545
v 0.480970 -0.097545 0.095671
v 0.453064 -0.191342 0.090120
v 0.407747 -0.277785 0.081106
v 0.346760 -0.353553 0.068975
v 0.272448 -0.415735 0.054193
v 0.187665 -0.461940 0.037329
v 0.095671 -0.490393 0.019030
v 0.090120 0.490393 0.037329
v 0.176777 0.461940 0.073224
v 0.256640 0.415735 0.106304
v 0.326641 0.353553 0.135299
v 0.384089 0.277785 0.159095
v 0.426777 0.191342 0.176777
v 0.453064 0.097545 0.187665
v 0.461940 0.000000 0.191342
v 0.453064 -0.097545 0.187665
v 0.426777 -0.191342 0.176777
v 0.384089 -0.277785 0.159095
v 0.326641 -0.353553 0.135299
v 0.256640 -0.415735 0.106304
v 0.176777 -0.461940 0.073223
v 0.090120 -0.490393 0.037329
v 0.081106 0.490393 0.054193
v 0.159095 0.461940 0.106304
v 0.230970 0.415735 0.154329
v 0.293969 0.353553 0.196424
v 0.345671 0.277785 0.230970
v 0.384089 0.191342 0.256640
v 0.407747 0.097545 0.272448
v 0.415735 0.000000 0.277785
v 0.407747 -0.097545 0.272448
v 0.384089 -0.191342 0.256640
v 0.345671 -0.277785 0.230970
v 0.293969 -0.353553 0.196424
v 0.230970 -0.415735 0.154329
v 0.159095 -0.461940 0.106304
v 0.081106 -0.490393 0.054193
v 0.068975 0.490393 0.068975
v 0.135299 0.461940 0.135299
v 0.196424 0.415735 0.196424
v 0.250000 0.353553 0.250000
v 0.293969 0.277785 0.293969
v 0.326641 0.191342 0.326641
v 0.346760 0.097545 0.346760
v 0.353553 0.000000 0.353554
v 0.346760 -0.097545 0.346760
v 0.326641 -0.191342 0.326641
v 0.293969 -0.277785 0.293969
v 0.250000 -0.353553 0.250000
v 0.196424 -0.415735 0.196424
v 0.135299 -0.461940 0.135299
v 0.068975 -0.490393 0.068975
v 0.054193 0.490393 0.081106
v 0.106304 0.461940 0.159095
v 0.154329 0.415735 0.230970
v 0.196424 0.353553 0.293969
v 0.230970 0.277785 0.345671
v 0.256640 0.191342 0.384089
v 0.272447 0.097545 0.407747
v 0.277785 0.000000 0.415735
v 0.272447 -0.097545 0.407747
v 0.256640 -0.191342 0.384089
v 0.230970 -0.277785 0.345671
v 0.196424 -0.353553 0.293969
v 0.154329 -0.415735 0.230970
v 0.106304 -0.461940 0.159095
v 0.054193 -0.490393 0.081106
v 0.000000 -0.500000 0.000000
v 0.037329 0.490393 0.090120
v 0.073223 0.461940 0.176777
v 0.106304 0.415735 0.256640
v 0.135299 0.353553 0.326641
v 0.159095 0.277785 0.384089
v 0.176777 0.191342 0.426777
v 0.187665 0.097545 0.453064
v 0.191342 0.000000 0.461940
v 0.187665 -0.097545 0.453064
v 0.176777 -0.191342 0.426777
v 0.159095 -0.277785 0.384089
v 0.135299 -0.353553 0.326641
v 0.106304 -0.415735 0.256640
v 0.073223 -0.461940 0.176777
v 0.037329 -0.490393 0.090120
v 0.019030 0.490393 0.095671
v 0.037329 0.461940 0.187665
v 0.054193 0.415735 0.272448
v 0.068975 0.353553 0.346760
v 0.081106 0.277785 0.407747
v 0.090120 0.191342 0.453064
v 0.095671 0.097545 0.480970
v 0.097545 0.000000 0.490393
v 0.095671 -0.097545 0.480970
v 0.090120 -0.191342 0.453064
v 0.081106 -0.277785 0.407747
v 0.068975 -0.353553 0.346760
v 0.054193 -0.415735 0.272448
v 0.037329 -0.461940 0.187665
v 0.019030 -0.490393 0.095671
v -0.000000 0.490393 0.097545
v 0.000000 0.461940 0.191342
v 0.000000 0.415735 0.277785
v -0.000000 0.353553 0.353554
v -0.000000 0.277785 0.415735
v 0.000000 0.191342 0.461940
v -0.000000 0.097545 0.490393
v -0.000000 0.000000 0.500000
v -0.000000 -0.097545 0.490393
v 0.000000 -0.191342 0.461940
v -0.000000 -0.277785 0.415735
v -0.000000 -0.353553 0.353554
v -0.000000 -0.415735 0.277785
v 0.000000 -0.461940 0.191342
v 0.000000 -0.490393 0.097545
v -0.019030 0.490393 0.095671
v -0.037329 0.461940 0.187665
v -0.054193 0.415735 0.272448
v -0.068975 0.353553 0.346760
v -0.081106 0.277785 0.407747
v -0.090120 0.191342 0.453064
v -0.095671 0.097545 0.480970
v -0.097545 0.000000 0.490393
v -0.095671 -0.097545 0.480970
v -0.090120 -0.191342 0.453064
v -0.081106 -0.277785 0.407747
v -0.068975 -0.353553 0.346760
v -0.054193 -0.415735 0.272448
v -0.037329 -0.461940 0.187665
v -0.019030 -0.490393 0.095671
v -0.037329 0.490393 0.090120
v -0.073223 0.461940 0.176777
v -0.106304 0.415735 0.256640
v -0.135299 0.353553 0.326641
v -0.159095 0.277785 0.384089
v -0.176777 0.191342 0.426777
v -0.187665 0.097545 0.453064
v -0.191342 0.000000 0.461940
v -0.187665 -0.097545 0.453064
v -0.176777 -0.191342 0.426777
v -0.159095 -0.277785 0.384089
v -0.135299 -0.353553 0.326641
v -0.106304 -0.415735 0.256640
v -0.073223 -0.461940 0.176777
v -0.037329 -0.490393 0.090120
v -0.054193 0.490393 0.081106
v -0.106304 0.461940 0.159095
v -0.154329 0.415735 0.230970
v -0.196424 0.353553 0.293969
v -0.230970 0.277785 0.345671
v -0.256640 0.191342 0.384089
v -0.272448 0.097545 0.407747
v -0.277785 0.000000 0.415735
v -0.272448 -0.097545 0.407747
v -0.256640 -0.191342 0.384089
v -0.230970 -0.277785 0.345671
v -0.196424 -0.353553 0.293969
v -0.154329 -0.415735 0.230970
v -0.106304 -0.461940 0.159095
v -0.054193 -0.490393 0.081106
v -0.000000 0.500000 0.000000
v -0.068975 0.490393 0.068975
v -0.135299 0.461940 0.135299
v -0.196424 0.415735 0.196424
v -0.250000 0.353553 0.250000
v -0.293969 0.277785 0.293969
v -0.326641 0.191342 0.326641
v -0.346760 0.097545 0.346760
v -0.353553 0.000000 0.353553
v -0.346760 -0.097545 0.346760
v -0.326641 -0.191342 0.326641
v -0.293969 -0.277785 0.293969
v -0.250000 -0.353553 0.250000
v -0.196424 -0.415735 0.196424
v -0.135299 -0.461940 0.135299
v -0.068975 -0.490393 0.068975
v -0.081106 0.490393 0.054193
v -0.159095 0.461940 0.106304
v -0.230970 0.415735 0.154329
v -0.293969 0.353553 0.196424
v -0.345671 0.277785 0.230970
v -0.384089 0.191342 0.256640
v -0.407746 0.097545 0.272448
v -0.415735 0.000000 0.277785
v -0.407746 -0.097545 0.272448
v -0.384089 -0.191342 0.256640
v -0.345671 -0.277785 0.230970
v -0.293969 -0.353553 0.196424
v -0.230970 -0.415735 0.154329
v -0.159095 -0.461940 0.106304
v -0.081106 -0.490393 0.054193
v -0.090120 0.490393 0.037329
v -0.176777 0.461940 0.073223
v -0.256640 0.415735 0.106304
v -0.326641 0.353553 0.135299
v -0.384089 0.277785 0.159095
v -0.426777 0.191342 0.176777
v -0.453064 0.097545 0.187665
v -0.461940 0.000000 0.191342
v -0.453064 -0.097545 0.187665
v -0.426777 -0.191342 0.176777
v -0.384089 -0.277785 0.159095
v -0.326641 -0.353553 0.135299
v -0.256640 -0.415735 0.106304
v -0.176777 -0.461940 0.073223
v -0.090120 -0.490393 0.037329
v -0.095671 0.490393 0.019030
v -0.187665 0.461940 0.037329
v -0.272448 0.415735 0.054193
v -0.346760 0.353553 0.068975
v -0.407746 0.277785 0.081106
v -0.453064 0.191342 0.090120
v -0.480970 0.097545 0.095671
v -0.490393 0.000000 0.097545
v -0.480970 -0.097545 0.095671
v -0.453064 -0.191342 0.090120
v -0.407746 -0.277785 0.081106
v -0.346760 -0.353553 0.068975
v -0.272447 -0.415735 0.054193
v -0.187665 -0.461940 0.037329
v -0.095671 -0.490393 0.019030
v -0.097545 0.490393 0.000000
v -0.191342 0.461940 0.000000
v -0.277785 0.415735 0.000000
v -0.353553 0.353553 0.000000
v -0.415735 0.277785 0.000000
v -0.461940 0.191342 0.000000
v -0.490392 0.097545 0.000000
v -0.500000 0.000000 0.000000
v -0.490392 -0.097545 0.000000
v -0.461940 -0.191342 0.000000
v -0.415735 -0.277785 0.000000
v -0.353553 -0.353553 0.000000
v -0.277785 -0.415735 0.000000
v -0.191342 -0.461940 0.000000
v -0.097545 -0.490393 0.000000
v -0.095671 0.490393 -0.019030
v -0.187665 0.461940 -0.037329
v -0.272448 0.415735 -0.054193
v -0.346760 0.353553 -0.068975
v -0.407746 0.277785 -0.081106
v -0.453064 0.191342 -0.090120
v -0.480970 0.097545 -0.095671
v -0.490393 0.000000 -0.097545
v -0.480970 -0.097545 -0.095671
v -0.453064 -0.191342 -0.090120
v -0.407746 -0.277785 -0.081106
v -0.346760 -0.353553 -0.068975
v -0.272447 -0.415735 -0.054193
v -0.187665 -0.461940 -0.037329
v -0.095671 -0.490393 -0.019030
v -0.090120 0.490393 -0.037329
v -0.176777 0.461940 -0.073223
v -0.256640 0.415735 -0.106304
v -0.326641 0.353553 -0.135299
v -0.384089 0.277785 -0.159095
v -0.426777 0.191342 -0.176777
v -0.453063 0.097545 -0.187665
v -0.461940 0.000000 -0.191342
v -0.453063 -0.097545 -0.187665
v -0.426777 -0.191342 -0.176777
v -0.384089 -0.277785 -0.159095
v -0.326641 -0.353553 -0.135299
v -0.256640 -0.415735 -0.106304
v -0.176777 -0.461940 -0.073223
v -0.090120 -0.490393 -0.037329
v -0.081106 0.490393 -0.054193
v -0.159095 0.461940 -0.106304
v -0.230970 0.415735 -0.154329
v -0.293969 0.353553 -0.196424
v -0.345671 0.277785 -0.230970
v -0.384089 0.191342 -0.256640
v -0.407746 0.097545 -0.272447
v -0.415735 0.000000 -0.277785
v -0.407746 -0.097545 -0.272447
v -0.384089 -0.191342 -0.256640
v -0.345671 -0.277785 -0.230970
v -0.293969 -0.353553 -0.196424
v -0.230970 -0.415735 -0.154329
v -0.159095 -0.461940 -0.106304
v -0.081106 -0.490393 -0.054193
v -0.068975 0.490393 -0.068975
v -0.135299 0.461940 -0.135299
v -0.196424 0.415735 -0.196424
v -0.250000 0.353553 -0.250000
v -0.293969 0.277785 -0.293969
v -0.326641 0.191342 -0.326641
v -0.346760 0.097545 -0.346760
v -0.353553 0.000000 -0.353553
v -0.346760 -0.097545 -0.346760
v -0.326641 -0.191342 -0.326641
v -0.293969 -0.277785 -0.293969
v -0.250000 -0.353553 -0.250000
v -0.196424 -0.415735 -0.196424
v -0.135299 -0.461940 -0.135299
v -0.068975 -0.490393 -0.068975
v -0.054193 0.490393 -0.081106
v -0.106304 0.461940 -0.159095
v -0.154329 0.415735 -0.230970
v -0.196424 0.353553 -0.293969
v -0.230970 0.277785 -0.345671
v -0.256640 0.191342 -0.384089
v -0.272447 0.097545 -0.407746
v -0.277785 0.000000 -0.415735
v -0.272447 -0.097545 -0.407746
v -0.256640 -0.191342 -0.384089
v -0.230970 -0.277785 -0.345671
v -0.196424 -0.353553 -0.293969
v -0.154329 -0.415735 -0.230970
v -0.106304 -0.461940 -0.159095
v -0.054193 -0.490393 -0.081106
v -0.037329 0.490393 -0.090120
v -0.073223 0.461940 -0.176776
v -0.106304 0.415735 -0.256640
v -0.135299 0.353553 -0.326641
v -0.159095 0.277785 -0.384089
v -0.176777 0.191342 -0.426776
v -0.187665 0.097545 -0.453063
v -0.191342 0.000000 -0.461939
v -0.187665 -0.097545 -0.453063
v -0.176777 -0.191342 -0.426776
v -0.159095 -0.277785 -0.384089
v -0.135299 -0.353553 -0.326641
v -0.106304 -0.415735 -0.256640
v -0.073223 -0.461940 -0.176776
v -0.037329 -0.490393 -0.090120
v -0.019030 0.490393 -0.095671
v -0.037329 0.461940 -0.187665
v -0.054193 0.415735 -0.272447
v -0.068975 0.353553 -0.346760
v -0.081106 0.277785 -0.407746
v -0.090120 0.191342 -0.453063
v -0.095671 0.097545 -0.480969
v -0.097545 0.000000 -0.490392
v -0.095671 -0.097545 -0.480969
v -0.090120 -0.191342 -0.453063
v -0.081106 -0.277785 -0.407746
v -0.068975 -0.353553 -0.346760
v -0.054193 -0.415735 -0.272447
v -0.037329 -0.461940 -0.187665
v -0.019030 -0.490393 -0.095671
v 0.000000 -0.191342 -0.461940
v 0.000000 -0.277785 -0.415734
v 0.000000 -0.353553 -0.353553
v 0.000000 -0.461940 -0.191341
v 0.000000 -0.490393 -0.097545
vt 0.750000 0.250000
vt 0.750000 0.312500
vt 0.718750 0.312500
vt 0.718750 0.250000
vt 0.750000 0.687500
vt 0.750000 0.750000
vt 0.718750 0.750000
vt 0.718750 0.687500
vt 0.750000 0.187500
vt 0.718750 0.187500
vt 0.750000 0.625000
vt 0.718750 0.625000
vt 0.750000 0.125000
vt 0.718750 0.125000
vt 0.750000 0.562500
vt 0.718750 0.562500
vt 0.750000 0.062500
vt 0.718750 0.062500
vt 0.750000 0.500000
vt 0.718750 0.500000
vt 0.750000 0.937500
vt 0.734375 1.000000
vt 0.718750 0.937500
vt 0.734375 0.000000
vt 0.750000 0.437500
vt 0.718750 0.437500
vt 0.750000 0.875000
vt 0.718750 0.875000
vt 0.750000 0.375000
vt 0.718750 0.375000
vt 0.750000 0.812500
vt 0.718750 0.812500
vt 0.687500 0.375000
vt 0.687500 0.312500
vt 0.687500 0.812500
vt 0.687500 0.750000
vt 0.687500 0.250000
vt 0.687500 0.687500
vt 0.687500 0.187500
vt 0.687500 0.625000
vt 0.687500 0.125000
vt 0.687500 0.562500
vt 0.687500 0.062500
vt 0.687500 0.500000
vt 0.703125 1.000000
vt 0.687500 0.937500
vt 0.703125 0.000000
vt 0.687500 0.437500
vt 0.687500 0.875000
vt 0.656250 0.125000
vt 0.656250 0.062500
vt 0.656250 0.562500
vt 0.656250 0.500000
vt 0.671875 1.000000
vt 0.656250 0.937500
vt 0.671875 0.000000
vt 0.656250 0.437500
vt 0.656250 0.875000
vt 0.656250 0.375000
vt 0.656250 0.812500
vt 0.656250 0.312500
vt 0.656250 0.750000
vt 0.656250 0.250000
vt 0.656250 0.687500
vt 0.656250 0.187500
vt 0.656250 0.625000
vt 0.625000 0.812500
vt 0.625000 0.750000
vt 0.625000 0.312500
vt 0.625000 0.250000
vt 0.625000 0.687500
vt 0.625000 0.187500
vt 0.625000 0.625000
vt 0.625000 0.125000
vt 0.625000 0.562500
vt 0.625000 0.062500
vt 0.625000 0.500000
vt 0.640625 1.000000
vt 0.625000 0.937500
vt 0.640625 0.000000
vt 0.625000 0.437500
vt 0.625000 0.875000
vt 0.625000 0.375000
vt 0.593750 0.562500
vt 0.593750 0.500000
vt 0.609375 1.000000
vt 0.593750 0.937500
vt 0.609375 0.000000
vt 0.593750 0.062500
vt 0.593750 0.437500
vt 0.593750 0.875000
vt 0.593750 0.375000
vt 0.593750 0.812500
vt 0.593750 0.312500
vt 0.593750 0.750000
vt 0.593750 0.250000
vt 0.593750 0.687500
vt 0.593750 0.187500
vt 0.593750 0.625000
vt 0.593750 0.125000
vt 0.562500 0.312500
vt 0.562500 0.250000
vt 0.562500 0.750000
vt 0.562500 0.687500
vt 0.562500 0.187500
vt 0.562500 0.625000
vt 0.562500 0.125000
vt 0.562500 0.562500
vt 0.562500 0.062500
vt 0.562500 0.500000
vt 0.578125 1.000000
vt 0.562500 0.937500
vt 0.578125 0.000000
vt 0.562500 0.437500
vt 0.562500 0.875000
vt 0.562500 0.375000
vt 0.562500 0.812500
vt 0.546875 1.000000
vt 0.531250 0.937500
vt 0.546875 0.000000
vt 0.531250 0.062500
vt 0.531250 0.500000
vt 0.531250 0.437500
vt 0.531250 0.875000
vt 0.531250 0.375000
vt 0.531250 0.812500
vt 0.531250 0.312500
vt 0.531250 0.750000
vt 0.531250 0.250000
vt 0.531250 0.687500
vt 0.531250 0.187500
vt 0.531250 0.625000
vt 0.531250 0.125000
vt 0.531250 0.562500
vt 0.500000 0.750000
vt 0.500000 0.687500
vt 0.500000 0.250000
vt 0.500000 0.187500
vt 0.500000 0.625000
vt 0.500000 0.125000
vt 0.500000 0.562500
vt 0.500000 0.062500
vt 0.500000 0.500000
vt 0.515625 1.000000
vt 0.500000 0.937500
vt 0.515625 0.000000
vt 0.500000 0.437500
vt 0.500000 0.875000
vt 0.500000 0.375000
vt 0.500000 0.812500
vt 0.500000 0.312500
vt 0.468750 0.500000
vt 0.468750 0.437500
vt 0.468750 0.937500
vt 0.468750 0.875000
vt 0.468750 0.375000
vt 0.468750 0.812500
vt 0.468750 0.312500
vt 0.468750 0.750000
vt 0.468750 0.250000
vt 0.468750 0.687500
vt 0.468750 0.187500
vt 0.468750 0.625000
vt 0.468750 0.125000
vt 0.468750 0.562500
vt 0.468750 0.062500
vt 0.484374 1.000000
vt 0.484375 0.000000
vt 0.437500 0.250000
vt 0.437500 0.187500
vt 0.437500 0.687500
vt 0.437500 0.625000
vt 0.437500 0.125000
vt 0.437500 0.562500
vt 0.437500 0.062500
vt 0.437500 0.500000
vt 0.453124 1.000000
vt 0.437500 0.937500
vt 0.453125 0.000000
vt 0.437500 0.437500
vt 0.437500 0.875000
vt 0.437500 0.375000
vt 0.437500 0.812500
vt 0.437500 0.312500
vt 0.437500 0.750000
vt 0.406250 0.437500
vt 0.406250 0.375000
vt 0.406250 0.875000
vt 0.406250 0.812500
vt 0.406250 0.312500
vt 0.406250 0.750000
vt 0.406250 0.250000
vt 0.406250 0.687500
vt 0.406250 0.187500
vt 0.406250 0.625000
vt 0.406250 0.125000
vt 0.406250 0.562500
vt 0.406250 0.062500
vt 0.406250 0.500000
vt 0.421874 1.000000
vt 0.406250 0.937500
vt 0.421875 0.000000
vt 0.375000 0.187500
vt 0.375000 0.125000
vt 0.375000 0.625000
vt 0.375000 0.562500
vt 0.375000 0.062500
vt 0.375000 0.500000
vt 0.390625 1.000000
vt 0.375000 0.937500
vt 0.390625 0.000000
vt 0.375000 0.437500
vt 0.375000 0.875000
vt 0.375000 0.375000
vt 0.375000 0.812500
vt 0.375000 0.312500
vt 0.375000 0.750000
vt 0.375000 0.250000
vt 0.375000 0.687500
vt 0.343750 0.875000
vt 0.343750 0.812500
vt 0.343750 0.375000
vt 0.343750 0.312500
vt 0.343750 0.750000
vt 0.343750 0.250000
vt 0.343750 0.687500
vt 0.343750 0.187500
vt 0.343750 0.625000
vt 0.343750 0.125000
vt 0.343750 0.562500
vt 0.343750 0.062500
vt 0.343750 0.500000
vt 0.359375 1.000000
vt 0.343750 0.937500
vt 0.359375 0.000000
vt 0.343750 0.437500
vt 0.312500 0.625000
vt 0.312500 0.562500
vt 0.312500 0.125000
vt 0.312500 0.062500
vt 0.312500 0.500000
vt 0.328125 1.000000
vt 0.312500 0.937500
vt 0.328125 0.000000
vt 0.312500 0.437500
vt 0.312500 0.875000
vt 0.312500 0.375000
vt 0.312500 0.812500
vt 0.312500 0.312500
vt 0.312500 0.750000
vt 0.312500 0.250000
vt 0.312500 0.687500
vt 0.312500 0.187500
vt 0.281250 0.375000
vt 0.281250 0.312500
vt 0.281250 0.812500
vt 0.281250 0.750000
vt 0.281250 0.250000
vt 0.281250 0.687500
vt 0.281250 0.187500
vt 0.281250 0.625000
vt 0.281250 0.125000
vt 0.281250 0.562500
vt 0.281250 0.062500
vt 0.281250 0.500000
vt 0.296875 1.000000
vt 0.281250 0.937500
vt 0.296875 0.000000
vt 0.281250 0.437500
vt 0.281250 0.875000
vt 0.250000 0.125000
vt 0.250000 0.062500
vt 0.250000 0.562500
vt 0.250000 0.500000
vt 0.265625 1.000000
vt 0.250000 0.937500
vt 0.265625 0.000000
vt 0.250000 0.437500
vt 0.250000 0.875000
vt 0.250000 0.375000
vt 0.250000 0.812500
vt 0.250000 0.312500
vt 0.250000 0.750000
vt 0.250000 0.250000
vt 0.250000 0.687500
vt 0.250000 0.187500
vt 0.250000 0.625000
vt 0.218750 0.812500
vt 0.218750 0.750000
vt 0.218750 0.312500
vt 0.218750 0.250000
vt 0.218750 0.687500
vt 0.218750 0.187500
vt 0.218750 0.625000
vt 0.218750 0.125000
vt 0.218750 0.562500
vt 0.218750 0.062500
vt 0.218750 0.500000
vt 0.234375 1.000000
vt 0.218750 0.937500
vt 0.234375 0.000000
vt 0.218750 0.437500
vt 0.218750 0.875000
vt 0.218750 0.375000
vt 0.187500 0.562500
vt 0.187500 0.500000
vt 0.203125 1.000000
vt 0.187500 0.937500
vt 0.203125 0.000000
vt 0.187500 0.062500
vt 0.187500 0.437500
vt 0.187500 0.875000
vt 0.187500 0.375000
vt 0.187500 0.812500
vt 0.187500 0.312500
vt 0.187500 0.750000
vt 0.187500 0.250000
vt 0.187500 0.687500
vt 0.187500 0.187500
vt 0.187500 0.625000
vt 0.187500 0.125000
vt 0.156250 0.312500
vt 0.156250 0.250000
vt 0.156250 0.750000
vt 0.156250 0.687500
vt 0.156250 0.187500
vt 0.156250 0.625000
vt 0.156250 0.125000
vt 0.156250 0.562500
vt 0.156250 0.062500
vt 0.156250 0.500000
vt 0.171875 1.000000
vt 0.156250 0.937500
vt 0.171875 0.000000
vt 0.156250 0.437500
vt 0.156250 0.875000
vt 0.156250 0.375000
vt 0.156250 0.812500
vt 0.140625 0.000000
vt 0.125000 0.062500
vt 0.125000 0.500000
vt 0.125000 0.437500
vt 0.125000 0.937500
vt 0.125000 0.875000
vt 0.125000 0.375000
vt 0.125000 0.812500
vt 0.125000 0.312500
vt 0.125000 0.750000
vt 0.125000 0.250000
vt 0.125000 0.687500
vt 0.125000 0.187500
vt 0.125000 0.625000
vt 0.125000 0.125000
vt 0.125000 0.562500
vt 0.140625 1.000000
vt 0.093750 0.250000
vt 0.093750 0.187500
vt 0.093750 0.687500
vt 0.093750 0.625000
vt 0.093750 0.125000
vt 0.093750 0.562500
vt 0.093750 0.062500
vt 0.093750 0.500000
vt 0.109375 1.000000
vt 0.093750 0.937500
vt 0.109375 0.000000
vt 0.093750 0.437500
vt 0.093750 0.875000
vt 0.093750 0.375000
vt 0.093750 0.812500
vt 0.093750 0.312500
vt 0.093750 0.750000
vt 0.062500 0.937500
vt 0.062500 0.875000
vt 0.062500 0.437500
vt 0.062500 0.375000
vt 0.062500 0.812500
vt 0.062500 0.312500
vt 0.062500 0.750000
vt 0.062500 0.250000
vt 0.062500 0.687500
vt 0.062500 0.187500
vt 0.062500 0.625000
vt 0.062500 0.125000
vt 0.062500 0.562500
vt 0.062500 0.062500
vt 0.062500 0.500000
vt 0.078125 1.000000
vt 0.078125 0.000000
vt 0.031250 0.687500
vt 0.031250 0.625000
vt 0.031250 0.187500
vt 0.031250 0.125000
vt 0.031250 0.562500
vt 0.031250 0.062500
vt 0.031250 0.500000
vt 0.046875 1.000000
vt 0.031250 0.937500
vt 0.046875 0.000000
vt 0.031250 0.437500
vt 0.031250 0.875000
vt 0.031250 0.375000
vt 0.031250 0.812500
vt 0.031250 0.312500
vt 0.031250 0.750000
vt 0.031250 0.250000
vt 0.000000 0.437500
vt 0.000000 0.375000
vt 0.000000 0.875000
vt 0.000000 0.812500
vt 0.000000 0.312500
vt 0.000000 0.750000
vt 0.000000 0.250000
vt 0.000000 0.687500
vt 0.000000 0.187500
vt 0.000000 0.625000
vt 0.000000 0.125000
vt 0.000000 0.562500
vt 0.000000 0.062500
vt 0.000000 0.500000
vt 0.015625 1.000000
vt 0.000000 0.937500
vt 0.015625 0.000000
vt 1.000000 0.125000
vt 1.000000 0.187500
vt 0.968750 0.187500
vt 0.968750 0.125000
vt 1.000000 0.562500
vt 1.000000 0.625000
vt 0.968750 0.625000
vt 0.968750 0.562500
vt 1.000000 0.062500
vt 0.968750 0.062500
vt 1.000000 0.500000
vt 0.968750 0.500000
vt 1.000000 0.937500
vt 0.984375 1.000000
vt 0.968750 0.937500
vt 0.984375 0.000000
vt 1.000000 0.437500
vt 0.968750 0.437500
vt 1.000000 0.875000
vt 0.968750 0.875000
vt 1.000000 0.375000
vt 0.968750 0.375000
vt 1.000000 0.812500
vt 0.968750 0.812500
vt 1.000000 0.312500
vt 0.968750 0.312500
vt 1.000000 0.750000
vt 0.968750 0.750000
vt 1.000000 0.250000
vt 0.968750 0.250000
vt 1.000000 0.687500
vt 0.968750 0.687500
vt 0.937500 0.875000
vt 0.937500 0.812500
vt 0.937500 0.375000
vt 0.937500 0.312500
vt 0.937500 0.750000
vt 0.937500 0.250000
vt 0.937500 0.687500
vt 0.937500 0.187500
vt 0.937500 0.625000
vt 0.937500 0.125000
vt 0.937500 0.562500
vt 0.937500 0.062500
vt 0.937500 0.500000
vt 0.953125 1.000000
vt 0.937500 0.937500
vt 0.953125 0.000000
vt 0.937500 0.437500
vt 0.906250 0.625000
vt 0.906250 0.562500
vt 0.906250 0.125000
vt 0.906250 0.062500
vt 0.906250 0.500000
vt 0.921875 1.000000
vt 0.906250 0.937500
vt 0.921875 0.000000
vt 0.906250 0.437500
vt 0.906250 0.875000
vt 0.906250 0.375000
vt 0.906250 0.812500
vt 0.906250 0.312500
vt 0.906250 0.750000
vt 0.906250 0.250000
vt 0.906250 0.687500
vt 0.906250 0.187500
vt 0.875000 0.375000
vt 0.875000 0.312500
vt 0.875000 0.812500
vt 0.875000 0.750000
vt 0.875000 0.250000
vt 0.875000 0.687500
vt 0.875000 0.187500
vt 0.875000 0.625000
vt 0.875000 0.125000
vt 0.875000 0.562500
vt 0.875000 0.062500
vt 0.875000 0.500000
vt 0.890625 1.000000
vt 0.875000 0.937500
vt 0.890625 0.000000
vt 0.875000 0.437500
vt 0.875000 0.875000
vt 0.843750 0.125000
vt 0.843750 0.062500
vt 0.843750 0.562500
vt 0.843750 0.500000
vt 0.859375 1.000000
vt 0.843750 0.937500
vt 0.859375 0.000000
vt 0.843750 0.437500
vt 0.843750 0.875000
vt 0.843750 0.375000
vt 0.843750 0.812500
vt 0.843750 0.312500
vt 0.843750 0.750000
vt 0.843750 0.250000
vt 0.843750 0.687500
vt 0.843750 0.187500
vt 0.843750 0.625000
vt 0.812500 0.312500
vt 0.812500 0.250000
vt 0.812500 0.750000
vt 0.812500 0.687500
vt 0.812500 0.187500
vt 0.812500 0.625000
vt 0.812500 0.125000
vt 0.812500 0.562500
vt 0.812500 0.062500
vt 0.812500 0.500000
vt 0.828125 1.000000
vt 0.812500 0.937500
vt 0.828125 0.000000
vt 0.812500 0.437500
vt 0.812500 0.875000
vt 0.812500 0.375000
vt 0.812500 0.812500
vt 0.796875 1.000000
vt 0.781250 0.937500
vt 0.796875 0.000000
vt 0.781250 0.062500
vt 0.781250 0.500000
vt 0.781250 0.437500
vt 0.781250 0.875000
vt 0.781250 0.375000
vt 0.781250 0.812500
vt 0.781250 0.312500
vt 0.781250 0.750000
vt 0.781250 0.250000
vt 0.781250 0.687500
vt 0.781250 0.187500
vt 0.781250 0.625000
vt 0.781250 0.125000
vt 0.781250 0.562500
vt 0.765625 1.000000
vt 0.765625 0.000000
vn 0.0000 -0.7040 -0.7101
vn 0.0000 -0.5528 -0.8333
vn 0.1626 -0.5528 -0.8173
vn 0.1385 -0.7040 -0.6965
vn 0.0000 0.5528 -0.8333
vn 0.0000 0.7040 -0.7101
vn 0.1385 0.7040 -0.6965
vn 0.1626 0.5528 -0.8173
vn 0.0000 -0.8286 -0.5598
vn 0.1092 -0.8286 -0.5490
vn 0.0000 0.3805 -0.9247
vn 0.1804 0.3805 -0.9070
vn 0.0000 -0.9217 -0.3879
vn 0.0757 -0.9217 -0.3804
vn 0.0000 0.1939 -0.9810
vn 0.1914 0.1939 -0.9622
vn 0.0000 -0.9796 -0.2010
vn 0.0392 -0.9796 -0.1971
vn 0.0000 0.0000 -1.0000
vn 0.1951 0.0000 -0.9808
vn 0.0000 0.9796 -0.2010
vn 0.0000 1.0000 0.0000
vn 0.0392 0.9796 -0.1971
vn 0.0000 -1.0000 0.0000
vn 0.0000 -0.1939 -0.9810
vn 0.1914 -0.1939 -0.9622
vn 0.0000 0.9217 -0.3879
vn 0.0757 0.9217 -0.3804
vn 0.0000 -0.3805 -0.9247
vn 0.1804 -0.3805 -0.9070
vn 0.0000 0.8286 -0.5598
vn 0.1092 0.8286 -0.5490
vn 0.3539 -0.3805 -0.8544
vn 0.3189 -0.5528 -0.7699
vn 0.2142 0.8286 -0.5171
vn 0.2717 0.7040 -0.6561
vn 0.2717 -0.7040 -0.6561
vn 0.3189 0.5528 -0.7699
vn 0.2142 -0.8286 -0.5171
vn 0.3539 0.3805 -0.8544
vn 0.1484 -0.9217 -0.3583
vn 0.3754 0.1939 -0.9063
vn 0.0769 -0.9796 -0.1856
vn 0.3827 0.0000 -0.9239
vn 0.0769 0.9796 -0.1856
vn 0.3754 -0.1939 -0.9063
vn 0.1484 0.9217 -0.3583
vn 0.2155 -0.9217 -0.3225
vn 0.1116 -0.9796 -0.1671
vn 0.5450 0.1939 -0.8157
vn 0.5556 0.0000 -0.8314
vn 0.1116 0.9796 -0.1671
vn 0.5450 -0.1939 -0.8157
vn 0.2155 0.9217 -0.3225
vn 0.5137 -0.3805 -0.7689
vn 0.3110 0.8286 -0.4654
vn 0.4630 -0.5528 -0.6929
vn 0.3945 0.7040 -0.5904
vn 0.3945 -0.7040 -0.5904
vn 0.4630 0.5528 -0.6929
vn 0.3110 -0.8286 -0.4654
vn 0.5137 0.3805 -0.7689
vn 0.3958 0.8286 -0.3958
vn 0.5021 0.7040 -0.5021
vn 0.5893 -0.5528 -0.5893
vn 0.5021 -0.7040 -0.5021
vn 0.5893 0.5528 -0.5893
vn 0.3958 -0.8286 -0.3958
vn 0.6539 0.3805 -0.6539
vn 0.2743 -0.9217 -0.2743
vn 0.6937 0.1939 -0.6937
vn 0.1421 -0.9796 -0.1421
vn 0.7071 0.0000 -0.7071
vn 0.1421 0.9796 -0.1421
vn 0.6937 -0.1939 -0.6937
vn 0.2743 0.9217 -0.2743
vn 0.6539 -0.3805 -0.6539
vn 0.8157 0.1939 -0.5450
vn 0.8314 0.0000 -0.5556
vn 0.1671 0.9796 -0.1116
vn 0.1671 -0.9796 -0.1116
vn 0.8157 -0.1939 -0.5450
vn 0.3225 0.9217 -0.2155
vn 0.7689 -0.3805 -0.5137
vn 0.4654 0.8286 -0.3110
vn 0.6929 -0.5528 -0.4630
vn 0.5904 0.7040 -0.3945
vn 0.5904 -0.7040 -0.3945
vn 0.6929 0.5528 -0.4630
vn 0.4654 -0.8286 -0.3110
vn 0.7689 0.3805 -0.5137
vn 0.3225 -0.9217 -0.2155
vn 0.7699 -0.5528 -0.3189
vn 0.6561 -0.7040 -0.2717
vn 0.6561 0.7040 -0.2717
vn 0.7699 0.5528 -0.3189
vn 0.5171 -0.8286 -0.2142
vn 0.8544 0.3805 -0.3539
vn 0.3583 -0.9217 -0.1484
vn 0.9063 0.1939 -0.3754
vn 0.1856 -0.9796 -0.0769
vn 0.9239 0.0000 -0.3827
vn 0.1856 0.9796 -0.0769
vn 0.9063 -0.1939 -0.3754
vn 0.3583 0.9217 -0.1484
vn 0.8544 -0.3805 -0.3539
vn 0.5171 0.8286 -0.2142
vn 0.1971 0.9796 -0.0392
vn 0.1971 -0.9796 -0.0392
vn 0.9808 0.0000 -0.1951
vn 0.9622 -0.1939 -0.1914
vn 0.3804 0.9217 -0.0757
vn 0.9070 -0.3805 -0.1804
vn 0.5490 0.8286 -0.1092
vn 0.8173 -0.5528 -0.1626
vn 0.6965 0.7040 -0.1385
vn 0.6965 -0.7040 -0.1385
vn 0.8173 0.5528 -0.1626
vn 0.5490 -0.8286 -0.1092
vn 0.9070 0.3805 -0.1804
vn 0.3804 -0.9217 -0.0757
vn 0.9622 0.1939 -0.1914
vn 0.7101 0.7040 0.0000
vn 0.8333 0.5528 0.0000
vn 0.7101 -0.7040 0.0000
vn 0.5598 -0.8286 0.0000
vn 0.9247 0.3805 0.0000
vn 0.3879 -0.9217 0.0000
vn 0.9810 0.1939 0.0000
vn 0.2010 -0.9796 0.0000
vn 1.0000 0.0000 0.0000
vn 0.2010 0.9796 0.0000
vn 0.9810 -0.1939 0.0000
vn 0.3879 0.9217 0.0000
vn 0.9247 -0.3805 0.0000
vn 0.5598 0.8286 0.0000
vn 0.8333 -0.5528 0.0000
vn 0.9808 0.0000 0.1951
vn 0.9622 -0.1939 0.1914
vn 0.1971 0.9796 0.0392
vn 0.3804 0.9217 0.0757
vn 0.9070 -0.3805 0.1804
vn 0.5490 0.8286 0.1092
vn 0.8173 -0.5528 0.1626
vn 0.6965 0.7040 0.1385
vn 0.6965 -0.7040 0.1385
vn 0.8173 0.5528 0.1626
vn 0.5490 -0.8286 0.1092
vn 0.9070 0.3805 0.1804
vn 0.3804 -0.9217 0.0757
vn 0.9622 0.1939 0.1914
vn 0.1971 -0.9796 0.0392
vn 0.6561 -0.7040 0.2717
vn 0.5171 -0.8286 0.2142
vn 0.7699 0.5528 0.3189
vn 0.8544 0.3805 0.3539
vn 0.3583 -0.9217 0.1484
vn 0.9063 0.1939 0.3754
vn 0.1856 -0.9796 0.0769
vn 0.9239 0.0000 0.3827
vn 0.1856 0.9796 0.0769
vn 0.9063 -0.1939 0.3754
vn 0.3583 0.9217 0.1484
vn 0.8544 -0.3805 0.3539
vn 0.5171 0.8286 0.2142
vn 0.7699 -0.5528 0.3189
vn 0.6561 0.7040 0.2717
vn 0.8157 -0.1939 0.5450
vn 0.7689 -0.3805 0.5137
vn 0.3225 0.9217 0.2155
vn 0.4654 0.8286 0.3110
vn 0.6929 -0.5528 0.4630
vn 0.5904 0.7040 0.3945
vn 0.5904 -0.7040 0.3945
vn 0.6929 0.5528 0.4630
vn 0.4654 -0.8286 0.3110
vn 0.7689 0.3805 0.5137
vn 0.3225 -0.9217 0.2155
vn 0.8157 0.1939 0.5450
vn 0.1671 -0.9796 0.1116
vn 0.8314 0.0000 0.5556
vn 0.1671 0.9796 0.1116
vn 0.3958 -0.8286 0.3958
vn 0.2743 -0.9217 0.2743
vn 0.6539 0.3805 0.6539
vn 0.6937 0.1939 0.6937
vn 0.1421 -0.9796 0.1421
vn 0.7071 0.0000 0.7071
vn 0.1421 0.9796 0.1421
vn 0.6937 -0.1939 0.6937
vn 0.2743 0.9217 0.2743
vn 0.6539 -0.3805 0.6539
vn 0.3958 0.8286 0.3958
vn 0.5893 -0.5528 0.5893
vn 0.5021 0.7040 0.5021
vn 0.5021 -0.7040 0.5021
vn 0.5893 0.5528 0.5893
vn 0.2155 0.9217 0.3225
vn 0.3110 0.8286 0.4654
vn 0.5137 -0.3805 0.7689
vn 0.4630 -0.5528 0.6929
vn 0.3945 0.7040 0.5904
vn 0.3945 -0.7040 0.5904
vn 0.4630 0.5528 0.6929
vn 0.3110 -0.8286 0.4654
vn 0.5137 0.3805 0.7689
vn 0.2155 -0.9217 0.3225
vn 0.5450 0.1939 0.8157
vn 0.1116 -0.9796 0.1671
vn 0.5556 0.0000 0.8314
vn 0.1116 0.9796 0.1671
vn 0.5450 -0.1939 0.8157
vn 0.3539 0.3805 0.8544
vn 0.3754 0.1939 0.9063
vn 0.1484 -0.9217 0.3583
vn 0.0769 -0.9796 0.1856
vn 0.3827 0.0000 0.9239
vn 0.0769 0.9796 0.1856
vn 0.3754 -0.1939 0.9063
vn 0.1484 0.9217 0.3583
vn 0.3539 -0.3805 0.8544
vn 0.2142 0.8286 0.5171
vn 0.3189 -0.5528 0.7699
vn 0.2717 0.7040 0.6561
vn 0.2717 -0.7040 0.6561
vn 0.3189 0.5528 0.7699
vn 0.2142 -0.8286 0.5171
vn 0.1804 -0.3805 0.9070
vn 0.1626 -0.5528 0.8173
vn 0.1092 0.8286 0.5490
vn 0.1385 0.7040 0.6965
vn 0.1385 -0.7040 0.6965
vn 0.1626 0.5528 0.8173
vn 0.1092 -0.8286 0.5490
vn 0.1804 0.3805 0.9070
vn 0.0757 -0.9217 0.3804
vn 0.1914 0.1939 0.9622
vn 0.0392 -0.9796 0.1971
vn 0.1951 0.0000 0.9808
vn 0.0392 0.9796 0.1971
vn 0.1914 -0.1939 0.9622
vn 0.0757 0.9217 0.3804
vn 0.0000 -0.9217 0.3879
vn 0.0000 -0.9796 0.2010
vn 0.0000 0.1939 0.9810
vn 0.0000 0.0000 1.0000
vn 0.0000 0.9796 0.2010
vn 0.0000 -0.1939 0.9810
vn 0.0000 0.9217 0.3879
vn 0.0000 -0.3805 0.9247
vn 0.0000 0.8286 0.5598
vn 0.0000 -0.5528 0.8333
vn 0.0000 0.7040 0.7101
vn 0.0000 -0.7040 0.7101
vn 0.0000 0.5528 0.8333
vn 0.0000 -0.8286 0.5598
vn 0.0000 0.3805 0.9247
vn -0.1092 0.8286 0.5490
vn -0.1385 0.7040 0.6965
vn -0.1626 -0.5528 0.8173
vn -0.1385 -0.7040 0.6965
vn -0.1626 0.5528 0.8173
vn -0.1092 -0.8286 0.5490
vn -0.1804 0.3805 0.9070
vn -0.0757 -0.9217 0.3804
vn -0.1914 0.1939 0.9622
vn -0.0392 -0.9796 0.1971
vn -0.1951 0.0000 0.9808
vn -0.0392 0.9796 0.1971
vn -0.1914 -0.1939 0.9622
vn -0.0757 0.9217 0.3804
vn -0.1804 -0.3805 0.9070
vn -0.3754 0.1939 0.9063
vn -0.3827 0.0000 0.9239
vn -0.0769 0.9796 0.1856
vn -0.0769 -0.9796 0.1856
vn -0.3754 -0.1939 0.9063
vn -0.1484 0.9217 0.3583
vn -0.3539 -0.3805 0.8544
vn -0.2142 0.8286 0.5171
vn -0.3189 -0.5528 0.7699
vn -0.2717 0.7040 0.6561
vn -0.2717 -0.7040 0.6561
vn -0.3189 0.5528 0.7699
vn -0.2142 -0.8286 0.5171
vn -0.3539 0.3805 0.8544
vn -0.1484 -0.9217 0.3583
vn -0.4630 -0.5528 0.6929
vn -0.3945 -0.7040 0.5904
vn -0.3945 0.7040 0.5904
vn -0.4630 0.5528 0.6929
vn -0.3110 -0.8286 0.4654
vn -0.5137 0.3805 0.7689
vn -0.2155 -0.9217 0.3225
vn -0.5450 0.1939 0.8157
vn -0.1116 -0.9796 0.1671
vn -0.5556 0.0000 0.8314
vn -0.1116 0.9796 0.1671
vn -0.5450 -0.1939 0.8157
vn -0.2155 0.9217 0.3225
vn -0.5137 -0.3805 0.7689
vn -0.3110 0.8286 0.4654
vn -0.1421 -0.9796 0.1421
vn -0.7071 0.0000 0.7071
vn -0.6937 -0.1939 0.6937
vn -0.1421 0.9796 0.1421
vn -0.2743 0.9217 0.2743
vn -0.6539 -0.3805 0.6539
vn -0.3958 0.8286 0.3958
vn -0.5893 -0.5528 0.5893
vn -0.5021 0.7040 0.5021
vn -0.5021 -0.7040 0.5021
vn -0.5893 0.5528 0.5893
vn -0.3958 -0.8286 0.3958
vn -0.6539 0.3805 0.6539
vn -0.2743 -0.9217 0.2743
vn -0.6937 0.1939 0.6937
vn -0.5904 -0.7040 0.3945
vn -0.4654 -0.8286 0.3110
vn -0.6929 0.5528 0.4630
vn -0.7689 0.3805 0.5137
vn -0.3225 -0.9217 0.2155
vn -0.8157 0.1939 0.5450
vn -0.1671 -0.9796 0.1116
vn -0.8314 0.0000 0.5556
vn -0.1671 0.9796 0.1116
vn -0.8157 -0.1939 0.5450
vn -0.3225 0.9217 0.2155
vn -0.7689 -0.3805 0.5137
vn -0.4654 0.8286 0.3110
vn -0.6929 -0.5528 0.4630
vn -0.5904 0.7040 0.3945
vn -0.1856 0.9796 0.0769
vn -0.3583 0.9217 0.1484
vn -0.9063 -0.1939 0.3754
vn -0.8544 -0.3805 0.3539
vn -0.5171 0.8286 0.2142
vn -0.7699 -0.5528 0.3189
vn -0.6561 0.7040 0.2717
vn -0.6561 -0.7040 0.2717
vn -0.7699 0.5528 0.3189
vn -0.5171 -0.8286 0.2142
vn -0.8544 0.3805 0.3539
vn -0.3583 -0.9217 0.1484
vn -0.9063 0.1939 0.3754
vn -0.1856 -0.9796 0.0769
vn -0.9239 0.0000 0.3827
vn -0.8173 0.5528 0.1626
vn -0.9070 0.3805 0.1804
vn -0.5490 -0.8286 0.1092
vn -0.3804 -0.9217 0.0757
vn -0.9622 0.1939 0.1914
vn -0.1971 -0.9796 0.0392
vn -0.9808 0.0000 0.1951
vn -0.1971 0.9796 0.0392
vn -0.9622 -0.1939 0.1914
vn -0.3804 0.9217 0.0757
vn -0.9070 -0.3805 0.1804
vn -0.5490 0.8286 0.1092
vn -0.8173 -0.5528 0.1626
vn -0.6965 0.7040 0.1385
vn -0.6965 -0.7040 0.1385
vn -0.9810 -0.1939 0.0000
vn -0.9247 -0.3805 0.0000
vn -0.3879 0.9217 0.0000
vn -0.5598 0.8286 0.0000
vn -0.8333 -0.5528 0.0000
vn -0.7101 0.7040 0.0000
vn -0.7101 -0.7040 0.0000
vn -0.8333 0.5528 0.0000
vn -0.5598 -0.8286 0.0000
vn -0.9247 0.3805 0.0000
vn -0.3879 -0.9217 0.0000
vn -0.9810 0.1939 0.0000
vn -0.2010 -0.9796 0.0000
vn -1.0000 0.0000 0.0000
vn -0.2010 0.9796 0.0000
vn -0.5490 -0.8286 -0.1092
vn -0.3804 -0.9217 -0.0757
vn -0.9070 0.3805 -0.1804
vn -0.9622 0.1939 -0.1914
vn -0.1971 -0.9796 -0.0392
vn -0.9808 0.0000 -0.1951
vn -0.1971 0.9796 -0.0392
vn -0.9622 -0.1939 -0.1914
vn -0.3804 0.9217 -0.0757
vn -0.9070 -0.3805 -0.1804
vn -0.5490 0.8286 -0.1092
vn -0.8173 -0.5528 -0.1626
vn -0.6965 0.7040 -0.1385
vn -0.6965 -0.7040 -0.1385
vn -0.8173 0.5528 -0.1626
vn -0.3583 0.9217 -0.1484
vn -0.5171 0.8286 -0.2142
vn -0.8544 -0.3805 -0.3539
vn -0.7699 -0.5528 -0.3189
vn -0.6561 0.7040 -0.2717
vn -0.6561 -0.7040 -0.2717
vn -0.7699 0.5528 -0.3189
vn -0.5171 -0.8286 -0.2142
vn -0.8544 0.3805 -0.3539
vn -0.3583 -0.9217 -0.1484
vn -0.9063 0.1939 -0.3754
vn -0.1856 -0.9796 -0.0769
vn -0.9239 0.0000 -0.3827
vn -0.1856 0.9796 -0.0769
vn -0.9063 -0.1939 -0.3754
vn -0.7689 0.3805 -0.5137
vn -0.8157 0.1939 -0.5450
vn -0.3225 -0.9217 -0.2155
vn -0.1671 -0.9796 -0.1116
vn -0.8314 0.0000 -0.5556
vn -0.1671 0.9796 -0.1116
vn -0.8157 -0.1939 -0.5450
vn -0.3225 0.9217 -0.2155
vn -0.7689 -0.3805 -0.5137
vn -0.4654 0.8286 -0.3110
vn -0.6929 -0.5528 -0.4630
vn -0.5904 0.7040 -0.3945
vn -0.5904 -0.7040 -0.3945
vn -0.6929 0.5528 -0.4630
vn -0.4654 -0.8286 -0.3110
vn -0.6539 -0.3805 -0.6539
vn -0.5893 -0.5528 -0.5893
vn -0.3958 0.8286 -0.3958
vn -0.5021 0.7040 -0.5021
vn -0.5021 -0.7040 -0.5021
vn -0.5893 0.5528 -0.5893
vn -0.3958 -0.8286 -0.3958
vn -0.6539 0.3805 -0.6539
vn -0.2743 -0.9217 -0.2743
vn -0.6937 0.1939 -0.6937
vn -0.1421 -0.9796 -0.1421
vn -0.7071 0.0000 -0.7071
vn -0.1421 0.9796 -0.1421
vn -0.6937 -0.1939 -0.6937
vn -0.2743 0.9217 -0.2743
vn -0.2155 -0.9217 -0.3225
vn -0.1116 -0.9796 -0.1671
vn -0.5450 0.1939 -0.8157
vn -0.5556 0.0000 -0.8314
vn -0.1116 0.9796 -0.1671
vn -0.5450 -0.1939 -0.8157
vn -0.2155 0.9217 -0.3225
vn -0.5137 -0.3805 -0.7689
vn -0.3110 0.8286 -0.4654
vn -0.4630 -0.5528 -0.6929
vn -0.3945 0.7040 -0.5904
vn -0.3945 -0.7040 -0.5904
vn -0.4630 0.5528 -0.6929
vn -0.3110 -0.8286 -0.4654
vn -0.5137 0.3805 -0.7689
vn -0.3189 -0.5528 -0.7699
vn -0.2717 -0.7040 -0.6561
vn -0.2717 0.7040 -0.6561
vn -0.3189 0.5528 -0.7699
vn -0.2142 -0.8286 -0.5171
vn -0.3539 0.3805 -0.8544
vn -0.1484 -0.9217 -0.3583
vn -0.3754 0.1939 -0.9063
vn -0.0769 -0.9796 -0.1856
vn -0.3827 0.0000 -0.9239
vn -0.0769 0.9796 -0.1856
vn -0.3754 -0.1939 -0.9063
vn -0.1484 0.9217 -0.3583
vn -0.3539 -0.3805 -0.8544
vn -0.2142 0.8286 -0.5171
vn -0.0392 0.9796 -0.1971
vn -0.0392 -0.9796 -0.1971
vn -0.1951 0.0000 -0.9808
vn -0.1914 -0.1939 -0.9622
vn -0.0757 0.9217 -0.3804
vn -0.1804 -0.3805 -0.9070
vn -0.1092 0.8286 -0.5490
vn -0.1626 -0.5528 -0.8173
vn -0.1385 0.7040 -0.6965
vn -0.1385 -0.7040 -0.6965
vn -0.1626 0.5528 -0.8173
vn -0.1092 -0.8286 -0.5490
vn -0.1804 0.3805 -0.9070
vn -0.0757 -0.9217 -0.3804
vn -0.1914 0.1939 -0.9622
usemtl Material.001
s 1
f 480/1/1 479/2/2 21/3/3 22/4/4
f 5/5/5 4/6/6 14/7/7 15/8/8
f 10/9/9 480/1/1 22/4/4 23/10/10
f 6/11/11 5/5/5 15/8/8 16/12/12
f 481/13/13 10/9/9 23/10/10 24/14/14
f 7/15/15 6/11/11 16/12/12 17/16/16
f 482/17/17 481/13/13 24/14/14 25/18/18
f 8/19/19 7/15/15 17/16/16 18/20/20
f 1/21/21 297/22/22 11/23/23
f 206/24/24 482/17/17 25/18/18
f 9/25/25 8/19/19 18/20/20 19/26/26
f 2/27/27 1/21/21 11/23/23 12/28/28
f 478/29/29 9/25/25 19/26/26 20/30/30
f 3/31/31 2/27/27 12/28/28 13/32/32
f 479/2/2 478/29/29 20/30/30 21/3/3
f 4/6/6 3/31/31 13/32/32 14/7/7
f 21/3/3 20/30/30 35/33/33 36/34/34
f 14/7/7 13/32/32 28/35/35 29/36/36
f 22/4/4 21/3/3 36/34/34 37/37/37
f 15/8/8 14/7/7 29/36/36 30/38/38
f 23/10/10 22/4/4 37/37/37 38/39/39
f 16/12/12 15/8/8 30/38/38 31/40/40
f 24/14/14 23/10/10 38/39/39 39/41/41
f 17/16/16 16/12/12 31/40/40 32/42/42
f 25/18/18 24/14/14 39/41/41 40/43/43
f 18/20/20 17/16/16 32/42/42 33/44/44
f 11/23/23 297/45/22 26/46/45
f 206/47/24 25/18/18 40/43/43
f 19/26/26 18/20/20 33/44/44 34/48/46
f 12/28/28 11/23/23 26/46/45 27/49/47
f 20/30/30 19/26/26 34/48/46 35/33/33
f 13/32/32 12/28/28 27/49/47 28/35/35
f 40/43/43 39/41/41 54/50/48 55/51/49
f 33/44/44 32/42/42 47/52/50 48/53/51
f 26/46/45 297/54/22 41/55/52
f 206/56/24 40/43/43 55/51/49
f 34/48/46 33/44/44 48/53/51 49/57/53
f 27/49/47 26/46/45 41/55/52 42/58/54
f 35/33/33 34/48/46 49/57/53 50/59/55
f 28/35/35 27/49/47 42/58/54 43/60/56
f 36/34/34 35/33/33 50/59/55 51/61/57
f 29/36/36 28/35/35 43/60/56 44/62/58
f 37/37/37 36/34/34 51/61/57 52/63/59
f 30/38/38 29/36/36 44/62/58 45/64/60
f 38/39/39 37/37/37 52/63/59 53/65/61
f 31/40/40 30/38/38 45/64/60 46/66/62
f 39/41/41 38/39/39 53/65/61 54/50/48
f 32/42/42 31/40/40 46/66/62 47/52/50
f 44/62/58 43/60/56 58/67/63 59/68/64
f 52/63/59 51/61/57 66/69/65 67/70/66
f 45/64/60 44/62/58 59/68/64 60/71/67
f 53/65/61 52/63/59 67/70/66 68/72/68
f 46/66/62 45/64/60 60/71/67 61/73/69
f 54/50/48 53/65/61 68/72/68 69/74/70
f 47/52/50 46/66/62 61/73/69 62/75/71
f 55/51/49 54/50/48 69/74/70 70/76/72
f 48/53/51 47/52/50 62/75/71 63/77/73
f 41/55/52 297/78/22 56/79/74
f 206/80/24 55/51/49 70/76/72
f 49/57/53 48/53/51 63/77/73 64/81/75
f 42/58/54 41/55/52 56/79/74 57/82/76
f 50/59/55 49/57/53 64/81/75 65/83/77
f 43/60/56 42/58/54 57/82/76 58/67/63
f 51/61/57 50/59/55 65/83/77 66/69/65
f 63/77/73 62/75/71 77/84/78 78/85/79
f 56/79/74 297/86/22 71/87/80
f 206/88/24 70/76/72 85/89/81
f 64/81/75 63/77/73 78/85/79 79/90/82
f 57/82/76 56/79/74 71/87/80 72/91/83
f 65/83/77 64/81/75 79/90/82 80/92/84
f 58/67/63 57/82/76 72/91/83 73/93/85
f 66/69/65 65/83/77 80/92/84 81/94/86
f 59/68/64 58/67/63 73/93/85 74/95/87
f 67/70/66 66/69/65 81/94/86 82/96/88
f 60/71/67 59/68/64 74/95/87 75/97/89
f 68/72/68 67/70/66 82/96/88 83/98/90
f 61/73/69 60/71/67 75/97/89 76/99/91
f 69/74/70 68/72/68 83/98/90 84/100/92
f 62/75/71 61/73/69 76/99/91 77/84/78
f 70/76/72 69/74/70 84/100/92 85/89/81
f 82/96/88 81/94/86 96/101/93 97/102/94
f 75/97/89 74/95/87 89/103/95 90/104/96
f 83/98/90 82/96/88 97/102/94 98/105/97
f 76/99/91 75/97/89 90/104/96 91/106/98
f 84/100/92 83/98/90 98/105/97 99/107/99
f 77/84/78 76/99/91 91/106/98 92/108/100
f 85/89/81 84/100/92 99/107/99 100/109/101
f 78/85/79 77/84/78 92/108/100 93/110/102
f 71/87/80 297/111/22 86/112/103
f 206/113/24 85/89/81 100/109/101
f 79/90/82 78/85/79 93/110/102 94/114/104
f 72/91/83 71/87/80 86/112/103 87/115/105
f 80/92/84 79/90/82 94/114/104 95/116/106
f 73/93/85 72/91/83 87/115/105 88/117/107
f 81/94/86 80/92/84 95/116/106 96/101/93
f 74/95/87 73/93/85 88/117/107 89/103/95
f 86/112/103 297/118/22 101/119/108
f 206/120/24 100/109/101 115/121/109
f 94/114/104 93/110/102 108/122/110 109/123/111
f 87/115/105 86/112/103 101/119/108 102/124/112
f 95/116/106 94/114/104 109/123/111 110/125/113
f 88/117/107 87/115/105 102/124/112 103/126/114
f 96/101/93 95/116/106 110/125/113 111/127/115
f 89/103/95 88/117/107 103/126/114 104/128/116
f 97/102/94 96/101/93 111/127/115 112/129/117
f 90/104/96 89/103/95 104/128/116 105/130/118
f 98/105/97 97/102/94 112/129/117 113/131/119
f 91/106/98 90/104/96 105/130/118 106/132/120
f 99/107/99 98/105/97 113/131/119 114/133/121
f 92/108/100 91/106/98 106/132/120 107/134/122
f 100/109/101 99/107/99 114/133/121 115/121/109
f 93/110/102 92/108/100 107/134/122 108/122/110
f 105/130/118 104/128/116 119/135/123 120/136/124
f 113/131/119 112/129/117 127/137/125 128/138/126
f 106/132/120 105/130/118 120/136/124 121/139/127
f 114/133/121 113/131/119 128/138/126 129/140/128
f 107/134/122 106/132/120 121/139/127 122/141/129
f 115/121/109 114/133/121 129/140/128 130/142/130
f 108/122/110 107/134/122 122/141/129 123/143/131
f 101/119/108 297/144/22 116/145/132
f 206/146/24 115/121/109 130/142/130
f 109/123/111 108/122/110 123/143/131 124/147/133
f 102/124/112 101/119/108 116/145/132 117/148/134
f 110/125/113 109/123/111 124/147/133 125/149/135
f 103/126/114 102/124/112 117/148/134 118/150/136
f 111/127/115 110/125/113 125/149/135 126/151/137
f 104/128/116 103/126/114 118/150/136 119/135/123
f 112/129/117 111/127/115 126/151/137 127/137/125
f 124/147/133 123/143/131 138/152/138 139/153/139
f 117/148/134 116/145/132 131/154/140 132/155/141
f 125/149/135 124/147/133 139/153/139 140/156/142
f 118/150/136 117/148/134 132/155/141 133/157/143
f 126/151/137 125/149/135 140/156/142 141/158/144
f 119/135/123 118/150/136 133/157/143 134/159/145
f 127/137/125 126/151/137 141/158/144 142/160/146
f 120/136/124 119/135/123 134/159/145 135/161/147
f 128/138/126 127/137/125 142/160/146 143/162/148
f 121/139/127 120/136/124 135/161/147 136/163/149
f 129/140/128 128/138/126 143/162/148 144/164/150
f 122/141/129 121/139/127 136/163/149 137/165/151
f 130/142/130 129/140/128 144/164/150 145/166/152
f 123/143/131 122/141/129 137/165/151 138/152/138
f 116/145/132 297/167/22 131/154/140
f 206/168/24 130/142/130 145/166/152
f 143/162/148 142/160/146 157/169/153 158/170/154
f 136/163/149 135/161/147 150/171/155 151/172/156
f 144/164/150 143/162/148 158/170/154 159/173/157
f 137/165/151 136/163/149 151/172/156 152/174/158
f 145/166/152 144/164/150 159/173/157 160/175/159
f 138/152/138 137/165/151 152/174/158 153/176/160
f 131/154/140 297/177/22 146/178/161
f 206/179/24 145/166/152 160/175/159
f 139/153/139 138/152/138 153/176/160 154/180/162
f 132/155/141 131/154/140 146/178/161 147/181/163
f 140/156/142 139/153/139 154/180/162 155/182/164
f 133/157/143 132/155/141 147/181/163 148/183/165
f 141/158/144 140/156/142 155/182/164 156/184/166
f 134/159/145 133/157/143 148/183/165 149/185/167
f 142/160/146 141/158/144 156/184/166 157/169/153
f 135/161/147 134/159/145 149/185/167 150/171/155
f 155/182/164 154/180/162 169/186/168 170/187/169
f 148/183/165 147/181/163 162/188/170 163/189/171
f 156/184/166 155/182/164 170/187/169 171/190/172
f 149/185/167 148/183/165 163/189/171 164/191/173
f 157/169/153 156/184/166 171/190/172 172/192/174
f 150/171/155 149/185/167 164/191/173 165/193/175
f 158/170/154 157/169/153 172/192/174 173/194/176
f 151/172/156 150/171/155 165/193/175 166/195/177
f 159/173/157 158/170/154 173/194/176 174/196/178
f 152/174/158 151/172/156 166/195/177 167/197/179
f 160/175/159 159/173/157 174/196/178 175/198/180
f 153/176/160 152/174/158 167/197/179 168/199/181
f 146/178/161 297/200/22 161/201/182
f 206/202/24 160/175/159 175/198/180
f 154/180/162 153/176/160 168/199/181 169/186/168
f 147/181/163 146/178/161 161/201/182 162/188/170
f 174/196/178 173/194/176 188/203/183 189/204/184
f 167/197/179 166/195/177 181/205/185 182/206/186
f 175/198/180 174/196/178 189/204/184 190/207/187
f 168/199/181 167/197/179 182/206/186 183/208/188
f 161/201/182 297/209/22 176/210/189
f 206/211/24 175/198/180 190/207/187
f 169/186/168 168/199/181 183/208/188 184/212/190
f 162/188/170 161/201/182 176/210/189 177/213/191
f 170/187/169 169/186/168 184/212/190 185/214/192
f 163/189/171 162/188/170 177/213/191 178/215/193
f 171/190/172 170/187/169 185/214/192 186/216/194
f 164/191/173 163/189/171 178/215/193 179/217/195
f 172/192/174 171/190/172 186/216/194 187/218/196
f 165/193/175 164/191/173 179/217/195 180/219/197
f 173/194/176 172/192/174 187/218/196 188/203/183
f 166/195/177 165/193/175 180/219/197 181/205/185
f 178/215/193 177/213/191 192/220/198 193/221/199
f 186/216/194 185/214/192 200/222/200 201/223/201
f 179/217/195 178/215/193 193/221/199 194/224/202
f 187/218/196 186/216/194 201/223/201 202/225/203
f 180/219/197 179/217/195 194/224/202 195/226/204
f 188/203/183 187/218/196 202/225/203 203/227/205
f 181/205/185 180/219/197 195/226/204 196/228/206
f 189/204/184 188/203/183 203/227/205 204/229/207
f 182/206/186 181/205/185 196/228/206 197/230/208
f 190/207/187 189/204/184 204/229/207 205/231/209
f 183/208/188 182/206/186 197/230/208 198/232/210
f 176/210/189 297/233/22 191/234/211
f 206/235/24 190/207/187 205/231/209
f 184/212/190 183/208/188 198/232/210 199/236/212
f 177/213/191 176/210/189 191/234/211 192/220/198
f 185/214/192 184/212/190 199/236/212 200/222/200
f 197/230/208 196/228/206 212/237/213 213/238/214
f 205/231/209 204/229/207 220/239/215 221/240/216
f 198/232/210 197/230/208 213/238/214 214/241/217
f 191/234/211 297/242/22 207/243/218
f 206/244/24 205/231/209 221/240/216
f 199/236/212 198/232/210 214/241/217 215/245/219
f 192/220/198 191/234/211 207/243/218 208/246/220
f 200/222/200 199/236/212 215/245/219 216/247/221
f 193/221/199 192/220/198 208/246/220 209/248/222
f 201/223/201 200/222/200 216/247/221 217/249/223
f 194/224/202 193/221/199 209/248/222 210/250/224
f 202/225/203 201/223/201 217/249/223 218/251/225
f 195/226/204 194/224/202 210/250/224 211/252/226
f 203/227/205 202/225/203 218/251/225 219/253/227
f 196/228/206 195/226/204 211/252/226 212/237/213
f 204/229/207 203/227/205 219/253/227 220/239/215
f 217/249/223 216/247/221 231/254/228 232/255/229
f 210/250/224 209/248/222 224/256/230 225/257/231
f 218/251/225 217/249/223 232/255/229 233/258/232
f 211/252/226 210/250/224 225/257/231 226/259/233
f 219/253/227 218/251/225 233/258/232 234/260/234
f 212/237/213 211/252/226 226/259/233 227/261/235
f 220/239/215 219/253/227 234/260/234 235/262/236
f 213/238/214 212/237/213 227/261/235 228/263/237
f 221/240/216 220/239/215 235/262/236 236/264/238
f 214/241/217 213/238/214 228/263/237 229/265/239
f 207/243/218 297/266/22 222/267/240
f 206/268/24 221/240/216 236/264/238
f 215/245/219 214/241/217 229/265/239 230/269/241
f 208/246/220 207/243/218 222/267/240 223/270/242
f 216/247/221 215/245/219 230/269/241 231/254/228
f 209/248/222 208/246/220 223/270/242 224/256/230
f 236/264/238 235/262/236 250/271/243 251/272/244
f 229/265/239 228/263/237 243/273/245 244/274/246
f 222/267/240 297/275/22 237/276/247
f 206/277/24 236/264/238 251/272/244
f 230/269/241 229/265/239 244/274/246 245/278/248
f 223/270/242 222/267/240 237/276/247 238/279/249
f 231/254/228 230/269/241 245/278/248 246/280/250
f 224/256/230 223/270/242 238/279/249 239/281/251
f 232/255/229 231/254/228 246/280/250 247/282/252
f 225/257/231 224/256/230 239/281/251 240/283/253
f 233/258/232 232/255/229 247/282/252 248/284/254
f 226/259/233 225/257/231 240/283/253 241/285/255
f 234/260/234 233/258/232 248/284/254 249/286/256
f 227/261/235 226/259/233 241/285/255 242/287/257
f 235/262/236 234/260/234 249/286/256 250/271/243
f 228/263/237 227/261/235 242/287/257 243/273/245
f 240/283/253 239/281/251 254/288/258 255/289/259
f 248/284/254 247/282/252 262/290/260 263/291/261
f 241/285/255 240/283/253 255/289/259 256/292/262
f 249/286/256 248/284/254 263/291/261 264/293/263
f 242/287/257 241/285/255 256/292/262 257/294/264
f 250/271/243 249/286/256 264/293/263 265/295/265
f 243/273/245 242/287/257 257/294/264 258/296/266
f 251/272/244 250/271/243 265/295/265 266/297/267
f 244/274/246 243/273/245 258/296/266 259/298/268
f 237/276/247 297/299/22 252/300/269
f 206/301/24 251/272/244 266/297/267
f 245/278/248 244/274/246 259/298/268 260/302/270
f 238/279/249 237/276/247 252/300/269 253/303/271
f 246/280/250 245/278/248 260/302/270 261/304/272
f 239/281/251 238/279/249 253/303/271 254/288/258
f 247/282/252 246/280/250 261/304/272 262/290/260
f 259/298/268 258/296/266 273/305/273 274/306/274
f 252/300/269 297/307/22 267/308/275
f 206/309/24 266/297/267 281/310/276
f 260/302/270 259/298/268 274/306/274 275/311/277
f 253/303/271 252/300/269 267/308/275 268/312/278
f 261/304/272 260/302/270 275/311/277 276/313/279
f 254/288/258 253/303/271 268/312/278 269/314/280
f 262/290/260 261/304/272 276/313/279 277/315/281
f 255/289/259 254/288/258 269/314/280 270/316/282
f 263/291/261 262/290/260 277/315/281 278/317/283
f 256/292/262 255/289/259 270/316/282 271/318/284
f 264/293/263 263/291/261 278/317/283 279/319/285
f 257/294/264 256/292/262 271/318/284 272/320/286
f 265/295/265 264/293/263 279/319/285 280/321/287
f 258/296/266 257/294/264 272/320/286 273/305/273
f 266/297/267 265/295/265 280/321/287 281/310/276
f 278/317/283 277/315/281 292/322/288 293/323/289
f 271/318/284 270/316/282 285/324/290 286/325/291
f 279/319/285 278/317/283 293/323/289 294/326/292
f 272/320/286 271/318/284 286/325/291 287/327/293
f 280/321/287 279/319/285 294/326/292 295/328/294
f 273/305/273 272/320/286 287/327/293 288/329/295
f 281/310/276 280/321/287 295/328/294 296/330/296
f 274/306/274 273/305/273 288/329/295 289/331/297
f 267/308/275 297/332/22 282/333/298
f 206/334/24 281/310/276 296/330/296
f 275/311/277 274/306/274 289/331/297 290/335/299
f 268/312/278 267/308/275 282/333/298 283/336/300
f 276/313/279 275/311/277 290/335/299 291/337/301
f 269/314/280 268/312/278 283/336/300 284/338/302
f 277/315/281 276/313/279 291/337/301 292/322/288
f 270/316/282 269/314/280 284/338/302 285/324/290
f 206/339/24 296/330/296 312/340/303
f 290/335/299 289/331/297 305/341/304 306/342/305
f 283/336/300 282/333/298 298/343/306 299/344/307
f 291/337/301 290/335/299 306/342/305 307/345/308
f 284/338/302 283/336/300 299/344/307 300/346/309
f 292/322/288 291/337/301 307/345/308 308/347/310
f 285/324/290 284/338/302 300/346/309 301/348/311
f 293/323/289 292/322/288 308/347/310 309/349/312
f 286/325/291 285/324/290 301/348/311 302/350/313
f 294/326/292 293/323/289 309/349/312 310/351/314
f 287/327/293 286/325/291 302/350/313 303/352/315
f 295/328/294 294/326/292 310/351/314 311/353/316
f 288/329/295 287/327/293 303/352/315 304/354/317
f 296/330/296 295/328/294 311/353/316 312/340/303
f 289/331/297 288/329/295 304/354/317 305/341/304
f 282/333/298 297/355/22 298/343/306
f 310/351/314 309/349/312 324/356/318 325/357/319
f 303/352/315 302/350/313 317/358/320 318/359/321
f 311/353/316 310/351/314 325/357/319 326/360/322
f 304/354/317 303/352/315 318/359/321 319/361/323
f 312/340/303 311/353/316 326/360/322 327/362/324
f 305/341/304 304/354/317 319/361/323 320/363/325
f 298/343/306 297/364/22 313/365/326
f 206/366/24 312/340/303 327/362/324
f 306/342/305 305/341/304 320/363/325 321/367/327
f 299/344/307 298/343/306 313/365/326 314/368/328
f 307/345/308 306/342/305 321/367/327 322/369/329
f 300/346/309 299/344/307 314/368/328 315/370/330
f 308/347/310 307/345/308 322/369/329 323/371/331
f 301/348/311 300/346/309 315/370/330 316/372/332
f 309/349/312 308/347/310 323/371/331 324/356/318
f 302/350/313 301/348/311 316/372/332 317/358/320
f 314/368/328 313/365/326 328/373/333 329/374/334
f 322/369/329 321/367/327 336/375/335 337/376/336
f 315/370/330 314/368/328 329/374/334 330/377/337
f 323/371/331 322/369/329 337/376/336 338/378/338
f 316/372/332 315/370/330 330/377/337 331/379/339
f 324/356/318 323/371/331 338/378/338 339/380/340
f 317/358/320 316/372/332 331/379/339 332/381/341
f 325/357/319 324/356/318 339/380/340 340/382/342
f 318/359/321 317/358/320 332/381/341 333/383/343
f 326/360/322 325/357/319 340/382/342 341/384/344
f 319/361/323 318/359/321 333/383/343 334/385/345
f 327/362/324 326/360/322 341/384/344 342/386/346
f 320/363/325 319/361/323 334/385/345 335/387/347
f 313/365/326 297/388/22 328/373/333
f 206/389/24 327/362/324 342/386/346
f 321/367/327 320/363/325 335/387/347 336/375/335
f 333/383/343 332/381/341 347/390/348 348/391/349
f 341/384/344 340/382/342 355/392/350 356/393/351
f 334/385/345 333/383/343 348/391/349 349/394/352
f 342/386/346 341/384/344 356/393/351 357/395/353
f 335/387/347 334/385/345 349/394/352 350/396/354
f 328/373/333 297/397/22 343/398/355
f 206/399/24 342/386/346 357/395/353
f 336/375/335 335/387/347 350/396/354 351/400/356
f 329/374/334 328/373/333 343/398/355 344/401/357
f 337/376/336 336/375/335 351/400/356 352/402/358
f 330/377/337 329/374/334 344/401/357 345/403/359
f 338/378/338 337/376/336 352/402/358 353/404/360
f 331/379/339 330/377/337 345/403/359 346/405/361
f 339/380/340 338/378/338 353/404/360 354/406/362
f 332/381/341 331/379/339 346/405/361 347/390/348
f 340/382/342 339/380/340 354/406/362 355/392/350
f 352/402/358 351/400/356 366/407/363 367/408/364
f 345/403/359 344/401/357 359/409/365 360/410/366
f 353/404/360 352/402/358 367/408/364 368/411/367
f 346/405/361 345/403/359 360/410/366 361/412/368
f 354/406/362 353/404/360 368/411/367 369/413/369
f 347/390/348 346/405/361 361/412/368 362/414/370
f 355/392/350 354/406/362 369/413/369 370/415/371
f 348/391/349 347/390/348 362/414/370 363/416/372
f 356/393/351 355/392/350 370/415/371 371/417/373
f 349/394/352 348/391/349 363/416/372 364/418/374
f 357/395/353 356/393/351 371/417/373 372/419/375
f 350/396/354 349/394/352 364/418/374 365/420/376
f 343/398/355 297/421/22 358/422/377
f 206/423/24 357/395/353 372/419/375
f 351/400/356 350/396/354 365/420/376 366/407/363
f 344/401/357 343/398/355 358/422/377 359/409/365
f 371/424/373 370/425/371 385/426/378 386/427/379
f 364/428/374 363/429/372 378/430/380 379/431/381
f 372/432/375 371/424/373 386/427/379 387/433/382
f 365/434/376 364/428/374 379/431/381 380/435/383
f 358/436/377 297/437/22 373/438/384
f 206/439/24 372/432/375 387/433/382
f 366/440/363 365/434/376 380/435/383 381/441/385
f 359/442/365 358/436/377 373/438/384 374/443/386
f 367/444/364 366/440/363 381/441/385 382/445/387
f 360/446/366 359/442/365 374/443/386 375/447/388
f 368/448/367 367/444/364 382/445/387 383/449/389
f 361/450/368 360/446/366 375/447/388 376/451/390
f 369/452/369 368/448/367 383/449/389 384/453/391
f 362/454/370 361/450/368 376/451/390 377/455/392
f 370/425/371 369/452/369 384/453/391 385/426/378
f 363/429/372 362/454/370 377/455/392 378/430/380
f 375/447/388 374/443/386 389/456/393 390/457/394
f 383/449/389 382/445/387 397/458/395 398/459/396
f 376/451/390 375/447/388 390/457/394 391/460/397
f 384/453/391 383/449/389 398/459/396 399/461/398
f 377/455/392 376/451/390 391/460/397 392/462/399
f 385/426/378 384/453/391 399/461/398 400/463/400
f 378/430/380 377/455/392 392/462/399 393/464/401
f 386/427/379 385/426/378 400/463/400 401/465/402
f 379/431/381 378/430/380 393/464/401 394/466/403
f 387/433/382 386/427/379 401/465/402 402/467/404
f 380/435/383 379/431/381 394/466/403 395/468/405
f 373/438/384 297/469/22 388/470/406
f 206/471/24 387/433/382 402/467/404
f 381/441/385 380/435/383 395/468/405 396/472/407
f 374/443/386 373/438/384 388/470/406 389/456/393
f 382/445/387 381/441/385 396/472/407 397/458/395
f 394/466/403 393/464/401 408/473/408 409/474/409
f 402/467/404 401/465/402 416/475/410 417/476/411
f 395/468/405 394/466/403 409/474/409 410/477/412
f 388/470/406 297/478/22 403/479/413
f 206/480/24 402/467/404 417/476/411
f 396/472/407 395/468/405 410/477/412 411/481/414
f 389/456/393 388/470/406 403/479/413 404/482/415
f 397/458/395 396/472/407 411/481/414 412/483/416
f 390/457/394 389/456/393 404/482/415 405/484/417
f 398/459/396 397/458/395 412/483/416 413/485/418
f 391/460/397 390/457/394 405/484/417 406/486/419
f 399/461/398 398/459/396 413/485/418 414/487/420
f 392/462/399 391/460/397 406/486/419 407/488/421
f 400/463/400 399/461/398 414/487/420 415/489/422
f 393/464/401 392/462/399 407/488/421 408/473/408
f 401/465/402 400/463/400 415/489/422 416/475/410
f 413/485/418 412/483/416 427/490/423 428/491/424
f 406/486/419 405/484/417 420/492/425 421/493/426
f 414/487/420 413/485/418 428/491/424 429/494/427
f 407/488/421 406/486/419 421/493/426 422/495/428
f 415/489/422 414/487/420 429/494/427 430/496/429
f 408/473/408 407/488/421 422/495/428 423/497/430
f 416/475/410 415/489/422 430/496/429 431/498/431
f 409/474/409 408/473/408 423/497/430 424/499/432
f 417/476/411 416/475/410 431/498/431 432/500/433
f 410/477/412 409/474/409 424/499/432 425/501/434
f 403/479/413 297/502/22 418/503/435
f 206/504/24 417/476/411 432/500/433
f 411/481/414 410/477/412 425/501/434 426/505/436
f 404/482/415 403/479/413 418/503/435 419/506/437
f 412/483/416 411/481/414 426/505/436 427/490/423
f 405/484/417 404/482/415 419/506/437 420/492/425
f 432/500/433 431/498/431 446/507/438 447/508/439
f 425/501/434 424/499/432 439/509/440 440/510/441
f 418/503/435 297/511/22 433/512/442
f 206/513/24 432/500/433 447/508/439
f 426/505/436 425/501/434 440/510/441 441/514/443
f 419/506/437 418/503/435 433/512/442 434/515/444
f 427/490/423 426/505/436 441/514/443 442/516/445
f 420/492/425 419/506/437 434/515/444 435/517/446
f 428/491/424 427/490/423 442/516/445 443/518/447
f 421/493/426 420/492/425 435/517/446 436/519/448
f 429/494/427 428/491/424 443/518/447 444/520/449
f 422/495/428 421/493/426 436/519/448 437/521/450
f 430/496/429 429/494/427 444/520/449 445/522/451
f 423/497/430 422/495/428 437/521/450 438/523/452
f 431/498/431 430/496/429 445/522/451 446/507/438
f 424/499/432 423/497/430 438/523/452 439/509/440
f 444/520/449 443/518/447 458/524/453 459/525/454
f 437/521/450 436/519/448 451/526/455 452/527/456
f 445/522/451 444/520/449 459/525/454 460/528/457
f 438/523/452 437/521/450 452/527/456 453/529/458
f 446/507/438 445/522/451 460/528/457 461/530/459
f 439/509/440 438/523/452 453/529/458 454/531/460
f 447/508/439 446/507/438 461/530/459 462/532/461
f 440/510/441 439/509/440 454/531/460 455/533/462
f 433/512/442 297/534/22 448/535/463
f 206/536/24 447/508/439 462/532/461
f 441/514/443 440/510/441 455/533/462 456/537/464
f 434/515/444 433/512/442 448/535/463 449/538/465
f 442/516/445 441/514/443 456/537/464 457/539/466
f 435/517/446 434/515/444 449/538/465 450/540/467
f 443/518/447 442/516/445 457/539/466 458/524/453
f 436/519/448 435/517/446 450/540/467 451/526/455
f 448/535/463 297/541/22 463/542/468
f 206/543/24 462/532/461 477/544/469
f 456/537/464 455/533/462 470/545/470 471/546/471
f 449/538/465 448/535/463 463/542/468 464/547/472
f 457/539/466 456/537/464 471/546/471 472/548/473
f 450/540/467 449/538/465 464/547/472 465/549/474
f 458/524/453 457/539/466 472/548/473 473/550/475
f 451/526/455 450/540/467 465/549/474 466/551/476
f 459/525/454 458/524/453 473/550/475 474/552/477
f 452/527/456 451/526/455 466/551/476 467/553/478
f 460/528/457 459/525/454 474/552/477 475/554/479
f 453/529/458 452/527/456 467/553/478 468/555/480
f 461/530/459 460/528/457 475/554/479 476/556/481
f 454/531/460 453/529/458 468/555/480 469/557/482
f 462/532/461 461/530/459 476/556/481 477/544/469
f 455/533/462 454/531/460 469/557/482 470/545/470
f 467/553/478 466/551/476 4/6/6 5/5/5
f 475/554/479 474/552/477 480/1/1 10/9/9
f 468/555/480 467/553/478 5/5/5 6/11/11
f 476/556/481 475/554/479 10/9/9 481/13/13
f 469/557/482 468/555/480 6/11/11 7/15/15
f 477/544/469 476/556/481 481/13/13 482/17/17
f 470/545/470 469/557/482 7/15/15 8/19/19
f 463/542/468 297/558/22 1/21/21
f 206/559/24 477/544/469 482/17/17
f 471/546/471 470/545/470 8/19/19 9/25/25
f 464/547/472 463/542/468 1/21/21 2/27/27
f 472/548/473 471/546/471 9/25/25 478/29/29
f 465/549/474 464/547/472 2/27/27 3/31/31
f 473/550/475 472/548/473 478/29/29 479/2/2
f 466/551/476 465/549/474 3/31/31 4/6/6
f 474/552/477 473/550/475 479/2/2 480/1/1
