742.4707020601353
1484.9414041203036
2227.412106180439
2969.882808240607
4454.824212360911
5197.294914421046
5939.765616481214
6682.23631854135
7424.707020601519
8909.648424721821
9652.119126781958
10394.589828842125
11137.060530902261
11879.531232962428
13364.472637082732
14106.943339142868
14849.414041203037
15591.88474326317
16334.355445323341
17819.296849443643
18561.767551503777
19304.238253563915
20046.708955624083
20789.17965768425
22274.121061804522
23016.59176386469
23759.062465924824
24501.533167984995
25244.00387004513
26728.945274165435
27471.4159762256
28213.886678285737
28956.357380345904
29698.828082406042
31183.76948652634
31926.24018858651
32668.710890646646
33411.18159270682
34153.65229476695
35638.593698887256
36381.06440094743
37123.535103007554
37866.00580506769
38608.47650712786
40093.417911248165
40835.8886133083
41578.35931536847
42320.830017428634
43063.300719488776
44548.242123609074
45290.712825669216
46033.18352772938
46775.654229789514
47518.124931849685
49003.06633596999
49745.53703803012
50488.00774009029
51230.47844215043
51972.94914421059
53457.89054833087
54200.36125039104
54942.8319524512
55685.30265451134
56427.77335657147
57912.71476069181
58655.18546275194
59397.656164812084
60140.12686687224
60882.59756893241
62367.53897305268
63110.00967511285
63852.48037717299
64594.951079233164
65337.42178129329
66822.3631854136
67564.83388747377
68307.3045895339
69049.77529159407
69792.24599365421
71277.18739777451
72019.65809983465
72762.12880189481
73504.59950395497
74247.07020601511
75732.0116101354
76474.48231219559
77216.95301425572
77959.42371631587
78701.89441837602
80186.83582249633
80929.30652455646
81671.77722661663
82414.2479286768
83156.71863073694
84641.66003485724
85384.1307369174
86126.60143897755
86869.07214103767
87611.54284309782
89096.48424721815
89838.95494927828
90581.42565133843
91323.8963533986
92066.36705545876
93551.30845957903
94293.77916163919
95036.24986369937
95778.72056575949
96521.19126781964
98006.13267193998
98748.60337400011
99491.07407606023
100233.54477812041
100976.01548018058
102460.95688430086
103203.42758636102
103945.89828842117
104688.36899048132
105430.83969254146
106915.78109666175
107658.25179872192
108400.72250078208
109143.1932028422
109885.66390490238
111370.60530902268
112113.0760110828
112855.54671314298
113598.01741520314
114340.48811726327
115825.42952138359
116567.90022344376
117310.37092550388
118052.84162756402
118795.31232962418
120280.25373374448
121022.72443580463
121765.19513786481
122507.66583992496
123250.1365419851
124735.07794610536
125477.54864816554
126220.0193502257
126962.49005228585
127704.96075434599
129189.90215846633
129932.37286052645
130674.84356258658
131417.31426464676
132159.7849667069
133644.7263708272
134387.19707288736
135129.66777494753
135872.13847700765
136614.6091790678
138099.55058318813
138842.02128524828
139584.49198730843
140326.96268936858
141069.43339142873
142554.37479554903
143296.84549760915
144039.31619966932
144781.78690172947
145524.25760378962
147009.19900790992
147751.6697099701
148494.14041203022
149236.6111140904
149979.08181615052
151464.0232202708
152206.493922331
152948.96462439114
153691.4353264513
154433.90602851144
155918.84743263174
156661.3181346919
157403.78883675204
158146.25953881218
158888.73024087236
160373.67164499266
161116.14234705278
161858.61304911296
162601.08375117308
163343.55445323326
164828.49585735356
165570.9665594137
166313.43726147388
167055.907963534
167798.37866559418
169283.32006971448
170025.7907717746
170768.26147383478
171510.73217589493
172253.20287795505
173738.14428207534
174480.61498413552
175223.08568619564
175965.55638825582
176708.02709031597
178192.96849443627
178935.43919649645
179677.90989855657
180420.38060061674
181162.85130267686
182647.7927067972
183390.26340885734
184132.7341109175
184875.20481297767
185617.6755150378
187102.61691915808
187845.08762121826
188587.55832327838
189330.02902533856
190072.49972739868
191557.44113151898
192299.91183357916
193042.38253563934
193784.85323769946
194527.32393975963
196012.26534387993
196754.73604594005
197497.20674800023
198239.67745006035
198982.14815212053
200467.08955624083
201209.56025830095
201952.03096036112
202694.50166242124
203436.97236448142
204921.91376860172
205664.3844706619
206406.85517272205
207149.3258747822
207891.79657684235
209376.7379809626
210119.2086830228
210861.6793850829
211604.1500871431
212346.6207892032
213831.5621933235
214574.0328953837
215316.5035974438
216058.97429950399
216801.44500156416
218286.38640568446
219028.8571077446
219771.32780980476
220513.7985118649
221256.26921392506
222741.21061804536
223483.6813201055
224226.15202216565
224968.6227242258
225711.09342628595
227196.03483040625
227938.5055324664
228680.97623452655
229423.4469365867
230165.91763864688
231650.85904276717
232393.32974482732
233135.80044688747
233878.27114894762
234620.74185100777
236105.68325512807
236848.15395718822
237590.62465924837
238333.09536130851
239075.56606336866
240560.50746748896
241302.97816954914
242045.44887160926
242787.91957366944
243530.39027572962
245015.3316798499
245757.80238191003
246500.2730839702
247242.74378603033
247985.21448809048
249470.15589221078
250212.62659427093
250955.09729633108
251697.56799839123
252440.03870045138
253924.9801045717
254667.45080663188
255409.921508692
256152.39221075218
256894.8629128123
258379.8043169326
259122.27501899278
259864.7457210529
260607.21642311307
261349.6871251732
262834.6285292935
263577.09923135367
264319.5699334138
265062.04063547397
265804.5113375341
267289.4527416544
268031.92344371456
268774.3941457747
269516.86484783486
270259.335549895
271744.2769540153
272486.74765607546
273229.2183581356
273971.68906019576
274714.1597622559
276199.10116637626
276941.57186843635
277684.04257049656
278426.51327255665
279168.98397461686
280653.92537873716
281396.3960807973
282138.86678285745
282881.3374849176
283623.80818697775
285108.74959109805
285851.2202931582
286593.69099521835
287336.1616972785
288078.63239933865
289563.57380345894
290306.0445055191
291048.51520757924
291790.98590963945
292533.45661169954
294018.39801581984
294760.86871788005
295503.33941994014
296245.81012200034
296988.28082406044
298473.2222281808
299215.69293024094
299958.16363230103
300700.6343343612
301443.1050364214
302928.0464405416
303670.51714260184
304412.987844662
305155.4585467222
305897.9292487823
307382.8706529026
308125.3413549628
308867.8120570229
309610.282759083
310352.7534611432
311837.6948652635
312580.1655673236
313322.6362693838
314065.106971444
314807.57767350407
316292.51907762437
317034.9897796846
317777.4604817447
318519.9311838049
319262.40188586497
320747.3432899853
321489.81399204547
322232.28469410556
322974.75539616577
323717.2260982259
325202.16750234616
325944.6382044063
326687.1089064665
327429.57960852666
328172.0503105868
329656.9917147071
330399.4624167673
331141.9331188274
331884.40382088756
332626.87452294776
334111.815927068
334854.28662912815
335596.75733118836
336339.2280332485
337081.6987353086
338566.64013942896
339309.1108414891
340051.5815435492
340794.0522456094
341536.52294766955
343021.46435178985
343763.93505385
344506.4057559101
345248.8764579703
345991.34716003045
347476.2885641507
348218.7592662109
348961.22996827104
349703.7006703312
350446.1713723913
351931.11277651164
352673.5834785718
353416.05418063194
354158.52488269215
354900.9955847523
356385.93698887253
357128.40769093274
357870.8783929929
358613.34909505304
359355.81979711313
360840.7612012335
361583.23190329364
362325.7026053537
363068.1733074139
363810.6440094741
365295.5854135944
366038.05611565453
366780.5268177147
367522.9975197748
368265.468221835
369750.40962595533
370492.8803280154
371235.3510300756
371977.8217321357
372720.29243419593
374205.23383831617
374947.7045403763
375690.1752424365
376432.6459444966
377175.11664655677
378660.0580506771
379402.5287527372
380144.99945479736
380887.4701568575
381629.9408589176
383114.88226303796
383857.35296509817
384599.8236671583
385342.29436921846
386084.76507127867
387569.7064753989
388312.1771774591
389054.64787951927
389797.11858157936
390539.5892836395
392024.53068775986
392767.00138981995
393509.4720918801
394251.9427939403
394994.41349600046
396479.3549001207
397221.8256021809
397964.29630424106
398706.76700630115
399449.2377083613
400934.17911248165
401676.64981454174
402419.1205166019
403161.59121866204
403904.06192072225
405389.0033248425
406131.47402690264
406873.94472896284
407616.41543102294
408358.8861330831
409843.82753720344
410586.29823926365
411328.7689413238
412071.2396433839
412813.7103454441
414298.6517495644
415041.1224516245
415783.5931536847
416526.06385574484
417268.534557805
418753.4759619252
419495.94666398544
420238.4173660456
420980.8880681057
421723.3587701658
423208.3001742862
423950.7708763463
424693.2415784064
425435.7122804666
426178.1829825268
427663.124386647
428405.5950887072
429148.0657907674
429890.53649282746
430633.0071948876
432117.94859900797
432860.41930106806
433602.8900031283
434345.3607051884
435087.8314072486
436572.7728113689
437315.243513429
438057.7142154892
438800.18491754937
439542.6556196095
441027.5970237298
441770.06772578997
442512.5384278501
443255.0091299102
443997.4798319704
445482.4212360907
446224.8919381508
446967.362640211
447709.83334227116
448452.3040443313
449937.2454484516
450679.71615051175
451422.1868525719
452164.657554632
452907.1282566922
454392.0696608125
455134.5403628726
455877.0110649328
456619.48176699295
457361.9524690531
458846.8938731734
459589.36457523354
460331.83527729375
461074.3059793539
461816.77668141405
463301.71808553435
464044.1887875945
464786.65948965464
465529.13019171485
466271.60089377494
467756.54229789524
468499.01299995545
469241.48370201554
469983.9544040757
470726.42510613584
472211.36651025614
472953.8372123163
473696.30791437643
474438.77861643664
475181.24931849673
476666.19072261703
477408.6614246771
478151.1321267373
478893.6028287975
479636.0735308576
481121.0149349779
481863.4856370381
482605.9563390983
483348.42704115843
484090.8977432185
485575.8391473389
486318.309849399
487060.78055145923
487803.2512535194
488545.7219555795
490030.6633596998
490773.13406176
491515.60476382007
492258.0754658802
493000.5461679404
494485.48757206067
495227.9582741208
495970.42897618096
496712.89967824117
497455.37038030126
498940.31178442156
499682.78248648177
500425.25318854186
501167.723890602
501910.19459266216
503395.13599678245
504137.6066988426
504880.07740090275
505622.54810296296
506365.01880502305
507849.9602091434
508592.43091120356
509334.90161326376
510077.3723153239
510819.843017384
512304.78442150436
513047.2551235645
513789.7258256246
514532.19652768475
515274.66722974495
516759.6086338652
517502.07933592534
518244.55003798555
518987.0207400457
519729.4914421058
521214.43284622615
521956.9035482863
522699.3742503464
523441.84495240654
524184.31565446674
525669.257058587
526411.7277606471
527154.1984627073
527896.6691647675
528639.1398668276
530124.0812709479
530866.5519730081
531609.0226750682
532351.4933771284
533093.9640791885
534578.9054833088
535321.376185369
536063.8468874291
536806.3175894894
537548.7882915494
539033.7296956697
539776.20039773
540518.67109979
541261.1418018502
542003.6125039103
543488.5539080306
544231.0246100908
544973.4953121509
545715.9660142112
546458.4367162712
547943.3781203915
548685.8488224518
549428.3195245118
550170.790226572
550913.2609286321
552398.2023327525
553140.6730348126
553883.1437368727
554625.6144389329
555368.0851409931
556853.0265451133
557595.4972471736
558337.9679492337
559080.4386512939
559822.909353354
561307.8507574743
562050.3214595345
562792.7921615946
563535.2628636548
564277.7335657149
565762.6749698352
566505.1456718954
567247.6163739555
567990.0870760157
568732.5577780758
570217.4991821961
570959.9698842563
571702.4405863164
572444.9112883765
573187.3819904367
574672.323394557
575414.7940966171
576157.2647986773
576899.7355007374
577642.2062027976
579127.1476069179
579869.618308978
580612.0890110382
581354.5597130983
582097.0304151585
583581.9718192789
584324.442521339
585066.9132233991
585809.3839254593
586551.8546275195
588036.7960316397
588779.2667337
589521.7374357601
590264.2081378202
591006.6788398803
592491.6202440007
593234.0909460608
593976.5616481209
594167.6796184147
594358.7975887086
594741.0335292962
594932.1514995899
595123.2694698838
595314.3874401775
595505.5054104713
595887.7413510589
596078.8593213528
596269.9772916465
596461.0952619404
596652.2132322341
597034.4491728217
597225.5671431154
597416.6851134093
597607.803083703
597798.9210539969
598181.1569945845
598372.2749648783
598563.3929351721
598754.5109054659
598945.6288757597
599327.8648163473
599518.9827866411
599710.1007569348
599901.2187272287
600092.3366975226
600474.5726381101
600665.6906084039
600856.8085786977
601047.9265489915
601239.0445192853
601621.2804598729
601812.3984301668
602003.5164004605
602194.6343707544
602385.7523410481
602767.9882816357
602959.1062519295
603150.2242222233
603341.3421925171
603532.460162811
603914.6961033986
604105.8140736923
604296.932043986
604488.0500142799
604679.1679845736
605061.4039251612
605252.5218954551
605443.6398657488
605634.7578360427
605825.8758063365
606208.1117469241
606399.2297172179
606590.3476875117
606781.4656578054
606972.5836280993
607354.8195686869
607545.9375389807
607737.0555092745
607928.1734795683
608119.2914498621
608501.5273904497
608692.6453607435
608883.7633310372
609074.8813013311
609265.999271625
609648.2352122125
609839.3531825063
610030.4711528001
610221.5891230939
610412.7070933877
610794.9430339752
610986.061004269
611177.1789745628
611368.2969448566
611559.4149151505
611941.6508557381
612132.7688260318
612323.8867963257
612515.0047666194
612706.1227369133
613088.3586775009
613279.4766477947
613470.5946180884
613661.7125883823
613852.830558676
614235.0664992636
614426.1844695575
614617.3024398512
614808.4204101451
614999.5383804389
615381.7743210265
615572.8922913203
615764.0102616141
615955.1282319078
616146.2462022017
616528.4821427893
616719.6001130831
616910.7180833769
617101.8360536706
617292.9540239645
617675.1899645521
617866.3079348458
618057.4259051397
618248.5438754334
618439.6618457272
618821.8977863148
619013.0157566087
619204.1337269024
619395.2516971963
619586.36966749
619968.6056080776
620159.7235783715
620350.8415486652
620541.959518959
620733.0774892529
621115.3134298405
621306.4314001342
621497.5493704281
621688.6673407218
621879.7853110157
622262.0212516033
622453.1392218971
622644.2571921909
622835.3751624847
623026.4931327784
623408.729073366
623599.8470436599
623790.9650139536
623982.0829842475
624173.2009545413
624555.4368951288
624746.5548654227
624937.6728357164
625128.7908060102
625319.908776304
625702.1447168916
625893.2626871854
626084.3806574792
626275.498627773
626466.6165980669
626848.8525386545
627039.9705089482
627231.088479242
627422.2064495358
627613.3244198296
627995.5603604172
628186.6783307111
628377.7963010048
628568.9142712987
628760.0322415924
629142.26818218
629333.3861524739
629524.5041227676
629715.6220930615
629906.7400633553
630288.9760039429
630480.0939742366
630671.2119445304
630862.3299148242
631053.447885118
631435.6838257055
631626.8017959994
631817.9197662931
632009.037736587
632200.1557068808
632582.3916474684
632773.5096177622
632964.627588056
633155.7455583498
633346.8635286436
633729.0994692312
633920.2174395251
634111.3354098188
634302.4533801127
634493.5713504064
634875.807290994
635066.9252612878
635258.0432315816
635449.1612018754
635640.2791721693
636022.5151127569
636213.6330830506
636404.7510533445
636595.8690236382
636786.986993932
637169.2229345196
637360.3409048135
637551.4588751072
637742.576845401
637933.6948156948
638315.9307562824
638507.0487265761
638698.16669687
638889.2846671637
639080.4026374576
639462.6385780452
639653.756548339
639844.8745186328
640035.9924889266
640227.1104592204
640609.346399808
640800.4643701018
640991.5823403955
641182.7003106894
641373.8182809833
641756.0542215708
641947.1721918646
642138.2901621584
642329.4081324522
642520.526102746
642902.7620433336
643093.8800136275
643284.9979839212
643476.1159542149
643667.2339245088
644049.4698650964
644240.5878353901
644431.705805684
644622.8237759777
644813.9417462716
645196.1776868592
645387.295657153
645578.4136274467
645769.5315977406
645960.6495680343
646342.8855086219
646534.0034789158
646725.1214492095
646916.2394195034
647107.3573897972
647489.5933303848
647680.7113006786
647871.8292709724
648062.9472412661
648254.06521156
648636.3011521476
648827.4191224414
649018.5370927352
649209.655063029
649400.7730333228
649783.0089739104
649974.1269442042
650165.244914498
650356.3628847918
650547.4808550857
650929.7167956731
651120.834765967
651311.9527362607
651503.0707065546
651694.1886768483
652076.4246174359
652267.5425877298
652458.6605580235
652649.7785283173
652840.8964986112
653223.1324391988
653414.2504094925
653605.3683797864
653796.4863500801
653987.604320374
654369.8402609616
654560.9582312554
654752.0762015491
654943.194171843
655134.3121421367
655516.5480827243
655707.6660530182
655898.7840233119
656089.9019936058
656281.0199638996
656663.2559044872
656854.373874781
657045.4918450748
657236.6098153685
657427.7277856623
657809.9637262499
658001.0816965437
658192.1996668375
658383.3176371313
658574.4356074252
658956.6715480128
659147.7895183065
659338.9074886004
659530.0254588941
659721.1434291879
660103.3793697755
660294.4973400694
660485.6153103631
660676.733280657
660867.8512509507
661250.0871915383
661441.2051618322
661632.3231321259
661823.4411024197
662014.5590727136
662396.7950133012
662587.9129835949
662779.0309538888
662970.1489241825
663161.2668944764
663543.502835064
663734.6208053578
663925.7387756516
664116.8567459453
664307.9747162391
664690.2106568267
664881.3286271205
665072.4465974143
665263.5645677081
665454.6825380019
665836.9184785895
666028.0364488834
666219.1544191771
666410.272389471
666601.3903597647
666983.6263003523
667174.7442706461
667365.8622409399
667556.9802112337
667748.0981815276
668130.3341221152
668321.4520924089
668512.5700627028
668703.6880329965
668894.8060032903
669277.0419438779
669468.1599141718
669659.2778844655
669850.3958547594
670041.5138250531
670423.7497656407
