379443.36222868663 0.0 7732.11417013604
379445.4495836419 748.9156887808965 7712.7636873865285
379451.68524312484 1494.1023801078288 7655.058137586466
379461.99183073634 2231.9908129268206 7560.009178180362
379476.2462209295 2959.3125394121093 7429.220459164058
379494.2873348697 3673.2078108804217 7264.7779198672
379515.9254076357 4371.292551770653 7069.120173886152
379540.9515916223 5051.684020731272 6844.905365246055
379569.14694639546 5712.990655370227 6594.8880427173535
379600.2901712572 6354.275036055448 6321.815033445884
379634.16376156174 6974.999843660787 6028.344517867173
379670.55854115967 7574.965756714773 5716.988574863726
379709.2767089126 8154.2482895540115 5390.076835447479
379750.1336371063 8713.138358156168 5049.73752914772
379792.95869187365 9252.089359046451 4697.891842274754
379837.5953337705 9771.67198569906 4336.2577744956725
379883.9007211609 10272.536926943749 3966.3602688487085
379931.74499512644 10755.384931053928 3589.5450793743535
379981.010381466 11220.943376871393 3206.99449763916
380031.5902076944 11669.948368848845 2819.743620469628
380083.38790245506 12103.131383160662 2428.696286489779
380136.3160213729 12521.209576069174 2034.6401436301906
380190.29532618145 12924.878982661756 1638.2605499742428
380245.25393178756 13314.809958696325 1240.153175608824
380301.1265276298 13691.644336506693 840.8352819583204
380357.8536742336 14055.99387089824 440.75572295050563
380415.3811724593 14408.439640331459 40.30375156154394
380473.65950096276 14749.53214258016 -360.18326494444335
380532.64331637125 15079.791883865995 -760.413110710973
380592.2910103011 15399.71030812831 -1160.132858465781
380652.56431736634 15709.750950593721 -1559.1237743494928
380713.4279685903 16010.350729033755 -1957.1968947155005
380774.8493850319 16301.921308683204 -2354.18918846687
380836.798406895 16584.85049411903 -2749.9602279454193
380899.24705386785 16859.503614605823 -3144.3893005030736
380962.1693129004 17126.22487941426 -3537.3729013679513
381025.54095006926 17385.338687141335 -3928.822556124192
381089.3393435767 17637.15087867762 -4318.662928010131
381153.54333529726 17881.949927625177 -4706.830171318054
381218.133098606 18120.00806501597 -5093.270497498202
381283.09002051107 18351.582337384203 -5477.938925195135
381348.3965963645 18576.915598811243 -5860.798189447306
381414.03633564623 18796.237438648983 -6241.817788733039
381479.9936775071 19009.765047355537 -6620.973151516326
381546.2539149263 19217.704023339942 -6998.244906497001
381612.80312648276 19420.2491239789 -7373.61824295891
381679.62811486603 19617.584964092555 -7747.082349486732
381746.71635136404 19809.88666518765 -8118.629920931584
381814.05592565704 19997.320458725484 -8488.256724885452
381881.635500332 20180.04424657141 -8855.961220108265
381949.44426960265 20358.208121649597 -9221.744220367453
382017.47192178294 20531.954851673137 -9585.60859802242
382085.7086051149 20701.42032865534 -9947.559022436573
382154.14489660086 20866.733986739106 -10307.601728945083
382222.77177352895 21028.019190713003 -10665.744314662572
382291.58058741933 21185.393597417897 -11021.995557894505
382360.5630401467 21338.969492089367 -11376.365258330075
382429.71116202546 21488.854101529803 -11728.864095552237
382499.01729166525 21635.14988586097 -12079.503503710364
382568.4740574277 21777.95481047368 -12428.295560469407
382638.07436033204 21917.362599665496 -12775.252888582401
382707.81135827466 22053.462973340887 -13120.388568635512
382777.67845144204 22186.341868039635 -13463.716061690946
382847.6692688086 22316.0816434594 -13805.249140706299
382917.77765562263 22442.7612755458 -14145.001829742754
382987.9976617929 22566.456537138027 -14482.988350091406
383058.3235310983 22687.240167079817 -14819.223072548917
383128.74969115 22805.182028633346 -15153.72047516338
383199.2707440416 22920.349257967428 -15486.495105849424
383269.881457632 23032.806403430674 -15817.561549340564
383340.5767574069 23142.615556264285 -16146.93439800701
383411.35171887337 23249.836473358188 -16474.62822612059
383482.2015604452 23354.526692607047 -16800.65756719502
383553.1216367791 23456.741641379656 -17125.036894071087
383624.10743252793 23556.534738575814 -17447.780601452927
383695.154556479 23653.957490708297 -17768.90299063341
383766.25873604725 23749.05958241439 -18088.41825617557
383837.4158120982 23841.888961770914 -18406.340474341803
383908.6217340757 23932.49192075849 -18722.683593085163
383979.87255541235 24020.913171195094 -19037.46142343689
384051.1644292027 24107.195916435317 -19350.68763214179
384122.49360412045 24191.38191910984 -19662.375735408823
384193.8564205626 24273.511565159715 -19972.539093658233
384265.2493070052 24353.623924401523 -20281.19090715877
384336.6687765557 24431.756807842656 -20588.344212459873
384408.1114236896 24507.946821950132 -20894.01187953325
384479.5739211583 24582.22942006215 -21198.20660954733
384551.0530170582 24654.638951118162 -21500.94093320581
384622.54553204856 24725.208705871108 -21802.227209588502
384694.04835671076 24793.97096073407 -22102.077625439186
384765.5584490391 24860.957019403104 -22400.50419485052
384837.0728320551 24926.19725238861 -22697.518759301336
384908.5885915372 24989.721134578234 -22993.132988006102
384980.1028738596 25051.55728094659 -23287.358378540343
385051.6128839333 25111.73348051889 -23580.20625770953
385123.1158832439 25170.276728688954 -23871.68778263217
385194.609187979 25227.213257985193 -24161.81394201083
385266.0901672416 25282.568567372287 -24450.595557567452
385337.55624134414 25336.367450170444 -24738.043285621607
385409.00488017756 25388.63402066912 -25024.167618792737
385480.43360165315 25439.391739506966 -25308.97888780895
385551.83997021115 25488.66343788545 -25592.487263407165
385623.2215953941 25536.471340679265 -25874.702758310574
385694.5761304798 25582.837088502813 -26155.635229271
385765.9012711728 25627.781758788373 -26435.29437916498
385837.19475434883 25671.325885928116 -26713.68975913348
385908.4543568519 25713.489480529108 -26990.83077075633
385979.6778943392 25754.29204782739 -27266.72666825326
386050.8632201727 25793.752605304486 -27541.386560704308
386122.0082243547 25831.889699547144 -27814.819414283244
386193.11083250504 25868.721422388793 -28087.034054498163
386264.16900487815 25904.265426368776 -28358.039168434203
386335.1807354171 25938.538939543545 -28627.843306993705
386406.1440508446 25971.55877968191 -28896.454887129956
386477.0570097875 26003.34136787464 -29163.882194070713
386547.9177019336 26033.90274158702 -29430.133383528446
386618.7242472203 26063.25856718131 -29695.216483894557
386689.4747950521 26091.424151934716 -29959.139398414984
386760.1675235462 26118.414455576716 -30221.909907345096
386830.80063880596 26144.244101368782 -30483.535670082085
386901.37237421866 26168.927386747782 -30744.02422727311
386971.8809897792 26192.47829355353 -31003.383002897866
387042.3247714359 26214.910497859706 -31261.61930632439
387112.70203046006 26236.237379426413 -31518.740334337053
387183.0111028359 26256.472030791607 -31774.75317313595
387253.2503486713 26275.627266017767 -32029.664800306957
387323.4181516284 26293.7156291093 -32283.482086761913
387393.5129183732 26310.749402115453 -32536.21179864847
387463.53307804227 26326.740612932572 -32787.86059922931
387533.4770817279 26341.701042819026 -33038.43505073049
387603.3434019788 26355.64223363535 -33287.94161615876
387673.13053231715 26368.57549482149 -33536.386661087745
387742.8369867712 26380.511910122495 -33783.77645541309
387812.4612994218 26391.46234407352 -34030.11717507661
387882.00202396343 26401.43744825419 -34275.414903759374
387951.4577332787 26410.447667322274 -34519.67563454428
388020.8270190255 26418.503244835767 -34762.905271547905
388090.10849123716 26425.614228872244 -35005.109631522166
388159.30077793414 26431.790477453924 -35246.29444542599
388228.4025247474 26437.04166378636 -35486.4653599673
388297.4123945529 26441.377281318408 -35725.627939115555
388366.32906711655 26444.80664863069 -35963.787665585485
388435.15123874997 26447.33891415953 -36200.94994229206
388503.8776219756 26448.98306076285 -36437.120093777325
388572.5069452017 26449.747910134392 -36672.303367609384
388641.0379524064 26449.64212707225 -36906.50493575406
388709.4694028303 26448.67422360738 -37139.729895919554
388777.8000706786 26446.85256299764 -37371.98327287455
388846.02874483046 26444.18536359245 -37603.270019740376
388914.1542285567 26440.680702573216 -37833.59501925731
388982.1753392453 26436.346519574112 -38062.96308502595
389050.09090813407 26431.190620187917 -38291.378962723684
389117.89978005097 26425.22067936111 -38518.847331296936
389185.6008131602 26418.44424468253 -38745.37280412955
389253.1928787169 26410.868739569454 -38970.959930187826
389320.67486082634 26402.501466354985 -39195.613195142614
389388.04565621045 26393.349609280354 -39419.33702246889
389455.3041739802 26383.420237395625 -39642.13577452332
389522.4493354137 26372.720307372125 -39864.01375360014
389589.48007374007 26361.256666229874 -40084.975202965936
389656.3953339289 26349.036053982993 -40305.02430787362
389723.1940724844 26336.06510620602 -40524.165196556045
389789.8752572456 26322.35035652407 -40742.4019411998
389856.43786719075 26307.89823902939 -40959.73855889939
389922.8808922468 26292.715090626985 -41176.17901259236
389989.203333104 26276.807153311784 -41391.727211975725
390055.40420103364 26260.18057637969 -41606.38701440407
390121.4825177123 26242.841418574873 -41820.16222576973
390187.43731504807 26224.795650175412 -42033.05660136543
390253.2676350127 26206.049155019457 -42245.07384672972
390318.9725294765 26186.607732473938 -42456.21761847565
390384.551060048 26166.477099347707 -42666.49152510297
390450.0022979167 26145.662891751024 -42875.89912779416
390515.3253237 26124.170666903217 -43084.4439411949
390580.51922729297 26102.00590489011 -43292.12943417887
390645.5831077227 26079.17401037308 -43498.95903059769
390710.5160730045 26055.680314251123 -43704.93611001599
390775.3172400028 26031.53007527764 -43910.06400843204
390839.9857342941 26006.728481633305 -44114.34601898431
390904.5206900337 25981.28065245649 -44317.78539264417
390968.9212498249 25955.191639332603 -44520.385338895045
391033.1865645913 25928.466427743635 -44722.14902639842
391097.31579345226 25901.109938479232 -44923.079583646846
391161.3081036001 25873.127029010466 -45123.18009960424
391225.16267018137 25844.522494827488 -45322.453624333946
391288.87867617933 25815.301070742218 -45520.90316961448
391352.4553122997 25785.467432157144 -45718.53170954361
391415.8917768592 25755.026196301307 -45915.3421811307
391479.18727567507 25723.981923434414 -46111.33748487772
391542.3410219586 25692.3391180202 -46306.52048534927
391605.3522362098 25660.10222986981 -46500.89401173156
391668.22014611465 25627.27565525623 -46694.46085838091
391730.9439864445 25593.863738000604 -46887.22378536176
391793.52299895725 25559.87077053131 -47079.185518974555
391855.9564323014 25525.300994916524 -47270.348752273625
391918.2435419204 25490.158603871234 -47460.71614557537
391980.38358996133 25454.447741739237 -47650.290326956834
392042.3758451832 25418.17250545107 -47839.073892745066
392104.21958286833 25381.336945458443 -48027.06940799723
392165.91408473527 25343.945066645916 -48214.27940697182
392227.45863885304 25306.000829220506 -48400.706393591194
392288.85253955796 25267.508149579782 -48586.3528418954
392350.0950873713 25228.47090115915 -48771.22119648778
392411.18558891845 25188.892915258883 -48955.313872972256
392472.123356851 25148.777981851497 -49138.63325838268
392532.90770976833 25108.129850370005 -49321.18171160423
392593.5379721427 25066.9522304776 -49502.96156378716
392654.0134742442 25025.248792819333 -49683.9751187531
392714.3335520682 24983.023169756194 -49864.22465339377
392774.4975472636 24940.2789560822 -50043.712418062736
392834.50480706285 24897.019709724867 -50222.44063695989
392894.35468421265 24853.24895242959 -50400.41150850908
392954.04653690703 24808.970170428343 -50577.62720572902
393013.5797287204 24764.186815093122 -50754.08987659747
393072.9536285432 24718.902303574607 -50929.80164440899
393132.16761051706 24673.120019426315 -51104.76460812625
393191.22105397336 24626.843313214795 -51278.980842725236
393250.11334337055 24580.075503116142 -51452.45239953419
393308.8438682347 24532.8198754992 -51625.18130656668
393367.4120230996 24485.07968549585 -51797.169568848774
393425.8172074486 24436.858157558676 -51968.419168740475
393484.0588256581 24388.15848600643 -52138.93206625158
393542.1362869405 24338.983835557476 -52308.71019935193
393600.04900528974 24289.337341851693 -52477.755484276386
393657.79639942694 24239.222111960968 -52646.06981582438
393715.37789274735 24188.641224888765 -52813.65506765444
393772.79291326785 24137.597732058854 -52980.51309257355
393830.04089357617 24086.09465779363 -53146.645722821464
393887.12127077975 24034.134999782236 -53312.05477035036
393944.0334864571 23981.721729538713 -53476.742027099455
394000.77698660846 23928.85779285051 -53640.70926526515
394057.3512216081 23875.546110217532 -53803.95823756646
394113.7556461578 23821.789577281983 -53966.49067750599
394169.98971924005 23767.591065249268 -54128.30829962652
394226.0529040733 23712.953421300113 -54289.412799763195
394281.9446680667 23657.87946899419 -54449.805855291524
394337.6644827769 23602.37200866543 -54609.48912537133
394393.2118238644 23546.43381780918 -54768.4642511863
394448.5861710518 23490.06765146151 -54926.73285618
394503.7870080813 23433.27624257078 -55084.2965462875
394558.8138226747 23376.062302361664 -55241.15691016358
394613.66610649246 23318.428520691847 -55397.31551940683
394668.34335509426 23260.377566401574 -55552.77392878025
394722.84506790026 23201.91208765616 -55707.53367642819
394777.17074815254 23143.034712281722 -55861.59628408966
394831.3199028776 23083.748048094207 -56014.96325730824
394885.29204284947 23024.054683221977 -56167.63608563858
394939.0866825526 22963.95718642196 -56319.61624284941
394992.7033401471 22903.458107389706 -56470.9051871234
395046.1415374322 22842.55997706328 -56621.50436125374
395099.4007998129 22781.26530792136 -56771.41519283752
395152.4806562647 22719.57659427546 -56920.639094466074
395205.3806393007 22657.4963125566 -57069.17746391218
395258.1002849382 22595.026921596404 -57217.031684314294
395310.63913266646 22532.170862902873 -57364.203124357955
395362.9967254147 22468.93056093087 -57510.69313845409
395415.1726095201 22405.308423347466 -57656.503066914695
395467.16633469757 22341.306841292324 -57801.6342361256
395518.97745400877 22276.928189633105 -57946.08795871659
395570.6055238322 22212.174827216135 -58089.86553372879
395622.0501038336 22147.04909711238 -58232.96824677948
395673.3107569371 22081.553326858833 -58375.39737022421
395724.3870492961 22015.689828695427 -58517.154163316554
395775.27855026576 21949.460899797596 -58658.239872365266
395825.98483237455 21882.86882250454 -58798.65573088898
395876.5054712974 21815.91586454331 -58938.402959768544
395926.8400458288 21748.604279248797 -59077.48276739706
395976.9881378559 21680.93630577976 -59215.89634982746
396026.94933233276 21612.9141693309 -59353.64489091794
396076.72321725474 21544.54008134113 -59490.72956247512
396126.3093836328 21475.816239698088 -59627.15152439504
396175.7074254692 21406.744828939027 -59762.9119248019
396224.91693973227 21337.328020448072 -59898.011900184785
396273.93752633285 21267.567972650035 -60032.45257553234
396322.7687881 21197.466831200723 -60166.235064465254
396371.410330758 21127.026729173973 -60299.36046936689
396419.861762903 21056.24978724536 -60431.829881511905
396468.1226959802 20985.138113872705 -60563.644381192826
396516.19274426164 20913.693805473406 -60694.80503784492
396564.07152482413 20841.91894659877 -60825.31291016897
396611.75865752733 20769.815610105237 -60955.169046252435
396659.25376499235 20697.38585732273 -61084.37448368862
396706.556472581 20624.631738220058 -61212.9302496942
396753.6664083742 20551.55529156757 -61340.837361224876
396800.58320315246 20478.15854509692 -61468.09682508948
396847.30649037496 20404.44351565827 -61594.709638062195
396893.83590615995 20330.412209374696 -61720.67678699335
396940.171089265 20256.06662179411 -61845.99924891832
396986.31168106786 20181.408738038535 -61970.67799116507
397032.25732554734 20106.440532950994 -62094.71397145992
397078.0076692643 20031.163971239832 -62218.10813803199
397123.5623613435 19955.58100762074 -62340.86142971587
397168.92105345527 19879.693586956437 -62462.97477605296
397214.0833997974 19803.503644393935 -62584.44909739128
397259.0490570776 19727.013105499725 -62705.28530498388
397303.8176844958 19650.223886392603 -62825.48430108574
397348.38894372724 19573.13789387445 -62945.046979049315
397392.7624989053 19495.757025558793 -63063.97422341879
397436.9380166048 19418.0831699974 -63182.26691002279
397480.9151658255 19340.118206804724 -63299.925906065895
397524.69361797604 19261.86400678044 -63416.95207021885
397568.27304685756 19183.32243202999 -63533.34625270742
397611.6531286482 19104.4953360832 -63649.10929539998
397654.83354188735 19025.384564011063 -63764.24203189391
397697.8139674605 18945.99195254063 -63878.74528760071
397740.5940885837 18866.319330168084 -63992.61987982995
397783.173590789 18786.36851727016 -64105.86661787196
397825.55216190976 18706.14132621364 -64218.48630307945
397867.7294920656 18625.639561463326 -64330.47972894788
397909.70527364884 18544.865019688197 -64441.84768119479
397951.4792013097 18463.819489866048 -64552.590937837886
397993.0509719428 18382.504753386427 -64662.71026927217
398034.4202846733 18300.92258415206 -64772.20643834591
398075.5868408431 18219.07474867868 -64881.08020043553
398116.55034399824 18136.963006193397 -64989.33230351953
398157.3104998748 18054.58910873152 -65096.9634882513
398197.8670163864 17971.95480123197 -65203.97448803091
398238.21960361156 17889.061821631192 -65310.36602907601
398278.36797378055 17805.91190095578 -65416.138830491625
398318.3118412633 17722.50676341359 -65521.293604339044
398358.05092255713 17638.84812648358 -65625.8310557037
398397.5849362742 17554.937701004306 -65729.75188276218
398436.9136031303 17470.77719126111 -65833.05677684835
398476.03664593224 17386.368295072032 -65935.74642251829
398514.9537895666 17301.71270387246 -66037.8214976148
398553.6647609885 17216.81210279857 -66139.28267333053
398592.1692892097 17131.668170769502 -66240.13061427062
398630.467105288 17046.28258056845 -66340.36597851425
398668.5579423157 16960.65699892247 -66439.98941767549
398706.44153540913 16874.79308658122 -66539.00157696317
398744.11762169783 16788.69249839455 -66637.40309524011
398781.5859403138 16702.35688338902 -66735.19460508134
398818.8462323813 16615.78788484327 -66832.37673283175
398855.8982410062 16528.987140362417 -66928.95009866268
398892.74171126634 16441.9562819513 -67024.91531662809
398929.37639020116 16354.69693608684 -67120.27299471958
398965.8020268018 16267.210723789221 -67215.02373492095
399002.0183720014 16179.499260692271 -67309.1681332619
399038.02517866564 16091.564157112694 -67402.70677987108
399073.822201583 16003.407018118502 -67495.64025902821
399109.40919745545 15915.029443596382 -67587.9691492158
399144.7859248894 15826.433028318257 -67679.69402316993
399179.9521443863 15737.619362006855 -67770.8154479305
399214.9076183339 15648.590029400446 -67861.33398489062
399249.65211099706 15559.346610316672 -67951.25018984557
399284.1853885093 15469.89067971556 -68040.56461304084
399318.50721886405 15380.223807761644 -68129.2777992198
399352.61737190606 15290.347559885331 -68217.39028767041
399386.51561932307 15200.263496843356 -68304.90261227165
399420.20173463726 15109.97317477856 -68391.81530153897
399453.67549319775 15019.478145278776 -68478.12887866945
399486.9366721714 14928.779955435024 -68563.84386158611
399519.9850505358 14837.880147898895 -68648.96076298179
399552.8204090712 14746.780260939226 -68733.48009036225
399585.4425303525 14655.48182849805 -68817.40234608896
399617.85119874147 14563.98638024577 -68900.72802742104
399650.0462003796 14472.29544163573 -68983.4576265568
399682.0273231807 14380.410533957982 -69065.59163067474
399713.79435682285 14288.33317439247 -69147.13052197378
399745.34709274175 14196.06487606146 -69228.0747777133
399776.68532412377 14103.607148081399 -69308.42487025227
399807.80884589785 14010.961495614023 -69388.18126708818
399838.71745472966 13918.129419916953 -69467.34443089517
399869.410949014 13825.112418393557 -69545.91481956188
399899.88912886847 13731.91198464228 -69623.89288622858
399930.1517961264 13638.529608505296 -69701.27907932401
399960.1987543303 13544.966776116658 -69778.07384260152
399990.0298087255 13451.224969949759 -69854.27761517491
400019.64476625365 13357.305668864334 -69929.89083155362
400049.04343554645 13263.210348152796 -70004.91392167757
400078.22562691907 13168.940479586106 -70079.34731095137
400107.1911523644 13074.497531459014 -70153.19142027841
400135.9398255466 12979.882968634864 -70226.44666609402
400164.4714617953 12885.098252589753 -70299.11346039851
400192.7858780996 12790.14484145632 -70371.1922107897
400220.8828931022 12695.024190066877 -70442.68332049494
400248.76232709346 12599.737749996166 -70513.58718840269
400276.4240020062 12504.286969603525 -70583.90420909382
400303.8677414094 12408.673294074662 -70653.63477287228
400331.09337050334 12312.898165462871 -70722.77926579549
400358.1007161136 12216.963022729862 -70791.33806970426
400384.8896066858 12120.86930178605 -70859.31156225233
400411.4598722805 12024.61843553048 -70926.70011693546
400437.8113445677 11928.211853890232 -70993.50410312015
400463.9438568216 11831.650983859445 -71059.72388607204
400489.8572439161 11734.937249537874 -71125.35982698371
400515.5513423189 11638.07207216906 -71190.41228300237
400541.0259900869 11541.056870178076 -71254.8816072569
400566.28102686146 11443.89305920883 -71318.76814888474
400591.3162938637 11346.582052161051 -71382.07225305824
400616.13163388893 11249.125259226763 -71444.79426101079
400640.726891303 11151.52408792651 -71506.9345100624
400665.1019120369 11053.779943145073 -71568.49333364516
400689.25654358236 10955.894227166928 -71629.47106132808
400713.1906349878 10857.868339711218 -71689.86801884178
400736.9040368532 10759.703677966492 -71749.68452810279
400760.39660132595 10661.401636624962 -71808.92090723747
400783.668182097 10562.96360791653 -71867.57747060554
400806.71863439603 10464.390981642373 -71925.65452882339
400829.5478149874 10365.685145208272 -71983.15238878703
400852.1555821662 10266.847483657528 -72040.07135369463
400874.54179575393 10167.879379703645 -72096.41172306884
400896.70631709445 10068.782213762597 -72152.1737927787
400918.6490090504 9969.557363984877 -72207.3578550613
400940.3697359989 9870.206206287136 -72261.96419854312
400961.86836382793 9770.730114383627 -72315.99310826094
400983.14475993236 9671.130459817243 -72369.44486568269
401004.1987932104 9571.408611990344 -72422.31974872775
401025.0303340598 9471.56593819525 -72474.61803178703
401045.63925437425 9371.603803644484 -72526.33998574283
401066.0254275398 9271.523571500682 -72577.48587798834
401086.1887284313 9171.326602906314 -72628.05597244673
401106.12903340906 9071.014257013036 -72678.05052959027
401125.8462203154 8970.587891010875 -72727.46980645879
401145.34016847104 8870.048860157067 -72776.31405667812
401164.6107586722 8769.398517804731 -72824.58353047815
401183.657873187 8668.638215431194 -72872.27847471059
401202.4813957524 8567.769302666162 -72919.39913286653
401221.0812115712 8466.793127319574 -72965.94574509365
401239.45720730844 8365.711035409267 -73011.9185482132
401257.60927108885 8264.524371188418 -73057.31777573677
401275.5372924935 8163.234477172676 -73102.1436578826
401293.24116255715 8061.842694167192 -73146.3964215919
401310.720773765 7960.3503612933055 -73190.07629054472
401327.97602004994 7858.758816015121 -73233.18348517557
401345.0067967898 7757.069394165763 -73275.71822268887
401361.81300080457 7655.283429973558 -73317.68071707414
401378.39453035354 7553.402256087861 -73359.07117912083
401394.75128513254 7451.427203604821 -73399.889816433
401410.8831662718 7349.359602092825 -73440.13683344377
401426.7900763327 7247.20077961787 -73479.81243142944
401442.4719193056 7144.952062768614 -73518.91680852346
401457.92860060727 7042.614776681379 -73557.45015973004
401473.1600270784 6940.190245064847 -73595.41267693769
401488.16610698105 6837.6797902246735 -73632.80454893234
401502.9467499965 6735.084733087845 -73669.62596141038
401517.5018672228 6632.406393226953 -73705.87709699137
401531.83137117245 6529.646088884193 -73741.55813523059
401545.9351757702 6426.805136995311 -73776.66925263127
401559.8131963508 6323.884853213282 -73811.21062265668
401573.4653496568 6220.886551931931 -73845.18241574198
401586.8915538366 6117.811546309294 -73878.58479930578
401600.09172844194 6014.661148290932 -73911.41793776158
401613.06579442637 5911.436668633001 -73943.6819925289
401625.813674143 5808.13941692525 -73975.37712204426
401638.33529134246 5704.7707016138165 -74006.5034817719
401650.630571171 5601.331830023952 -74037.06122421425
401662.6994401687 5497.824108382519 -74067.05049892234
401674.54182626755 5394.248841840457 -74096.47145250576
401686.1576587898 5290.607334495023 -74125.3242286427
401697.5468684457 5186.900889411964 -74153.60896808944
401708.7093873325 5083.130808647567 -74181.32580868994
401719.6451489319 4979.298393270526 -74208.47488538509
401730.35408810934 4875.404943383778 -74235.05633022165
401740.8361411114 4771.451758146128 -74261.07027236126
401751.091245565 4667.440135793859 -74286.51683808894
401761.1193404755 4563.37137366213 -74311.39615082162
401770.92036622495 4459.246768206362 -74335.70833111633
401780.49426457117 4355.06761502343 -74359.45349667828
401789.8409786461 4250.835208872845 -74382.63176236866
401798.9604529541 4146.550843697734 -74405.24324021235
401807.8526333709 4042.2158126458266 -74427.28803940529
401816.51746714226 3937.831408090244 -74448.76626632182
401824.95490288234 3833.3989216503055 -74469.67802452162
401833.16489057295 3728.9196442121224 -74490.02341475675
401841.147381562 3624.3948659492394 -74509.80253497818
401848.90232856234 3519.8258763430576 -74529.01548034232
401856.4296856506 3415.2139642033 -74547.66234321732
401863.7294082664 3310.5604176882816 -74565.7432131892
401870.80145321036 3205.8665243252167 -74583.25817706772
401877.6457786443 3101.1335710303338 -74600.20731889213
401884.2623440893 2996.3628441290425 -74616.5907199367
401890.65111042495 2891.5556293759087 -74632.40845871613
401896.8120398886 2786.7132119746757 -74647.66061099061
401902.7450960741 2681.8368765981163 -74662.34724977093
401908.4502439314 2576.927907407922 -74676.46844532317
401913.92744976527 2471.9875880744376 -74690.02426517342
401919.17668123444 2367.017201796425 -74703.01477411212
401924.1979073514 2262.018031320694 -74715.4400341984
401928.99109848106 2156.991358961759 -74727.30010476407
401933.55622634006 2051.9384666213627 -74738.59504241758
401937.8932639966 1946.8606358080117 -74749.3249010477
401942.0021858694 1841.759147656467 -74759.489731827
401945.8829677268 1736.6352829471207 -74769.08958321532
401949.5355866871 1631.490322125444 -74778.1245009628
401952.9600212169 1526.3255453212755 -74786.59452811304
401956.15625113156 1421.1422323681852 -74794.49970500571
401959.1242575939 1315.9416628226995 -74801.8400692794
401961.8640231144 1210.725115983596 -74808.61565587386
401964.3755315503 1105.493870911068 -74814.8264970325
401966.65876810567 1000.2492064459552 -74820.47262230435
401968.71371933055 894.9924012288643 -74825.55405854605
401970.54037312086 789.7247337193502 -74830.07082992356
401972.13871871855 684.4474822149842 -74834.02295791378
401973.5087467103 579.1619248705025 -74837.41046130595
401974.6504490285 473.86933971683857 -74840.2333562028
401975.56381895015 368.5710046802341 -74842.49165602177
401976.2488510971 263.26819760125437 -74844.18537149567
401976.70554143575 157.96219625387624 -74845.31451067353
401976.93388727744 52.654278364477086 -74845.87907892106
401976.93388727744 -52.65427836908272 -74845.87907892106
401976.70554143575 -157.96219625848173 -74845.31451067353
401976.248851097 -263.2681976058607 -74844.18537149567
401975.5638189501 -368.5710046848403 -74842.49165602177
401974.65044902836 -473.86933972144504 -74840.2333562028
401973.50874671026 -579.1619248751113 -74837.41046130595
401972.1387187184 -684.4474822195941 -74834.02295791378
401970.54037312075 -789.7247337239613 -74830.07082992357
401968.71371933026 -894.9924012334762 -74825.55405854605
401966.65876810544 -1000.2492064505675 -74820.47262230437
401964.37553155015 -1105.4938709156809 -74814.82649703251
401961.86402311415 -1210.7251159882096 -74808.61565587386
401959.12425759365 -1315.9416628273116 -74801.84006927938
401956.15625113127 -1421.1422323727888 -74794.49970500571
401952.96002121666 -1526.3255453258828 -74786.59452811301
401949.5355866868 -1631.4903221300426 -74778.12450096277
401945.88296772656 -1736.6352829517234 -74769.08958321527
401942.00218586903 -1841.7591476610614 -74759.48973182695
401937.89326399635 -1946.8606358126142 -74749.32490104763
401933.5562263397 -2051.9384666259575 -74738.59504241752
401928.9910984807 -2156.9913589663593 -74727.30010476401
401924.19790735113 -2262.0180313252936 -74715.44003419833
401919.17668123415 -2367.0172018010244 -74703.01477411206
401913.9274497649 -2471.987588079037 -74690.02426517336
401908.4502439311 -2576.9279074125234 -74676.4684453231
401902.7450960738 -2681.8368766027165 -74662.34724977086
401896.8120398881 -2786.7132119792755 -74647.66061099054
401890.6511104245 -2891.5556293805057 -74632.40845871605
401884.2623440888 -2996.3628441336364 -74616.59071993663
401877.64577864384 -3101.133571034925 -74600.20731889205
401870.80145320983 -3205.8665243298037 -74583.25817706763
401863.72940826585 -3310.560417692866 -74565.74321318911
401856.42968565016 -3415.21396420788 -74547.66234321722
401848.90232856176 -3519.825876347634 -74529.0154803422
401841.14738156134 -3624.3948659538137 -74509.80253497805
401833.16489057225 -3728.9196442166945 -74490.02341475664
401824.95490288164 -3833.3989216548753 -74469.6780245215
401816.5174671415 -3937.8314080948144 -74448.76626632169
401807.85263337014 -4042.2158126503955 -74427.28803940518
401798.9604529534 -4146.550843702303 -74405.24324021222
401789.8409786453 -4250.835208877413 -74382.63176236853
401780.4942645704 -4355.067615027996 -74359.45349667815
401770.9203662241 -4459.246768210927 -74335.70833111618
401761.11934047466 -4563.371373666691 -74311.39615082149
401751.0912455642 -4667.440135798417 -74286.51683808879
401740.83614111063 -4771.451758150681 -74261.0702723611
401730.3540881086 -4875.4049433883165 -74235.0563302215
401719.64514893113 -4979.298393275057 -74208.47488538493
401708.7093873316 -5083.1308086520985 -74181.32580868977
401697.54686844494 -5186.900889416489 -74153.60896808928
401686.1576587889 -5290.607334499535 -74125.32422864252
401674.5418262666 -5394.248841844967 -74096.47145250559
401662.69944016775 -5497.82410838704 -74067.05049892215
401650.63057116995 -5601.331830028466 -74037.06122421406
401638.3352913414 -5704.770701618329 -74006.50348177171
401625.813674142 -5808.139416929755 -73975.37712204408
401613.06579442543 -5911.436668637516 -73943.68199252871
401600.0917284409 -6014.6611482954395 -73911.41793776139
401586.89155383554 -6117.811546313789 -73878.58479930558
401573.4653496558 -6220.886551936412 -73845.18241574177
401559.81319634983 -6323.884853217769 -73811.21062265648
401545.9351757692 -6426.805136999784 -73776.66925263105
401531.83137117146 -6529.646088888659 -73741.55813523037
401517.5018672218 -6632.4063932314075 -73705.87709699114
401502.94674999535 -6735.084733092306 -73669.62596141014
401488.16610697994 -6837.679790229122 -73632.8045489321
401473.1600270773 -6940.190245069287 -73595.41267693746
401457.92860060616 -7042.614776685811 -73557.4501597298
401442.47191930446 -7144.952062773053 -73518.91680852321
401426.7900763316 -7247.200779622298 -73479.81243142919
401410.8831662706 -7349.359602097251 -73440.13683344352
401394.7512851314 -7451.427203609234 -73399.88981643274
401378.3945303523 -7553.402256092282 -73359.07117912057
401361.8130008034 -7655.283429977967 -73317.68071707389
401345.0067967886 -7757.069394170161 -73275.7182226886
401327.9760200488 -7858.7588160195055 -73233.18348517528
401310.7207737638 -7960.350361297698 -73190.07629054443
401293.24116255593 -8061.842694171571 -73146.39642159162
401275.5372924922 -8163.234477177045 -73102.14365788229
401257.60927108757 -8264.524371192769 -73057.31777573646
401239.45720730716 -8365.711035413611 -73011.9185482129
401221.0812115699 -8466.793127323916 -72965.94574509334
401202.4813957511 -8567.769302670493 -72919.39913286622
401183.6578731857 -8668.63821543552 -72872.27847471029
401164.6107586709 -8769.398517809046 -72824.58353047784
401145.34016846976 -8870.048860161389 -72776.3140566778
401125.8462203141 -8970.587891015184 -72727.46980645847
401106.1290334078 -9071.01425701734 -72678.05052958995
401086.18872843 -9171.326602910607 -72628.05597244641
401066.0254275385 -9271.52357150498 -72577.485877988
401045.6392543729 -9371.603803648766 -72526.33998574251
401025.0303340585 -9471.565938199521 -72474.6180317867
401004.1987932091 -9571.408611994602 -72422.3197487274
400983.144759931 -9671.130459821501 -72369.44486568235
400961.86836382654 -9770.730114387874 -72315.99310826058
400940.3697359975 -9870.206206291376 -72261.96419854276
400918.649009049 -9969.5573639891 -72207.35785506094
400896.70631709305 -10068.782213766824 -72152.17379277834
400874.54179575254 -10167.87937970786 -72096.41172306846
400852.15558216494 -10266.847483661737 -72040.07135369426
400829.54781498614 -10365.685145212468 -71983.15238878665
400806.7186343947 -10464.390981646575 -71925.654528823
400783.6681820957 -10562.96360792072 -71867.57747060515
400760.39660132455 -10661.40163662914 -71808.92090723707
400736.9040368517 -10759.703677970656 -71749.6845281024
400713.19063498644 -10857.868339715384 -71689.86801884137
400689.256543581 -10955.89422717108 -71629.47106132765
400665.10191203555 -11053.779943149219 -71568.49333364474
400640.7268913016 -11151.524087930642 -71506.934510062
400616.1316338876 -11249.12525923089 -71444.79426101038
400591.31629386224 -11346.582052165179 -71382.0722530578
400566.2810268601 -11443.89305921295 -71318.7681488843
400541.02599008544 -11541.056870182181 -71254.88160725645
400515.5513423174 -11638.072072173152 -71190.41228300192
400489.8572439147 -11734.937249541963 -71125.35982698326
400463.9438568202 -11831.650983863523 -71059.72388607157
400437.8113445662 -11928.211853894301 -70993.50410311969
400411.459872279 -12024.61843553454 -70926.70011693498
400384.88960668416 -12120.869301790113 -70859.31156225184
400358.10071611195 -12216.963022733911 -70791.33806970376
400331.09337050177 -12312.898165466913 -70722.779265795
400303.8677414078 -12408.67329407869 -70653.63477287178
400276.42400200455 -12504.286969607552 -70583.9042090933
400248.7623270918 -12599.73775000018 -70513.58718840218
400220.88289310056 -12695.02419007088 -70442.68332049441
400192.785878098 -12790.144841460306 -70371.19221078917
400164.4714617937 -12885.098252593738 -70299.11346039799
400135.939825545 -12979.882968638833 -70226.44666609347
400107.1911523627 -13074.497531462977 -70153.19142027787
400078.22562691744 -13168.940479590055 -70079.34731095083
400049.0434355448 -13263.210348156748 -70004.913921677
400019.6447662521 -13357.30566886827 -69929.89083155307
399990.02980872383 -13451.224969953684 -69854.27761517437
399960.1987543286 -13544.966776120567 -69778.07384260098
399930.1517961247 -13638.529608509209 -69701.27907932343
399899.8891288668 -13731.911984646176 -69623.892886228
399869.4109490123 -13825.112418397444 -69545.9148195613
399838.71745472786 -13918.129419920824 -69467.3444308946
399807.80884589604 -14010.96149561789 -69388.1812670876
399776.68532412197 -14103.607148085252 -69308.42487025168
399745.34709274006 -14196.064876065304 -69228.07477771271
399713.79435682105 -14288.333174396295 -69147.1305219732
399682.0273231789 -14380.410533961794 -69065.59163067416
399650.0462003779 -14472.295441639537 -68983.4576265562
399617.85119873966 -14563.986380249566 -68900.72802742044
399585.4425303507 -14655.481828501826 -68817.40234608835
399552.8204090694 -14746.780260942995 -68733.48009036164
399519.985050534 -14837.880147902657 -68648.96076298117
399486.9366721695 -14928.779955438775 -68563.8438615855
399453.67549319594 -15019.478145282512 -68478.12887866882
399420.2017346356 -15109.973174782279 -68391.81530153834
399386.5156193212 -15200.263496847072 -68304.902612271
399352.61737190426 -15290.34755988903 -68217.39028766977
399318.5072188623 -15380.223807765338 -68129.27779921915
399284.18538850744 -15469.890679719236 -68040.5646130402
399249.6521109952 -15559.346610320345 -67951.25018984491
399214.907618332 -15648.590029404104 -67861.33398488996
399179.9521443844 -15737.6193620105 -67770.81544792984
399144.7859248875 -15826.433028321888 -67679.69402316927
399109.4091974535 -15915.029443600006 -67587.96914921512
399073.82220158103 -16003.40701812211 -67495.64025902752
399038.02517866367 -16091.56415711629 -67402.7067798704
399002.0183719994 -16179.499260695857 -67309.16813326124
398965.8020267998 -16267.210723792803 -67215.02373492025
398929.3763901991 -16354.6969360904 -67120.27299471888
398892.74171126436 -16441.956281954852 -67024.9153166274
398855.89824100415 -16528.98714036595 -66928.95009866201
398818.84623237915 -16615.7878848468 -66832.37673283105
398781.5859403117 -16702.356883392527 -66735.19460508064
398744.11762169574 -16788.692498398046 -66637.4030952394
398706.4415354071 -16874.793086584697 -66539.00157696247
398668.55794231355 -16960.656998925948 -66439.98941767476
398630.4671052859 -17046.28258057192 -66340.36597851352
398592.16928920755 -17131.66817077295 -66240.13061426989
398553.66476098634 -17216.812102801996 -66139.2826733298
398514.95378956455 -17301.71270387588 -66037.82149761406
398476.0366459301 -17386.36829507544 -65935.74642251755
398436.9136031282 -17470.777191264504 -65833.05677684759
398397.5849362721 -17554.937701007682 -65729.75188276144
398358.050922555 -17638.84812648694 -65625.83105570295
398318.3118412611 -17722.50676341695 -65521.29360433828
398278.36797377834 -17805.911900959123 -65416.13883049086
398238.2196036094 -17889.061821634517 -65310.36602907523
398197.8670163842 -17971.95480123527 -65203.97448803013
398157.3104998725 -18054.589108734825 -65096.9634882505
398116.55034399603 -18136.96300619668 -64989.33230351874
398075.5868408409 -18219.074748681945 -64881.080200434735
398034.42028467095 -18300.92258415531 -64772.20643834511
397993.0509719405 -18382.50475338967 -64662.71026927137
397951.47920130735 -18463.819489869275 -64552.59093783708
397909.70527364657 -18544.86501969141 -64441.847681193976
397867.72949206334 -18625.639561466516 -64330.47972894708
397825.55216190737 -18706.141326216828 -64218.486303078615
397783.1735907866 -18786.368517273328 -64105.86661787112
397740.5940885812 -18866.31933017124 -63992.61987982911
397697.81396745803 -18945.991952543758 -63878.74528759988
397654.8335418849 -19025.38456401419 -63764.24203189307
397611.6531286457 -19104.49533608631 -63649.10929539913
397568.2730468551 -19183.322432033085 -63533.34625270657
397524.69361797353 -19261.86400678352 -63416.952070218
397480.915165823 -19340.118206807794 -63299.92590606502
397436.9380166023 -19418.083170000453 -63182.266910021914
397392.7624989028 -19495.75702556183 -63063.97422341792
397348.3889437248 -19573.137893877465 -62945.04697904845
397303.8176844933 -19650.223886395604 -62825.484301084856
397259.0490570751 -19727.013105502716 -62705.28530498299
397214.08339979494 -19803.50364439691 -62584.44909739039
397168.92105345277 -19879.693586959394 -62462.97477605206
397123.5623613409 -19955.58100762369 -62340.86142971497
397078.0076692617 -20031.163971242764 -62218.10813803107
397032.2573255448 -20106.44053295391 -62094.713971459
396986.3116810653 -20181.408738041442 -61970.677991164135
396940.1710892624 -20256.066621796992 -61845.99924891739
396893.8359061573 -20330.41220937757 -61720.67678699241
396847.3064903724 -20404.443515661125 -61594.70963806126
396800.58320314984 -20478.15854509976 -61468.09682508852
396753.66640837165 -20551.555291570392 -61340.837361223916
396706.5564725783 -20624.631738222874 -61212.93024969323
396659.2537649897 -20697.385857325524 -61084.37448368765
396611.75865752465 -20769.815610108017 -60955.16904625146
396564.07152482145 -20841.918946601527 -60825.312910167995
396516.192744259 -20913.693805476156 -60694.80503784394
396468.1226959775 -20985.138113875433 -60563.64438119184
396419.8617629003 -21056.249787248078 -60431.82988151092
396371.4103307554 -21127.02672917667 -60299.360469365914
396322.76878809725 -21197.466831203412 -60166.23506446425
396273.93752633006 -21267.567972652705 -60032.45257553134
396224.91693972953 -21337.328020450732 -59898.011900183796
396175.70742546645 -21406.744828941664 -59762.911924800894
396126.30938363005 -21475.816239700715 -59627.15152439403
396076.7232172519 -21544.54008134374 -59490.7295624741
396026.9493323299 -21612.914169333493 -59353.644890916905
395976.988137853 -21680.936305782336 -59215.896349826435
395926.8400458259 -21748.604279251358 -59077.482767396024
395876.50547129463 -21815.915864545856 -58938.40295976751
395825.98483237164 -21882.86882250707 -58798.655730887935
395775.27855026285 -21949.460899800106 -58658.23987236423
395724.3870492932 -22015.689828697916 -58517.15416331552
395673.31075693417 -22081.55332686131 -58375.397370223145
395622.0501038307 -22147.049097114843 -58232.96824677843
395570.6055238293 -22212.17482721858 -58089.865533727745
395518.97745400586 -22276.92818963553 -57946.087958715536
395467.16633469466 -22341.30684129474 -57801.63423612453
395415.1726095172 -22405.308423349863 -57656.503066913625
395362.9967254118 -22468.930560933244 -57510.693138453025
395310.63913266355 -22532.17086290523 -57364.20312435688
395258.10028493527 -22595.02692159875 -57217.03168431321
395205.3806392978 -22657.496312558927 -57069.17746391107
395152.4806562618 -22719.57659427777 -56920.639094464976
395099.40079981 -22781.265307923648 -56771.41519283642
395046.1415374293 -22842.559977065557 -56621.50436125262
394992.70334014413 -22903.45810739196 -56470.90518712228
394939.0866825497 -22963.9571864242 -56319.61624284828
394885.29204284644 -23024.054683224196 -56167.63608563746
394831.31990287465 -23083.748048096415 -56014.9632573071
394777.17074814957 -23143.034712283905 -55861.59628408852
394722.84506789723 -23201.912087658326 -55707.53367642705
394668.34335509123 -23260.37756640372 -55552.773928779105
394613.6661064895 -23318.428520693986 -55397.31551940567
394558.8138226718 -23376.062302363778 -55241.15691016242
394503.78700807836 -23433.27624257288 -55084.29654628634
394448.5861710488 -23490.067651463592 -54926.73285617884
394393.21182386146 -23546.433817811245 -54768.46425118513
394337.66448277386 -23602.372008667477 -54609.48912537014
394281.9446680637 -23657.87946899622 -54449.80585529035
394226.0529040703 -23712.953421302118 -54289.41279976201
394169.989719237 -23767.59106525126 -54128.30829962533
394113.7556461547 -23821.78957728396 -53966.49067750481
394057.35122160503 -23875.546110219486 -53803.95823756527
394000.7769866054 -23928.857792852443 -53640.70926526396
393944.0334864541 -23981.721729540626 -53476.74202709827
393887.1212707768 -24034.134999784135 -53312.054770349154
393830.0408935731 -24086.094657795515 -53146.64572282027
393772.7929132648 -24137.597732060713 -52980.51309257234
393715.37789274426 -24188.641224890605 -52813.65506765325
393657.79639942397 -24239.22211196279 -52646.06981582317
393600.0490052867 -24289.337341853494 -52477.75548427517
393542.1362869374 -24338.983835559266 -52308.71019935073
393484.0588256551 -24388.158486008193 -52138.932066250374
393425.8172074456 -24436.858157560426 -51968.419168739245
393367.4120230965 -24485.079685497574 -51797.169568847545
393308.8438682317 -24532.81987550091 -51625.18130656545
393250.1133433676 -24580.075503117834 -51452.45239953297
393191.2210539703 -24626.843313216472 -51278.980842724
393132.167610514 -24673.120019427966 -51104.764608125006
393072.9536285401 -24718.90230357624 -50929.80164440774
393013.57972871733 -24764.186815094734 -50754.08987659623
392954.04653690394 -24808.970170429933 -50577.62720572776
392894.35468420957 -24853.248952431164 -50400.41150850782
392834.50480705977 -24897.01970972642 -50222.44063695863
392774.4975472606 -24940.278956083737 -50043.71241806149
392714.3335520652 -24983.023169757715 -49864.22465339249
392654.01347424113 -25025.248792820832 -49683.97511875182
392593.53797213966 -25066.95223047908 -49502.96156378589
392532.90770976525 -25108.129850371457 -49321.18171160295
392472.12335684785 -25148.777981852938 -49138.63325838138
392411.18558891537 -25188.892915260298 -48955.31387297097
392350.0950873681 -25228.47090116054 -48771.22119648648
392288.8525395548 -25267.508149581154 -48586.3528418941
392227.45863884984 -25306.00082922186 -48400.70639358987
392165.914084732 -25343.945066647248 -48214.279406970505
392104.21958286513 -25381.33694545975 -48027.06940799591
392042.37584518 -25418.172505452363 -47839.07389274375
391980.3835899582 -25454.447741740507 -47650.29032695552
391918.24354191724 -25490.15860387249 -47460.716145574035
391855.9564322981 -25525.300994917754 -47270.3487522723
391793.5229989541 -25559.870770532514 -47079.18551897322
391730.9439864413 -25593.863738001794 -46887.223785360424
391668.22014611145 -25627.275655257403 -46694.46085837954
391605.3522362065 -25660.102229870958 -46500.89401173019
391542.34102195536 -25692.33911802133 -46306.52048534791
391479.1872756718 -25723.98192343552 -46111.33748487636
391415.891776856 -25755.026196302395 -45915.342181129316
391352.4553122965 -25785.467432158217 -45718.531709542236
391288.8786761761 -25815.30107074327 -45520.903169613106
391225.1626701781 -25844.52249482851 -45322.45362433258
391161.30810359697 -25873.12702901147 -45123.180099602854
391097.315793449 -25901.10993848021 -44923.07958364547
391033.18656458805 -25928.466427744595 -44722.14902639705
390968.92124982167 -25955.19163933354 -44520.38533889368
390904.5206900305 -25981.280652457415 -44317.78539264276
390839.9857342908 -26006.728481634207 -44114.346018982906
390775.3172399995 -26031.53007527852 -43910.06400843063
390710.5160730012 -26055.68031425198 -43704.93611001457
390645.58310771943 -26079.174010373918 -43498.959030596234
390580.51922728977 -26102.00590489093 -43292.12943417741
390515.3253236967 -26124.170666904014 -43084.44394119343
390450.0022979134 -26145.662891751803 -42875.8991277927
390384.55106004473 -26166.477099348464 -42666.49152510147
390318.97252947325 -26186.60773247467 -42456.217618474155
390253.26763500937 -26206.04915502017 -42245.073846728206
390187.4373150448 -26224.7956501761 -42033.05660136391
390121.482517709 -26242.841418575546 -41820.162225768174
390055.40420103044 -26260.180576380346 -41606.387014402506
389989.2033331007 -26276.807153312413 -41391.72721197417
389922.88089224364 -26292.715090627593 -41176.179012590794
389856.4378671875 -26307.898239029975 -40959.738558897814
389789.87525724235 -26322.350356524636 -40742.4019411982
389723.1940724812 -26336.065106206563 -40524.16519655442
389656.39533392567 -26349.03605398351 -40305.02430787199
389589.4800737369 -26361.25666623037 -40084.975202964306
389522.4493354105 -26372.7203073726 -39864.013753598476
389455.30417397694 -26383.420237396072 -39642.135774521645
389388.0456562072 -26393.349609280784 -39419.33702246721
389320.6748608232 -26402.50146635539 -39195.61319514092
389253.1928787138 -26410.868739569833 -38970.95993018609
389185.60081315704 -26418.444244682883 -38745.372804127815
389117.8997800477 -26425.220679361442 -38518.8473312952
389050.0909081309 -26431.190620188227 -38291.37896272194
388982.1753392421 -26436.346519574396 -38062.96308502417
388914.15422855347 -26440.680702573478 -37833.59501925551
388846.0287448273 -26444.185363592693 -37603.27001973857
388777.8000706754 -26446.852562997865 -37371.983272872756
388709.46940282703 -26448.674223607584 -37139.72989591772
388641.03795240313 -26449.642127072428 -36906.50493575222
388572.5069451986 -26449.74791013454 -36672.30336760753
388503.87762197247 -26448.983060762977 -36437.12009377546
388435.1512387468 -26447.338914159634 -36200.94994229017
388366.3290671134 -26444.806648630773 -35963.78766558359
388297.4123945497 -26441.377281318466 -35725.62793911365
388228.4025247443 -26437.041663786393 -35486.465359965376
388159.300777931 -26431.790477453935 -35246.29444542405
388090.108491234 -26425.614228872233 -35005.10963152021
388020.8270190223 -26418.50324483573 -34762.90527154594
387951.4577332754 -26410.44766732221 -34519.67563454232
387882.0020239603 -26401.4374482541 -34275.4149037574
387812.46129941865 -26391.4623440734 -34030.11717507459
387742.836986768 -26380.511910122354 -33783.77645541107
387673.1305323139 -26368.575494821318 -33536.38666108571
387603.3434019756 -26355.64223363516 -33287.94161615672
387533.47708172473 -26341.7010428188 -33038.43505072841
387463.5330780392 -26326.74061293232 -32787.86059922721
387393.51291836996 -26310.74940211518 -32536.211798646367
387323.41815162526 -26293.715629109003 -32283.482086759806
387253.25034866814 -26275.627266017444 -32029.66480030482
387183.01110283274 -26256.472030791254 -31774.7531731338
387112.7020304569 -26236.237379426024 -31518.74033433489
387042.32477143273 -26214.910497859288 -31261.619306322216
386971.880989776 -26192.478293553082 -31003.383002895658
386901.37237421545 -26168.92738674732 -30744.024227270897
386830.80063880276 -26144.244101368284 -30483.53567007987
386760.16752354306 -26118.414455576192 -30221.909907342873
386689.47479504894 -26091.424151934156 -29959.13939841273
386618.7242472171 -26063.25856718073 -29695.216483892305
386547.91770193033 -26033.902741586404 -29430.133383526198
386477.0570097842 -26003.341367874007 -29163.882194068465
386406.14405084134 -25971.558779681243 -28896.454887127682
386335.18073541374 -25938.53893954285 -28627.843306991428
386264.1690048748 -25904.265426368056 -28358.039168431922
386193.1108325018 -25868.72142238805 -28087.03405449589
386122.0082243514 -25831.889699546373 -27814.819414280933
386050.8632201693 -25793.752605303685 -27541.386560702
385979.67789433594 -25754.292047826562 -27266.726668250954
385908.4543568488 -25713.48948052825 -26990.830770754033
385837.19475434575 -25671.325885927217 -26713.689759131146
385765.9012711697 -25627.781758787452 -26435.29437916265
385694.5761304767 -25582.83708850187 -26155.63522926867
385623.2215953911 -25536.47134067829 -25874.70275830824
385551.8399702082 -25488.66343788444 -25592.48726340483
385480.4336016501 -25439.391739505925 -25308.978887806574
385409.0048801744 -25388.634020668047 -25024.167618790358
385337.55624134105 -25336.367450169346 -24738.043285619224
385266.0901672386 -25282.56856737116 -24450.595557565055
385194.60918797593 -25227.213257984033 -24161.813942008393
385123.1158832409 -25170.276728687757 -23871.687782629728
385051.6128839302 -25111.733480517665 -23580.20625770706
384980.10287385655 -25051.557280945333 -23287.358378537843
384908.5885915342 -24989.72113457694 -22993.132988003534
384837.07283205213 -24926.197252387272 -22697.51875929872
384765.558449036 -24860.957019401747 -22400.504194847905
384694.0483567075 -24793.970960732673 -22102.077625436545
384622.54553204525 -24725.208705869656 -21802.227209585806
384551.05301705486 -24654.638951116664 -21500.940933203074
384479.57392115484 -24582.229420060612 -21198.20660954456
384408.1114236861 -24507.946821948553 -20894.011879530422
384336.66877655225 -24431.756807841026 -20588.344212456956
384265.24930700177 -24353.62392439986 -20281.190907155848
384193.8564205592 -24273.511565158024 -19972.53909365532
384122.4936041171 -24191.381919108124 -19662.375735405923
384051.16442919936 -24107.195916433568 -19350.687632138855
383979.87255540903 -24020.913171193315 -19037.461423433942
383908.62173407245 -23932.491920756675 -18722.68359308221
383837.4158120949 -23841.888961769055 -18406.340474338795
383766.258736044 -23749.05958241247 -18088.418256172474
383695.15455647575 -23653.957490706325 -17768.902990630264
383624.1074325247 -23556.534738573806 -17447.780601449747
383553.12163677585 -23456.741641377605 -17125.036894067878
383482.201560442 -23354.526692604937 -16800.657567191727
383411.3517188701 -23249.836473356037 -16474.628226117267
383340.5767574036 -23142.61555626208 -16146.934398003648
383269.88145762874 -23032.80640342842 -15817.56154933717
383199.27074403834 -22920.349257965132 -15486.495105845988
383128.7496911467 -22805.182028630985 -15153.720475159864
383058.3235310951 -22687.24016707741 -14819.223072545366
382987.9976617897 -22566.45653713557 -14482.988350087817
382917.77765561955 -22442.761275543307 -14145.00182973917
382847.66926880553 -22316.081643456855 -13805.249140702685
382777.6784514389 -22186.341868037052 -13463.716061687348
382707.81135827163 -22053.462973338268 -13120.388568631923
382638.074360329 -21917.36259966284 -12775.252888578818
382568.4740574247 -21777.95481047096 -12428.295560465796
382499.01729166217 -21635.149885858187 -12079.5035037067
382429.7111620224 -21488.85410152696 -11728.864095548532
382360.5630401437 -21338.969492086453 -11376.365258326312
382291.58058741625 -21185.393597414888 -11021.995557890641
382222.7717735259 -21028.019190709932 -10665.744314658668
382154.1448965978 -20866.733986735962 -10307.60172894112
382085.70860511187 -20701.420328652115 -9947.559022432548
382017.4719217799 -20531.95485166981 -9585.608598018285
381949.4442695996 -20358.208121646192 -9221.744220363276
381881.63550032896 -20180.044246567923 -8855.961220104024
381814.0559256541 -19997.320458721904 -8488.256724881148
381746.716351361 -19809.886665183956 -8118.62992092717
381679.628114863 -19617.58496408877 -7747.082349482269
381612.80312647973 -19420.249123975023 -7373.618242954381
381546.2539149234 -19217.70402333596 -6998.244906492407
381479.99367750424 -19009.76504735143 -6620.973151511638
381414.0363356433 -18796.23743864477 -6241.817788728285
381348.39659636165 -18576.91559880692 -5860.7981894424875
381283.0900205083 -18351.58233737976 -5477.938925190255
381218.1330986033 -18120.00806501142 -5093.270497493279
381153.5433352945 -17881.94992762047 -4706.830171313023
381089.339343574 -17637.150878672826 -4318.662928005102
381025.5409500665 -17385.338687136442 -3928.822556119162
380962.1693128978 -17126.224879409277 -3537.3729013629236
380899.2470538652 -16859.503614600704 -3144.389300498
380836.7984068926 -16584.85049411382 -2749.9602279403607
380774.8493850294 -16301.921308677867 -2354.1891884617858
380713.4279685879 -16010.350729028276 -1957.196894710379
380652.56431736395 -15709.750950588032 -1559.1237743442525
380592.2910102987 -15399.71030812243 -1160.132858460469
380532.64331636886 -15079.791883859893 -760.4131107055725
380473.65950096044 -14749.532142573937 -360.1832649390812
380415.38117245695 -14408.439640325098 40.30375156687282
380357.85367423133 -14055.993870891778 440.7557229557485
380301.12652762764 -13691.64433650013 840.8352819634663
380245.25393178547 -13314.809958689508 1240.1531756140307
380190.2953261795 -12924.878982654669 1638.2605499794945
380136.316021371 -12521.209576061789 2034.6401436355015
380083.38790245313 -12103.131383153037 2428.6962864950615
380031.5902076926 -11669.948368840864 2819.743620474967
379981.01038146426 -11220.943376863017 3206.9944976445504
379931.7449951247 -10755.384931045326 3589.5450793796276
379883.90072115924 -10272.536926934907 3966.360268853849
379837.5953337689 -9771.671985689953 4336.257774500669
379792.958691872 -9252.089359037003 4697.891842279631
379750.13363710477 -8713.138358146442 5049.737529152398
379709.27670891123 -8154.248289543985 5390.076835451936
379670.55854115833 -7574.965756704443 5716.988574867928
379634.1637615605 -6974.999843650093 6028.34451787111
379600.29017125606 -6354.275036044454 6321.815033449484
379569.1469463944 -5712.990655358956 6594.88804272057
379540.9515916214 -5051.684020719737 6844.905365248847
379515.92540763493 -4371.292551758873 7069.120173888481
379494.2873348689 -3673.2078108683368 7264.777919869044
379476.2462209289 -2959.3125393998507 7429.220459165349
379461.9918307358 -2231.990812914411 7560.0091781810725
379451.6852431245 -1494.1023800951357 7655.05813758658
379445.4495836417 -748.9156887681175 7712.763687385994
379443.3622286866 1.2742512185931303e-08 7732.11417013484
