CIC_AEM_VERS = 1.0
CREATION_DATE  = 2020-06-05T09:00:00
ORIGINATOR     = SPACEBEL

META_START

OBJECT_NAME = Orion
OBJECT_ID = Orion

CENTER_NAME = Sol/Earth
REF_FRAME_A = EME2000
REF_FRAME_B = SC_BODY_1
ATTITUDE_DIR = A2B

TIME_SYSTEM = UTC

ATTITUDE_TYPE = QUATERNION

META_STOP

55276 18001.396126866 1 0 0 0
55276 18001.86150308 0.632 0.316 0.000 0.707
55276 18002.326879294 0.632 0.316 0.000 0.707
55276 18003.257631722 0.632 0.316 0.000 0.707
55276 18005.119136577 0.632 0.316 0.000 0.707
55276 18008.842146288 0.632 0.316 0.000 0.707
55276 18012.565156 0.632 0.316 0.000 0.707
55276 18016.28816571 0.632 0.316 0.000 0.707
55276 18020.01117542 0.632 0.316 0.000 0.707
55276 18023.73418513 -0.853 0.189 -0.240 0.424
55276 18031.18020455 -0.853 0.189 -0.240 0.424
55276 18038.62622397 -0.853 0.189 -0.240 0.424
55276 18046.0722434 -0.853 0.189 -0.240 0.424
55276 18053.51826282 -0.853 0.189 -0.240 0.424
55276 18060.96428224 -0.853 0.189 -0.240 0.424
55276 18068.41030166 -0.853 0.189 -0.240 0.424
55276 18083.3023405 -0.853 0.189 -0.240 0.424
55276 18098.19437935 -0.853 0.189 -0.240 0.424
55276 18113.0864182 -0.853 0.189 -0.240 0.424
55276 18127.978457 -0.853 0.189 -0.240 0.424
55276 18142.8704959 -0.853 0.189 -0.240 0.424
55276 18157.7625347 -0.853 0.189 -0.240 0.424
55276 18172.6545736 -0.853 0.189 -0.240 0.424
55276 18187.5466124 -0.853 0.189 -0.240 0.424
55276 18202.4386512 -0.853 0.189 -0.240 0.424
55276 18217.3306901 -0.853 0.189 -0.240 0.424
55276 18232.2227289 -0.853 0.189 -0.240 0.424
55276 18247.1147678 -0.853 0.189 -0.240 0.424
55276 18262.0068066 -0.853 0.189 -0.240 0.424
55276 18276.8988455 -0.853 0.189 -0.240 0.424
55276 18291.7908843 -0.853 0.189 -0.240 0.424
55276 18306.682923200002 -0.853 0.189 -0.240 0.424
55276 18321.574962 -0.853 0.189 -0.240 0.424
55276 18336.4670008 -0.853 0.189 -0.240 0.424
55276 18351.3590397 -0.853 0.189 -0.240 0.424
55276 18381.1431174 -0.853 0.189 -0.240 0.424
55276 18407.5826173 -0.853 0.189 -0.240 0.424
55276 18434.0221173 -0.853 0.189 -0.240 0.424
55276 18460.4616173 -0.853 0.189 -0.240 0.424
55276 18486.9011172 -0.853 0.189 -0.240 0.424
55276 18513.3406172 -0.853 0.189 -0.240 0.424
55276 18539.7801172 -0.853 0.189 -0.240 0.424
55276 18566.2196171 -0.853 0.189 -0.240 0.424
55276 18592.6591171 -0.853 0.189 -0.240 0.424
55276 18619.098617 -0.853 0.189 -0.240 0.424
55276 18645.538117 -0.853 0.189 -0.240 0.424
55276 18671.977617 -0.853 0.189 -0.240 0.424
55276 18698.4171169 -0.853 0.189 -0.240 0.424
55276 18724.8566169 -0.853 0.189 -0.240 0.424
55276 18751.2961169 -0.853 0.189 -0.240 0.424
55276 18777.7356168 -0.853 0.189 -0.240 0.424
55276 18804.1751168 -0.853 0.189 -0.240 0.424
55276 18830.6146168 -0.853 0.189 -0.240 0.424
55276 18857.0541167 -0.853 0.189 -0.240 0.424
55276 18883.4936167 -0.853 0.189 -0.240 0.424
55276 18909.9331167 -0.853 0.189 -0.240 0.424
55276 18936.3726166 -0.853 0.189 -0.240 0.424
55276 18962.8121166 -0.853 0.189 -0.240 0.424
55276 18989.2516166 -0.853 0.189 -0.240 0.424
55276 19015.691117 -0.853 0.189 -0.240 0.424
55276 19042.130616 -0.853 0.189 -0.240 0.424
55276 19068.570116 -0.853 0.189 -0.240 0.424
55276 19095.009616 -0.853 0.189 -0.240 0.424
55276 19121.449116 -0.853 0.189 -0.240 0.424
55276 19147.888616 -0.853 0.189 -0.240 0.424
55276 19174.328116 -0.853 0.189 -0.240 0.424
55276 19200.767616 -0.853 0.189 -0.240 0.424
55276 19227.207116 -0.853 0.189 -0.240 0.424
55276 19253.646615999998 -0.853 0.189 -0.240 0.424
55276 19280.086116 -0.853 0.189 -0.240 0.424
55276 19332.965116 -0.853 0.189 -0.240 0.424
55276 19378.568488 -0.853 0.189 -0.240 0.424
55276 19424.171859000002 -0.853 0.189 -0.240 0.424
55276 19469.775231 -0.853 0.189 -0.240 0.424
55276 19515.378602 -0.853 0.189 -0.240 0.424
55276 19560.981974 -0.853 0.189 -0.240 0.424
55276 19606.585345 -0.853 0.189 -0.240 0.424
55276 19652.188717 -0.853 0.189 -0.240 0.424
55276 19697.792088 -0.853 0.189 -0.240 0.424
55276 19743.39546 -0.853 0.189 -0.240 0.424
55276 19788.998831 -0.853 0.189 -0.240 0.424
55276 19834.602203 -0.853 0.189 -0.240 0.424
55276 19880.205574 -0.853 0.189 -0.240 0.424
55276 19925.808946 -0.853 0.189 -0.240 0.424
55276 19971.412317 -0.853 0.189 -0.240 0.424
55276 20017.015689 -0.853 0.189 -0.240 0.424
55276 20062.61906 -0.853 0.189 -0.240 0.424
55276 20108.222432 -0.853 0.189 -0.240 0.424
55276 20153.825803 -0.853 0.189 -0.240 0.424
55276 20199.429175 -0.853 0.189 -0.240 0.424
55276 20245.032546 -0.853 0.189 -0.240 0.424
55276 20290.635918 -0.853 0.189 -0.240 0.424
55276 20336.23929 -0.853 0.189 -0.240 0.424
55276 20381.842661 -0.853 0.189 -0.240 0.424
55276 20427.446033 -0.853 0.189 -0.240 0.424
55276 20473.049404 -0.853 0.189 -0.240 0.424
55276 20564.256147 -0.853 0.189 -0.240 0.424
55276 20637.274075 -0.853 0.189 -0.240 0.424
55276 20702.99021 -0.853 0.189 -0.240 0.424
55276 20768.706345 -0.853 0.189 -0.240 0.424
55276 20834.422481 -0.853 0.189 -0.240 0.424
55276 20900.138616 -0.853 0.189 -0.240 0.424
55276 20965.854751 -0.853 0.189 -0.240 0.424
55276 21031.570886 -0.853 0.189 -0.240 0.424
55276 21097.287021 -0.853 0.189 -0.240 0.424
55276 21163.003156 -0.853 0.189 -0.240 0.424
55276 21228.719291 -0.853 0.189 -0.240 0.424
55276 21294.435427 -0.853 0.189 -0.240 0.424
55276 21360.151562 -0.853 0.189 -0.240 0.424
55276 21425.867697 -0.853 0.189 -0.240 0.424
55276 21491.583832 -0.853 0.189 -0.240 0.424
55276 21557.299967 -0.853 0.189 -0.240 0.424
55276 21623.016102 -0.853 0.189 -0.240 0.424
55276 21688.732237 -0.853 0.189 -0.240 0.424
55276 21754.448373 -0.853 0.189 -0.240 0.424
55276 21820.164508 -0.853 0.189 -0.240 0.424
55276 21885.880643 -0.853 0.189 -0.240 0.424
55276 21951.596778 -0.853 0.189 -0.240 0.424
55276 22017.312913 -0.853 0.189 -0.240 0.424
55276 22083.029048 -0.853 0.189 -0.240 0.424
55276 22148.745183 -0.853 0.189 -0.240 0.424
55276 22214.461319000002 -0.853 0.189 -0.240 0.424
55276 22280.177454 -0.853 0.189 -0.240 0.424
55276 22345.893589 -0.853 0.189 -0.240 0.424
55276 22411.609724 -0.853 0.189 -0.240 0.424
55276 22477.325859 -0.853 0.189 -0.240 0.424
55276 22543.041994 -0.853 0.189 -0.240 0.424
55276 22608.758129 -0.853 0.189 -0.240 0.424
55276 22674.474265 -0.853 0.189 -0.240 0.424
55276 22740.1904 -0.853 0.189 -0.240 0.424
55276 22805.906535000002 -0.853 0.189 -0.240 0.424
55276 22871.62267 -0.853 0.189 -0.240 0.424
55276 22937.338805 -0.853 0.189 -0.240 0.424
55276 23003.05494 -0.853 0.189 -0.240 0.424
55276 23068.771076 -0.853 0.189 -0.240 0.424
55276 23134.487211 -0.853 0.189 -0.240 0.424
55276 23200.203346000002 -0.853 0.189 -0.240 0.424
55276 23265.919481 -0.853 0.189 -0.240 0.424
55276 23331.635616 -0.853 0.189 -0.240 0.424
55276 23397.351751000002 -0.853 0.189 -0.240 0.424
55276 23463.067886 -0.853 0.189 -0.240 0.424
55276 23528.784022 -0.853 0.189 -0.240 0.424
55276 23594.500157000002 -0.853 0.189 -0.240 0.424
55276 23660.216292 -0.853 0.189 -0.240 0.424
55276 23725.932427 -0.853 0.189 -0.240 0.424
55276 23791.648562000002 -0.853 0.189 -0.240 0.424
55276 23857.364697 -0.853 0.189 -0.240 0.424
55276 23923.080832 -0.853 0.189 -0.240 0.424
55276 23988.796968 -0.853 0.189 -0.240 0.424
55276 24054.513103 -0.853 0.189 -0.240 0.424
55276 24120.229238 -0.853 0.189 -0.240 0.424
55276 24185.945373 -0.853 0.189 -0.240 0.424
55276 24251.661508 -0.853 0.189 -0.240 0.424
55276 24317.377643 -0.853 0.189 -0.240 0.424
55276 24383.093778000002 -0.853 0.189 -0.240 0.424
55276 24448.809914 -0.853 0.189 -0.240 0.424
55276 24580.242184 -0.853 0.189 -0.240 0.424
55276 24678.912694 -0.853 0.189 -0.240 0.424
55276 24777.583203000002 -0.853 0.189 -0.240 0.424
55276 24876.253713 -0.853 0.189 -0.240 0.424
55276 24974.924222 -0.853 0.189 -0.240 0.424
55276 25073.594731999998 -0.853 0.189 -0.240 0.424
55276 25172.265242 -0.853 0.189 -0.240 0.424
55276 25270.935751 -0.853 0.189 -0.240 0.424
55276 25369.606261 -0.853 0.189 -0.240 0.424
55276 25468.27677 -0.853 0.189 -0.240 0.424
55276 25566.94728 -0.853 0.189 -0.240 0.424
55276 25665.61779 -0.853 0.189 -0.240 0.424
55276 25764.288299 -0.853 0.189 -0.240 0.424
55276 25862.958809 -0.853 0.189 -0.240 0.424
55276 25961.629319 -0.853 0.189 -0.240 0.424
55276 26060.299828 -0.853 0.189 -0.240 0.424
55276 26158.970338 -0.853 0.189 -0.240 0.424
55276 26257.640847000002 -0.853 0.189 -0.240 0.424
55276 26356.311357 -0.853 0.189 -0.240 0.424
55276 26454.981867000002 -0.853 0.189 -0.240 0.424
55276 26553.652376 -0.853 0.189 -0.240 0.424
55276 26652.322886 -0.853 0.189 -0.240 0.424
55276 26750.993394999998 -0.853 0.189 -0.240 0.424
55276 26849.663905 -0.853 0.189 -0.240 0.424
55276 26948.334414999998 -0.853 0.189 -0.240 0.424
55276 27047.004924 -0.853 0.189 -0.240 0.424
55276 27145.675434 -0.853 0.189 -0.240 0.424
55276 27244.345943 -0.853 0.189 -0.240 0.424
55276 27343.016453 -0.853 0.189 -0.240 0.424
55276 27441.686963 -0.853 0.189 -0.240 0.424
55276 27540.357472 -0.853 0.189 -0.240 0.424
55276 27639.027982 -0.853 0.189 -0.240 0.424
55276 27737.698492 -0.853 0.189 -0.240 0.424
55276 27836.369001 -0.853 0.189 -0.240 0.424
55276 27935.039511000003 -0.853 0.189 -0.240 0.424
55276 28033.71002 -0.853 0.189 -0.240 0.424
55276 28132.380530000002 -0.853 0.189 -0.240 0.424
55276 28231.05104 -0.853 0.189 -0.240 0.424
55276 28329.721550000002 -0.853 0.189 -0.240 0.424
55276 28428.39206 -0.853 0.189 -0.240 0.424
55276 28527.062570000002 -0.853 0.189 -0.240 0.424
55276 28625.733079999998 -0.853 0.189 -0.240 0.424
55276 28724.40359 -0.853 0.189 -0.240 0.424
55276 28823.074099999998 -0.853 0.189 -0.240 0.424
55276 28921.74461 -0.853 0.189 -0.240 0.424
55276 29020.415119999998 -0.853 0.189 -0.240 0.424
55276 29119.08563 -0.853 0.189 -0.240 0.424
55276 29217.756139999998 -0.853 0.189 -0.240 0.424
55276 29316.42665 -0.853 0.189 -0.240 0.424
55276 29415.09715 -0.853 0.189 -0.240 0.424
55276 29513.767659999998 -0.853 0.189 -0.240 0.424
55276 29612.43817 -0.853 0.189 -0.240 0.424
55276 29711.108679999998 -0.853 0.189 -0.240 0.424
55276 29809.77919 -0.853 0.189 -0.240 0.424
55276 29908.449699999997 -0.853 0.189 -0.240 0.424
55276 30007.12021 -0.853 0.189 -0.240 0.424
55276 30105.79072 -0.853 0.189 -0.240 0.424
55276 30204.46123 -0.853 0.189 -0.240 0.424
55276 30303.13174 -0.853 0.189 -0.240 0.424
55276 30401.80225 -0.853 0.189 -0.240 0.424
55276 30500.47276 -0.853 0.189 -0.240 0.424
55276 30599.14327 -0.853 0.189 -0.240 0.424
55276 30697.81378 -0.853 0.189 -0.240 0.424
55276 30796.48429 -0.853 0.189 -0.240 0.424
55276 30895.1548 -0.853 0.189 -0.240 0.424
55276 30993.82531 0.000 0.000 1.000 0.000
55276 31092.49582 0.000 0.000 1.000 0.000
55276 31191.16633 0.000 0.000 1.000 0.000
55276 31289.83684 0.000 0.000 1.000 0.000
55276 31388.50735 0.000 0.000 1.000 0.000
55276 31487.17786 0.000 0.000 1.000 0.000
55276 31585.84837 0.000 0.000 1.000 0.000
55276 31684.51888 0.000 0.000 1.000 0.000
55276 31783.18939 0.000 0.000 1.000 0.000
55276 31881.8599 0.000 0.000 1.000 0.000
55276 31980.5304 0.000 0.000 1.000 0.000
55276 32079.20091 0.000 0.000 1.000 0.000
55276 32177.87142 0.000 0.000 1.000 0.000
55276 32276.54193 0.000 0.000 1.000 0.000
55276 32375.21244 0.000 0.000 1.000 0.000
55276 32473.88295 0.000 0.000 1.000 0.000
55276 32572.55346 0.000 0.000 1.000 0.000
55276 32671.22397 0.000 0.000 1.000 0.000
55276 32769.89448 0.000 0.000 1.000 0.000
55276 32868.56499 0.000 0.000 1.000 0.000
55276 32967.2355 0.000 0.000 1.000 0.000
55276 33065.90601 0.000 0.000 1.000 0.000
55276 33164.57652 0.000 0.000 1.000 0.000
55276 33263.24703 0.000 0.000 1.000 0.000
55276 33361.91754 0.000 0.000 1.000 0.000
55276 33460.58805 0.000 0.000 1.000 0.000
55276 33559.25856 0.000 0.000 1.000 0.000
55276 33657.92907 0.000 0.000 1.000 0.000
55276 33756.59958 0.000 0.000 1.000 0.000
55276 33855.27009 0.000 0.000 1.000 0.000
55276 33953.9406 0.000 0.000 1.000 0.000
55276 34052.61111 0.000 0.000 1.000 0.000
55276 34151.28162 0.000 0.000 1.000 0.000
55276 34249.95213 0.000 0.000 1.000 0.000
55276 34348.62264 0.000 0.000 1.000 0.000
55276 34447.29315 0.000 0.000 1.000 0.000
55276 34545.963650000005 0.000 0.000 1.000 0.000
55276 34644.63416 0.000 0.000 1.000 0.000
55276 34743.30467 0.000 0.000 1.000 0.000
55276 34841.97518 0.000 0.000 1.000 0.000
55276 34940.645690000005 0.000 0.000 1.000 0.000
55276 35039.3162 0.000 0.000 1.000 0.000
55276 35137.98671 0.000 0.000 1.000 0.000
55276 35236.65722 0.000 0.000 1.000 0.000
55276 35335.327730000005 0.000 0.000 1.000 0.000
55276 35433.99824 0.000 0.000 1.000 0.000
55276 35532.66875 0.000 0.000 1.000 0.000
55276 35631.33926 0.000 0.000 1.000 0.000
55276 35730.009770000004 0.000 0.000 1.000 0.000
55276 35828.68028 0.000 0.000 1.000 0.000
55276 35927.35079 0.000 0.000 1.000 0.000
55276 36026.0213 0.000 0.000 1.000 0.000
55276 36124.691810000004 0.000 0.000 1.000 0.000
55276 36223.36232 0.000 0.000 1.000 0.000
55276 36322.03283 0.000 0.000 1.000 0.000
55276 36420.70334 0.000 0.000 1.000 0.000
55276 36519.37385 0.000 0.000 1.000 0.000
55276 36618.04436 0.000 0.000 1.000 0.000
55276 36716.714869999996 0.000 0.000 1.000 0.000