379441.475 0 7692.095247
379441.475 1.94077E-06 7691.895247
379441.475 5.8223E-06 7691.695247
379441.475 1.35854E-05 7691.495247
379441.475 2.91115E-05 7691.295247
379441.475 6.01637E-05 7691.095247
379441.475 0.000122268 7690.895247
379441.475 0.000246477 7690.695247
379441.475 0.000494895 7690.495247
379441.475 0.000991731 7690.295247
379441.475 0.001985403 7690.095247
379441.475 0.003972747 7689.895247
379441.475 0.007947435 7689.695247
379441.475 0.015896811 7689.495247
379441.475 0.031795563 7689.295247
379441.475 0.063593068 7689.095246
379441.475 0.127188076 7688.895246
379441.475 0.254378093 7688.695244
379441.475 0.508758127 7688.495238
379441.475 1.017518193 7688.295211
379441.475 1.526278258 7688.095166
379441.475 2.035038318 7687.895103
379441.475 2.543798374 7687.695021
379441.4751 3.561318466 7687.494805
379441.4751 5.59635854 7687.294157
379441.4754 9.666437978 7687.091996
379441.4757 13.73651596 7686.888682
379441.4762 17.80659186 7686.684215
379441.4768 21.87666508 7686.478595
379441.4775 25.94673499 7686.271823
379441.4794 34.08686246 7686.054821
379441.4817 42.22696935 7685.833208
379441.4845 50.36705074 7685.606984
379441.4878 58.50710171 7685.376149
379441.4916 66.64711737 7685.140704
379441.4959 74.78709278 7684.900649
379441.506 91.06690324 7684.606707
379441.5181 107.3464938 7684.294323
379441.5322 123.6258251 7683.9635
379441.5482 139.9048579 7683.614239
379441.5662 156.1835529 7683.24654
379441.5862 172.4618707 7682.860405
379441.6082 188.7397722 7682.455835
379441.6322 205.0172181 7682.032833
379441.6581 221.294169 7681.5914
379441.6861 237.5705858 7681.131539
379441.716 253.8464292 7680.653252
379441.7479 270.12166 7680.15654
379441.7817 286.396239 7679.641408
379441.8176 302.6701269 7679.107857
379441.8554 318.9432846 7678.55589
379441.8952 335.215673 7677.98551
379441.937 351.4872528 7677.396721
379441.9808 367.757985 7676.789526
379442.0265 384.0278304 7676.163929
379442.124 416.5647044 7675.057541
379442.2171 445.4445228 7673.991298
379442.3164 474.320958 7672.867109
379442.422 503.1937918 7671.684999
379442.5338 532.0628064 7670.444995
379442.6519 560.9277841 7669.147125
379442.7761 589.7885073 7667.791418
379442.9066 618.6447591 7666.377908
379443.0433 647.4963224 7664.906626
379443.1863 676.3429809 7663.377607
379443.3354 705.1845183 7661.790887
379443.4908 734.0207186 7660.146504
379443.6523 762.8513665 7658.444497
379443.8201 791.6762467 7656.684907
379443.994 820.4951445 7654.867775
379444.1742 849.3078454 7652.993147
379444.3606 878.1141356 7651.061067
379444.5531 906.9138014 7649.071581
379444.7519 935.7066298 7647.024739
379444.9568 964.4924081 7644.920589
379445.1679 993.2709241 7642.759184
379445.3852 1022.041966 7640.540576
379445.6086 1050.805323 7638.264819
379445.8383 1079.560783 7635.93197
379446.0741 1108.308138 7633.542085
379446.316 1137.047176 7631.095222
379446.5641 1165.777689 7628.591443
379446.8184 1194.499469 7626.030809
379447.0788 1223.212306 7623.413383
379447.3453 1251.915995 7620.739229
379447.618 1280.610327 7618.008413
379447.8968 1309.295097 7615.221003
379448.1817 1337.970099 7612.377067
379448.4727 1366.635128 7609.476675
379448.7699 1395.289979 7606.5199
379449.3825 1452.568335 7600.63749
379449.9305 1501.931164 7595.356496
379450.4965 1551.26087 7589.908821
379451.0806 1600.556423 7584.294875
379451.6828 1649.816804 7578.515082
379452.303 1699.040998 7572.569873
379452.9411 1748.227997 7566.459695
379453.5972 1797.376799 7560.185003
379454.2712 1846.486412 7553.746266
379454.963 1895.555848 7547.143962
379455.6727 1944.584128 7540.378581
379456.4002 1993.570281 7533.550625
379457.1455 2042.513341 7526.560603
379457.9084 2091.412353 7519.409039
379458.689 2140.266369 7512.096464
379459.4873 2189.074447 7504.623421
379460.3031 2237.835657 7496.990462
379461.1365 2286.549073 7489.198149
379461.9874 2335.21378 7481.247054
379462.8557 2383.828871 7473.137758
379463.7415 2432.393449 7464.870853
379464.6446 2480.906623 7456.446938
379465.565 2529.367513 7447.866622
379466.5027 2577.775247 7439.130522
379467.4577 2626.128962 7430.239265
379468.4298 2674.427805 7421.193486
379470.4253 2770.857508 7402.74094
379472.0719 2847.891715 7387.508226
379473.591 2917.093976 7373.456629
379475.1452 2986.171997 7359.092469
379476.7342 3055.123431 7344.417813
379478.3578 3123.94597 7329.434757
379480.0161 3192.637353 7314.145425
379481.7086 3261.195358 7298.551971
379483.4354 3329.617807 7282.656572
379485.1962 3397.902567 7266.461432
379486.9908 3466.047546 7249.968778
379488.8191 3534.050697 7233.180861
379490.6809 3601.910018 7216.099954
379492.576 3669.623547 7198.728349
379494.5043 3737.189371 7181.068358
379496.4655 3804.605616 7163.122312
379498.4595 3871.870456 7144.892559
379500.486 3938.982108 7126.381463
379502.545 4005.938831 7107.591404
379504.6361 4072.73893 7088.524774
379506.7593 4139.380753 7069.183981
379508.9143 4205.862691 7049.571442
379511.101 4272.183181 7029.689586
379513.3191 4338.340701 7009.540854
379515.5684 4404.333773 6989.127693
379517.8488 4470.160961 6968.452559
379520.1601 4535.820874 6947.517916
379522.502 4601.31216 6926.326232
379524.8744 4666.633513 6904.879982
379527.2771 4731.783666 6883.181645
379529.7099 4796.761395 6861.233702
379532.1725 4861.565516 6839.038638
379534.6649 4926.194888 6816.598939
379537.1867 4990.648409 6793.917092
379539.7378 5054.925016 6770.995582
379542.3179 5119.023688 6747.836897
379544.927 5182.943441 6724.443521
379547.5648 5246.683333 6700.817934
379550.231 5310.242457 6676.962617
379552.9255 5373.619947 6652.880044
379555.6482 5436.814972 6628.572686
379558.3987 5499.826739 6604.043007
379561.1769 5562.654492 6579.293468
379563.9826 5625.297511 6554.326522
379566.8156 5687.755112 6529.144613
379569.6757 5750.026644 6503.800181
379572.5627 5812.111493 6478.245654
379575.4764 5874.009077 6452.483455
379578.4166 5935.71885 6426.515995
379581.3831 5997.240298 6400.345675
379584.3758 6058.572937 6373.974887
379587.3943 6119.716319 6347.406012
379590.4386 6180.670025 6320.641418
379593.5084 6241.433667 6293.683463
379596.6036 6302.006888 6266.534492
379599.7239 6362.389361 6239.196838
379602.8692 6422.580787 6211.672819
379606.0392 6482.580897 6183.964743
379609.2338 6542.38945 6156.074902
379612.4528 6602.006231 6128.005573
379618.9633 6720.663762 6071.387495
379623.9135 6809.238557 6028.414931
379628.9169 6897.3796 5985.060437
379633.9728 6985.08667 5941.331429
379639.0805 7072.359669 5897.235246
379644.2394 7159.198614 5852.77914
379649.4489 7245.603637 5807.97028
379654.7085 7331.574979 5762.81575
379660.0175 7417.112987 5717.322546
379665.3754 7502.218111 5671.497576
379670.7815 7586.890897 5625.347659
379676.2353 7671.131987 5578.879525
379681.7362 7754.942115 5532.099814
379687.2837 7838.3221 5485.015073
379692.8771 7921.272847 5437.63176
379698.516 8003.79534 5389.956241
379704.1998 8085.890641 5341.99479
379709.9279 8167.559887 5293.753587
379715.6998 8248.804284 5245.238725
379721.515 8329.625106 5196.456199
379727.373 8410.023693 5147.411919
379733.2732 8490.001445 5098.111697
379739.2151 8569.559821 5048.561258
379745.1982 8648.700339 4998.766235
379751.2221 8727.424565 4948.732171
379757.2863 8805.734121 4898.464518
379763.3902 8883.630672 4847.968641
379769.5333 8961.115932 4797.249813
379775.7153 9038.191658 4746.313221
379781.9356 9114.859646 4695.163965
379788.1938 9191.121731 4643.807057
379794.4894 9266.979784 4592.247424
379800.822 9342.435712 4540.489907
379807.1911 9417.491452 4488.539263
379813.5963 9492.14897 4436.400167
379820.0372 9566.410263 4384.077211
379826.5134 9640.277352 4331.574903
379833.0243 9713.752284 4278.897673
379839.5697 9786.837125 4226.049872
379846.1491 9859.533967 4173.035769
379852.7621 9931.844918 4119.859558
379859.4083 10003.7721 4066.525356
379866.0873 10075.31767 4013.037204
379872.7988 10146.48376 3959.399068
379879.5423 10217.27257 3905.61484
379886.3175 10287.68626 3851.708342
379893.124 10357.72703 3797.663321
379899.9615 10427.39708 3743.483455
379906.8296 10496.69863 3689.172355
379913.7279 10565.63389 3634.733559
379920.6561 10634.20508 3580.170542
379927.6138 10702.41444 3525.48671
379934.6008 10770.26419 3470.685404
379941.6166 10837.75658 3415.769903
379948.661 10904.89383 3360.743421
379955.7336 10971.67819 3305.609109
379962.8342 11038.1119 3250.37006
379969.9623 11104.19718 3195.029305
379977.1177 11169.93629 3139.589816
379984.3001 11235.33145 3084.054507
379991.5092 11300.3849 3028.426235
379998.7446 11365.09885 2972.707802
380006.0062 11429.47555 2916.901954
380013.2935 11493.5172 2861.011382
380020.6064 11557.22602 2805.038726
380027.9444 11620.60422 2748.986573
380035.3075 11683.65399 2692.857458
380042.6953 11746.37754 2636.653866
380050.1074 11808.77705 2580.378234
380057.5438 11870.8547 2524.032948
380065.004 11932.61265 2467.620349
380072.4879 11994.05308 2411.14273
380079.9951 12055.17813 2354.602338
380087.5255 12115.98994 2298.001375
380095.0788 12176.49066 2241.341999
380102.6547 12236.6824 2184.646326
380110.2531 12296.56728 2127.896427
380117.8736 12356.14739 2071.094334
380125.5161 12415.42484 2014.242036
380133.1803 12474.4017 1957.341482
380140.866 12533.08003 1900.394584
380148.5729 12591.4619 1843.403212
380156.3009 12649.54936 1786.369201
380164.0498 12707.34442 1729.294348
380171.8192 12764.84912 1672.180413
380179.6091 12822.06546 1615.03912
380187.4191 12878.99544 1557.86216
380195.2492 12935.64104 1500.651188
380203.099 12992.00423 1443.407825
380210.9685 13048.08697 1386.133661
380218.8573 13103.8912 1328.830251
380226.7654 13159.41886 1271.499121
380234.6925 13214.67186 1214.141765
380242.6384 13269.6521 1156.759645
380250.6029 13324.36148 1099.354196
380258.5859 13378.80187 1041.926821
380266.5872 13432.97515 984.4788955
380274.6066 13486.88315 927.0117672
380282.6439 13540.52773 869.5267558
380290.699 13593.91069 812.0251541
380298.7716 13647.03386 754.5082284
380306.8617 13699.89902 696.9772191
380314.969 13752.50797 639.4333411
380323.0934 13804.86247 581.8777844
380331.2347 13856.96427 524.3117146
380339.3927 13908.81513 466.7362735
380347.5674 13960.41676 409.1525791
380355.7585 14011.77089 351.5617267
380363.9659 14062.87921 293.964789
380372.1895 14113.74342 236.3628165
380380.429 14164.36519 178.7568382
380388.6844 14214.74617 121.1478618
380396.9555 14264.88803 63.53687436
380405.2421 14314.79239 5.924842419
380413.5441 14364.46087 -51.68728739
380421.8615 14413.89509 -109.298588
380430.1939 14463.09664 -166.9081515
380438.5413 14512.0671 -224.5150887
380446.9036 14560.80803 -282.118529
380455.2807 14609.32101 -339.7176196
380463.6723 14657.60757 -397.3115257
380472.0784 14705.66923 -454.8994294
380480.4988 14753.50753 -512.4805303
380488.9334 14801.12395 -570.0540441