# Blender MTL File: 'Orion.blend'
# Material Count: 5

newmtl Material
Ns 57.286849
Ka 1.000000 1.000000 1.000000
Kd 0.800000 0.800000 0.800000
Ks 0.500000 0.500000 0.500000
Ke 0.000000 0.000000 0.000000
Ni 1.450000
d 1.000000
illum 2

newmtl alu
Ns 490.886731
Ka 1.000000 1.000000 1.000000
Kd 0.479840 0.440364 0.469782
Ks 0.555046 0.555046 0.555046
Ke 0.000000 0.000000 0.000000
Ni 1.450000
d 1.000000
illum 3

newmtl blanc_panneaux
Ns 225.000000
Ka 1.000000 1.000000 1.000000
Kd 0.376255 0.376255 0.376255
Ks 0.500000 0.500000 0.500000
Ke 0.000000 0.000000 0.000000
Ni 1.450000
d 1.000000
illum 2

newmtl moteur
Ns 185.609379
Ka 1.000000 1.000000 1.000000
Kd 0.051411 0.037834 0.020853
Ks 0.500000 0.500000 0.500000
Ke 0.000000 0.000000 0.000000
Ni 1.450000
d 1.000000
illum 2

newmtl panneau_solaire
Ns 734.957058
Ka 1.000000 1.000000 1.000000
Kd 0.800000 0.800000 0.800000
Ks 0.500000 0.500000 0.500000
Ke 0.000000 0.000000 0.000000
Ni 1.450000
d 1.000000
illum 2
map_Kd SolarPanel003_2K_Color.jpg
