# Initial conditions for the Earth-Moon P2HO1 (aka Butterfly) orbit family
#
# E. Zimovan Spreen, "Trajectory Design and Targeting for Applications to the Exploration Program in Cislunar Space," Ph.D., May 2021
# https://engineering.purdue.edu/people/kathleen.howell.1/Publications/dissertations/2021_ZimovanSpreen.pdf
#
# characteristic length: 384400.0 km
# characteristic time: 375190.25852 s
#
# columns: Jacobi constant, orbit period, X, Z, Vy
#
3.0580 2.7486723000 1.0124213729 -0.1739463747 -0.0801103670
3.0638 2.8235719903 0.9686100061 -0.1684646845 -0.0555868296
3.0716 2.9470915455 0.9428902766 -0.1621459176 -0.0367463465
3.0778 3.0718373938 0.9280339523 -0.1570215893 -0.0278535009
3.0830 3.2098634414 0.9177532010 -0.1525284780 -0.0253346758
3.0866 3.3390119532 0.9116052635 -0.1492702168 -0.0275809790
3.0893 3.4781621508 0.9074818076 -0.1466452811 -0.0334316688
3.0907 3.6071172693 0.9053614223 -0.1449312614 -0.0411597104
3.0910 3.7456075513 0.9044951611 -0.1437576475 -0.0512886367
3.0905 3.8738428281 0.9047472035 -0.1431979716 -0.0619366228
3.0889 4.0115944839 0.9059473646 -0.1430690015 -0.0743674595
3.0867 4.1392474276 0.9077780758 -0.1433117179 -0.0865211750
3.0835 4.2765261366 0.9103912789 -0.1438936424 -0.0999906823
3.0800 4.4039019522 0.9133170339 -0.1446839313 -0.1126257931
3.0756 4.5410586110 0.9169169198 -0.1457671148 -0.1261483024
3.0710 4.6684708483 0.9206100089 -0.1469654829 -0.1384542728
3.0657 4.8057987675 0.9249032213 -0.1484447194 -0.1512842987
3.0605 4.9334592177 0.9291366414 -0.1499785567 -0.1627035911
3.0546 5.0711130707 0.9339173119 -0.1517856322 -0.1743951579
3.0485 5.2089533970 0.9388868141 -0.1537336561 -0.1854168651
