379558.28754741483 1250.9995078089748 3120.13875632171
379584.46492823056 2418.8577515911056 2778.381805300807
379623.01974935934 3461.0533702489643 2286.134394845516
379669.80364116153 4374.896116990322 1705.5017411387018
379776.81908921845 5880.827601055536 431.75150510742566
379833.9441570831 6508.5663443093545 -221.5886961791157
379892.41759559273 7072.33598939971 -873.0522510154755
379951.8091319645 7583.038726177794 -1518.1776560623334
380011.8422737233 8049.2199491223555 -2154.555204574915
380133.16191151156 8873.580574700292 -3396.853964353861
380194.23881714174 9241.432800693527 -4002.1098150521816
380255.5042177705 9584.68266130601 -4596.833465382847
380316.91396166565 9906.2213679249 -5181.267937190919
380378.4354297778 10208.454214790889 -5755.731248350749
380501.7210692234 10762.776883122391 -6876.181210919436
380563.45175190666 11018.043278754538 -7422.908630855169
380625.2244744777 11260.461616703435 -7961.123940953707
380687.0298376766 11491.125128938334 -8491.177022589292
380748.8601249325 11710.987993205961 -9013.402254401592
380872.5706818294 12121.564632322794 -10035.622593737024
380934.44077554333 12313.674205803536 -10536.201880369952
380996.31505431683 12497.80168485527 -11030.122429724766
381058.18986058264 12674.470853328134 -11517.635941550188
381120.06190566765 12844.152596919412 -11998.979352179997
381243.7859811789 13164.213456506759 -12944.03507969878
381305.6327014934 13315.327081001693 -13408.155357210475
381367.4659624356 13460.93144413552 -13866.923137863894
381429.283503416 13601.317898579444 -14320.514472986457
381491.08317732625 13736.753516587612 -14769.095605212719
381614.6208046156 13993.73473626824 -15651.847229861582
381676.354894858 14115.71529923007 -16086.307058821627
381738.06337202544 14233.618702007274 -16516.336486621294
381799.7444598975 14347.624178304282 -16942.061998318564
381861.39643246477 14457.898280501362 -17363.603676333438
381984.60635062563 14667.862161551206 -18194.586370466142
382046.1610558941 14767.831671945547 -18604.239208992618
382107.6801591182 14864.631035667528 -19010.132555461572
382169.1621274789 14958.378753889006 -19412.36024509666
382230.6054591512 15049.186056293509 -19811.01182013335
382353.370350149 15222.391484646048 -20597.92489310899
382414.6890466485 15304.980774003547 -20986.34628728892
382475.96337842545 15385.012891614624 -21371.511794755294
382537.19197727053 15462.570534493396 -21753.49307861987
382598.3734985708 15537.731926327706 -22132.35882682693
382720.5900434348 15681.158402788627 -22881.004586303545
382781.6224890555 15749.560345988082 -23250.90854874972
382842.6027000035 15815.840270599187 -23617.945158348957
382903.52943920414 15880.05836255042 -23982.170521359072
382964.40148938 15942.271900919895 -24343.638616871423
383085.9767496733 16060.9010194887 -25058.508939231968
383146.67762002716 16117.418252289375 -25412.009443961684
383207.31912099075 16172.134544533585 -25762.94942357916
383267.9001275591 16225.095195680755 -26111.373737695518
383328.41953198746 16276.34353171931 -26457.32568244633
383449.26918760064 16373.867385927513 -27141.978274061155
383509.5973064211 16420.22069579094 -27480.7583450166
383569.85955771175 16465.017467183814 -27817.2250228072
383630.0549148684 16508.292746840976 -28151.414820007794
383690.1823665567 16550.08019290553 -28483.363072037428
383810.2295827606 16629.319719030926 -29140.67070564396
383870.1473983116 16666.83282289352 -29466.095326043258
383929.9934099056 16702.980267173316 -29789.40896916611
383989.76667823235 16737.789797448895 -30110.641809510867
384049.4662775696 16771.288152736743 -30429.823116554253
384168.64083278575 16834.453559200723 -31062.14390482587
384228.11400286993 16864.169491334345 -31375.337725164245
384287.50993188797 16892.672095976515 -31686.588755606725
384346.82775830576 16919.983772215503 -31995.922261559852
384406.0666327142 16946.12617093861 -32303.36279983584
384524.30418714427 16994.986203623077 -32912.6598196283
384583.3012269667 17017.74369938887 -33214.562110214894
384642.2160339539 17039.411700912027 -33514.663099366466
384701.0478160321 17060.008598344764 -33812.984183787856
384759.79579196847 17079.552213601197 -34109.54619646022
384877.037253502 17115.5481894271 -34697.47364083801
384935.5292290705 17132.0335661843 -34988.87809813776
384993.9343780631 17147.531735800116 -35278.601571055755
385052.2519705512 17162.05802067776 -35566.66236083446
385110.48128631525 17175.627303566114 -35853.0783139021
385226.6722542874 17199.95230150489 -36421.04491349032
385284.6325130429 17210.735738821368 -36702.62911440741
385342.5017078373 17220.617649861575 -36982.635615073545
385400.2791644426 17229.61096778143 -37261.080206523
385457.96421734226 17237.728280010317 -37537.97830823632
385573.05449258914 17251.383586432847 -38087.19493360349
385630.45842608216 17256.945141646615 -38359.5425432624
385687.7673778673 17261.677836438354 -38630.40185668255
385744.9807237249 17265.59271414854 -38899.786604894034
385802.09784726484 17268.7005423317 -39167.71021201104
385916.0410001611 17272.536800113114 -39699.22622043387
385972.86583466816 17273.28547243327 -39962.844017532596
386029.5920569001 17273.267598275368 -40225.05148203411
386086.2190876197 17272.49270566517 -40485.860636382626
386142.74635464046 17270.970099829734 -40745.283246965904
386255.49934337166 17265.717900315292 -41260.01466619612
386311.7239548886 17262.00586937175 -41515.345792530934
386367.84658209054 17257.581264220335 -41769.33502394974
386423.8666862823 17252.45238303826 -42021.99295219582
386479.78373513103 17246.62734196175 -42273.32995346677
386591.30656864046 17232.920369322233 -42772.08163751501
386646.911319496 17225.05381130018 -43019.516047294164
386702.4109471951 17216.52185103171 -43265.66899495546
386757.804949656 17207.33177764075 -43510.54986388022
386813.0928305497 17197.49072999187 -43754.16785453051
386923.348270514 17175.88354347927 -44237.65111692954
386978.3148648458 17164.130971536095 -44477.533917453795
387033.1734079519 17151.754567519325 -44716.18890608539
387087.9234308818 17138.760784529506 -44953.624437642335
387142.5644698962 17125.15595049717 -45189.84871056459
387251.51776677486 17096.137836960665 -45658.69551583438
387305.8291224682 17080.736619681837 -45891.33369792459
387360.0296897437 17064.748482472773 -46122.791928116276
387414.1190296886 17048.179179623985 -46353.07767947389
387468.0967081203 17031.034360284117 -46582.19829047295
387575.7153669143 16995.040260519752 -47036.97279171631
387629.3555018939 16976.20177858361 -47262.64071466633
387682.88228445145 16956.809382506173 -47487.17156867265
387736.2953029579 16936.86823775428 -47710.572065982706
387789.5941500854 16916.383420804035 -47932.84880229334
387895.8477219962 16873.802645458196 -48374.05680805901
387948.8016530324 16851.716416084135 -48593.00071004104
388001.63982506795 16829.105976928815 -48810.846121086084
388054.36185130035 16805.975993665812 -49027.599093056466
388106.96734884445 16782.331056124072 -49243.26557631197
388211.8272455523 16733.51430991805 -49671.362384106535
388264.0808979888 16708.351318904835 -49883.80412188226
388316.21652816 16682.691012506228 -50095.18220161042
388368.2337718153 16656.537629345996 -50305.50209868863
388420.13226736814 16629.895343621945 -50514.76919962184
388523.57158838183 16575.16044363614 -50930.166127665056
388575.11171037256 16547.0758651627 -51136.306300816446
388626.5316770376 16518.518458815714 -51341.41437355175
388677.8311453566 16489.492095727077 -51545.49531560089
388729.0097752016 16460.00059114091 -51748.5540185924
388831.0031746222 16399.637145953708 -52151.62389302306
388881.8172796388 16368.772567110695 -52351.64447140012
388932.5092169801 16337.457572761985 -52550.66162760678
388983.0786620391 16305.695716815131 -52748.679885953585
389033.5252931976 16273.490504494968 -52945.703701673265
389134.0488420253 16207.763794891172 -53336.78548902145
389184.1251310165 16174.249074538593 -53530.85203797716
389234.0773486686 16140.304553753263 -53723.941301550694
389283.90518767346 16105.933510478839 -53916.05740961031
389333.6083434635 16071.139180220063 -54107.20443072597
389432.6394005952 16000.293394193091 -54486.60718699466
389481.96670615365 15964.248205578506 -54674.87076331604
389531.1681368561 15927.792266041963 -54862.18093725831
389580.24340126186 15890.928612499536 -55048.54148810495
389629.1922104457 15853.660244700588 -55233.95614052915
389726.70931980805 15777.921184259108 -55601.96238186898
389775.2770543951 15739.456312351222 -55784.561156166674
389823.717202509 15700.598369147072 -55966.22840473303
389872.0294872797 15661.350180106327 -56146.967594047695
389920.2136341479 15621.714537999782 -56326.78214176059
390016.19642730727 15541.291906286313 -56683.65074415861
390063.99453575024 15500.510344804452 -56860.711397881176
390111.66343053355 15459.352187780192 -57036.86060974927
390159.2028481833 15417.82007438934 -57212.10156615876
390206.61252735165 15375.91661494332 -57386.43740969425
390301.04163531057 15291.00595828786 -57732.40611403209
390348.06055177725 15248.003842546268 -57904.04504779737
390394.94870505924 15204.640544778551 -58074.79101607102
390441.7058440127 15160.918539421957 -58244.646953601834
390488.33171945217 15116.840275332679 -58413.61575570048
390581.1886926822 15027.62464147095 -58748.90334167904
390627.41930165805 14982.492045956551 -58915.227724976794
390673.51766944 14937.012741168915 -59080.6761729527
390719.4835562465 14891.189055340506 -59245.251393538434
390765.3167241012 14845.023293955384 -59408.95605905435
390856.58395993675 14751.674655300818 -59733.76423963187
390902.0175607792 14704.496279109717 -59894.87292652967
390947.3175083479 14656.984830336227 -60055.12140314954
390992.4835733417 14609.142507028182 -60214.51217236641
391037.5155281261 14560.971486940145 -60373.04770480487
391127.1762047327 14463.651968228902 -60687.562783700225
391171.8044794242 14414.507726997903 -60843.54711477812
391216.29774960276 14365.043304483223 -60998.68577930627
391260.6557956452 14315.26078245858 -61152.98109424162
391304.8783994682 14265.162224541917 -61306.43534725268
391392.9164157021 14164.025166691621 -61610.82967447832
391436.7313994672 14112.990706139208 -61761.774181672175
391480.4100836823 14061.64828907961 -61911.88649377264
391523.95225766924 14009.99989314368 -62061.16875870801
391567.35771217366 13958.04747967515 -62209.62309773704
391653.757632729 13853.238365803147 -62504.05635219416
391696.7516872282 13800.38550921533 -62650.03938041058
391739.60819910694 13747.236323272571 -62795.20270907095
391782.3269659618 13693.79269208617 -62939.54833202625
391824.9077867078 13640.056485120589 -63083.07821878028
391909.6547920251 13531.713749992201 -63367.698542124206
391951.82058086805 13477.110889780693 -63508.792799201634
391993.8476321135 13422.22279017405 -63649.07896174099
392035.73575102113 13367.051251103725 -63788.558882790494
392077.4847440717 13311.598059299757 -63927.23439311667
392160.56458454125 13199.853799743376 -64202.17939518089
392201.8950508914 13143.566241437391 -64338.45243990845
392243.0856292181 13087.004049716468 -64473.928180505325
392284.136131883 13030.168948574747 -64608.608341035484
392325.04637238034 12973.06265008337 -64742.49462512291
392406.44532642735 12858.043250908508 -65007.89227798409
392446.93367250264 12800.133516519738 -65139.406954365004
392487.28102143394 12741.95931774876 -65270.13437006603
392527.48719217116 12683.52230995338 -65400.076130716065
392567.55200471514 12624.82413770317 -65529.23382315031
392647.25684040575 12506.650825231563 -65785.20325828243
392686.8965086944 12447.17892178078 -65912.01808297374
392726.3941090495 12387.452327753119 -66038.05500392766
392765.7494665378 12327.472636359951 -66163.3155177768
392804.9624072021 12267.241431035214 -66287.80110383537
392882.96034704265 12146.030764382334 -66534.45332462467
392921.74500308157 12085.054422438921 -66656.62283344667
392960.3865559989 12023.832805634358 -66778.02316310201
392998.8848365459 11962.36745082246 -66898.65570969184
393037.23967638134 11900.65988598302 -67018.52185332324
393113.5183650276 11776.524194614844 -67255.96037340976
393151.4418815988 11714.099080933229 -67373.53543195692
393189.22129295795 11651.437783188221 -67490.34945212684
393226.85643514345 11588.541787056944 -67606.40373709578
393264.3471450387 11525.412570152572 -67721.69957523733
393338.8946196571 11398.460344916284 -67950.02099163797
393375.9510622824 11334.640252621397 -68063.04907429707
393412.862428403 11270.592771870268 -68175.32371928671
393449.62855897984 11206.319341815251 -68286.84614370689
393486.24929576163 11141.821394273513 -68397.61755092927
393559.05395881354 11012.157638006656 -68616.9120596333
393595.2375724344 10946.99465725917 -68725.43750071868
393631.27516694344 10881.612815199354 -68833.21660413695
393667.1665878899 10816.01350864512 -68940.25050708961
393702.9116815567 10750.198127736887 -69046.54033401966
393773.962275805 10617.924670651142 -69256.89219470145
393809.2674725477 10551.469342288769 -69360.95641490386
393844.42573431775 10484.803435401027 -69464.28093227718
393879.43691094447 10417.928308257791 -69566.86680970587
393914.30085294275 10350.845313046822 -69668.7150981926
393983.5864384935 10216.061097323074 -69870.20305376708
394018.0077864331 10148.362551611357 -69969.84476468097
394052.28130850353 10080.461487614168 -70068.75297456972
394086.40685853217 10012.359228485204 -70166.92867705069
394120.38429098716 9944.057091836672 -70264.37285465347
394187.8942242084 9806.858429232225 -70457.07051065272
394221.42643705005 9737.964511553755 -70552.32589978466
394254.80995645496 9668.87593307463 -70646.85358574931
394288.0446399894 9599.593984952207 -70740.65449747231
394321.1303458193 9530.11995329463 -70833.7295535116
394386.8542599861 9390.600759025641 -71017.70572161108
394419.49218759395 9320.558144078259 -71108.60861996017
394451.98057602573 9250.328541073555 -71198.78923542105
394484.3192863492 9179.913212016805 -71288.24843637795
394516.508180193 9109.313414313585 -71376.98708150105
394580.43596773286 8967.565420017007 -71552.30609097169
394612.174587443 8896.419715871001 -71638.88812500727
394643.7628426906 8825.094528110367 -71724.75294278294
394675.2005978265 8753.591092188291 -71809.90135591019
394706.4877177286 8681.91063936978 -71894.33416688007
394768.6095139479 8538.023587552616 -72061.05614727025
394799.44392260944 8465.819430725 -72143.34687690568
394830.12716071546 8393.443141468826 -72224.92512499381
394860.6590957006 8320.895931067567 -72305.79164979838
394891.0395954959 8248.179006994023 -72385.94720100252
394951.3457636897 8102.240829026223 -72544.12833894874
394981.27117038507 8029.021971558733 -72622.15538291376
395011.0446184748 7955.638193388052 -72699.4743678879
395040.66597829654 7882.090683814887 -72776.08600190199
395070.13512065494 7808.380628676051 -72851.99098489743
395128.6162385109 7660.477608058538 -73001.68375761468
395157.62795791426 7586.286997425272 -73075.47290746345
395186.48694765806 7511.938551023317 -73148.55812669659
395215.1930808172 7437.433438179748 -73220.94007594655
395243.7462309086 7362.772825076283 -73292.61940820364
395300.3930781378 7212.989747391806 -73433.87279591052
395328.48652448 7137.869599897878 -73503.44811975851
395356.4264861553 7062.598586415424 -73572.32336354573
395384.21283882856 6987.177858141426 -73640.49914308722
395411.8454585821 6911.60856341912 -73707.97606696289
395466.6490057302 6760.028854009104 -73840.83574624536
395493.8196873492 6684.020722149359 -73906.21968320964
395520.83614449034 6607.8685895853905 -73970.90712774679
395547.69825527497 6531.5735910663525 -74034.89865320534
395574.405898222 6455.136858752013 -74098.19482606981
395627.3572966496 6301.8427086760385 -74222.70334598472
395653.60081112967 6224.9875426536555 -74283.91679220666
395679.6893757652 6147.995146392423 -74344.43708429037
395705.6228710195 6070.866639705591 -74404.26475526142
395731.40117773635 5993.60314005053 -74463.40033161984
395782.49175081943 5838.675620096562 -74579.5972741924
395807.803780754 5761.013823244919 -74636.65966125742
395832.9601492829 5683.221480383882 -74693.0319955149
395857.96073911723 5605.2996976960485 -74748.71477162556
395882.80543333583 5527.249579200138 -74803.70847803469
395932.02666906826 5370.768740196012 -74911.63060474704
395956.402978563 5292.34021713313 -74964.55997130358
395980.62292840175 5213.787753194421 -75016.8021607605
396004.68640347995 5135.112441930596 -75068.35763121214
396028.5932890541 5056.315374850645 -75119.22683482393
396075.93683452316 4898.36032912132 -75218.90822082058
396099.37326673797 4819.204523342446 -75267.7212783041
396122.6526540914 4739.931307481728 -75315.84981923558
396145.774883654 4660.541762878516 -75363.29426681994
396168.7398428645 4581.036968802126 -75410.05503860566
396214.1975018504 4421.685938748935 -75501.52719696441
396236.6899783854 4341.841850602299 -75546.23939076155
396259.02473810187 4261.886808503522 -75590.26952330177
396281.2016703639 4181.821880587671 -75633.61798454229
396303.2206649498 4101.648132469407 -75676.28515906745
396346.7844023761 3940.9784244278994 -75759.57715976646
396368.3289270094 3860.484581373024 -75800.20272874032
396389.71507761074 3779.886151223785 -75840.14849672714
396410.94274637336 3699.1841833044914 -75879.41482233127
396432.0118260959 3618.3797223541715 -75918.00205918482
396473.67379309604 3456.467472407378 -75993.14065694806
396494.26646977296 3375.3617414423 -76029.69270131135
396514.7001365207 3294.1576300818742 -76065.5670241957
396534.9746909353 3212.856140767354 -76100.7639565654
396555.0900324459 3131.4582583228284 -76135.28382574332
396594.8426862063 2968.3771325196853 -76202.29366866883
396614.47981296893 2886.6956976290517 -76234.78428551555
396633.9573598734 2804.9214415060937 -76266.59912926909
396653.27525333536 2723.055057751874 -76297.73852716462
396672.43345006765 2641.096936032849 -76328.2028280604
396710.3029217714 2476.5957959780208 -76387.13469273911
396729.0902533879 2393.279654512658 -76415.67082465568
396747.81135914114 2308.8520029713673 -76443.62331833415
396766.46348470286 2223.249307073819 -76470.99873829528
396785.03760417056 2136.47063928438 -76497.79812854364
396821.9154005445 1959.385370410657 -76549.67268348359
396840.2008152731 1869.0793492151324 -76574.74973441251
396858.37171325966 1777.5984130084798 -76599.25453699756
396876.41893701325 1684.943289036614 -76623.18800162585
396894.3333186511 1591.1149411782972 -76646.55101953205
396929.72394742956 1399.9980167058914 -76691.56405920169
396947.1696887365 1302.97173912524 -76713.19117672199
396964.4164498122 1205.483543030104 -76734.1839222647
396981.4465302909 1107.8908654449335 -76754.5086334428
396998.2585564163 1010.2232682976427 -76774.16282804272
397031.2278782399 814.6719511304088 -76811.4602059399
397047.38494005526 716.7916370619265 -76829.10373440875
397063.32345958625 618.8436430371742 -76846.07739547123
397079.0433360699 520.8294497090494 -76862.38137167874
397094.54447212437 422.7505045869458 -76878.015844444
397124.89014695096 226.40402928064879 -76907.27699552705
397139.7345033458 128.13929229947775 -76920.90402528521
397154.35975406284 29.81539920575951 -76933.86225362847
397168.7658125577 -68.566277470686 -76946.15184814634
397182.9525939236 -167.00437112473944 -76957.77297285423
397210.6679933989 -364.04436547892305 -76979.01045044928
397224.1964492975 -462.6435529139622 -76988.6271127141
397237.5053035683 -561.2937295085611 -76997.57592383081
397250.5944786715 -659.9935446423797 -77005.85702887252
397263.4638984482 -758.7416493520661 -77013.47056901956
397288.5431741968 -956.3773381985171 -77026.69549980079
397300.75288462 -1055.2622302645775 -77032.30715321659
397312.742548598 -1154.1900273860301 -77037.251767289
397324.5120966758 -1253.1593853032693 -77041.52946358184
397336.06146071205 -1352.1689602150839 -77045.14035972448
397358.4993706316 -1550.3033874527873 -77050.3622024056
397369.38778675493 -1649.4255535272011 -77051.97336453537
397380.0557593089 -1748.5825639274033 -77052.91815770137
397390.50322665187 -1847.773075702216 -77053.19667987672
397400.7301284318 -1946.9957458474864 -77052.80902511034
397420.52200033364 -2145.5321886164825 -77050.03554134493
397430.08685618505 -2244.8432744547536 -77047.64988084986
397439.43091792957 -2344.1811449936095 -77044.59838042733
397448.55413164006 -2443.5444561537624 -77040.88111455097
397457.4564446713 -2542.9318635017503 -77036.49815378862
397474.5981645181 -2741.7735870135903 -77025.73541036429
397482.83747244586 -2841.2252121808574 -77019.35574933306
397490.8556819183 -2940.695551468849 -77012.31063668212
397498.6527466919 -3040.183258092154 -77004.60012348896
397506.22862180264 -3139.6869846878653 -76996.2242569395
397520.7166295836 -3338.737105257185 -76977.47663306798
397527.62867872947 -3438.280801319699 -76967.10495067424
397534.3193711647 -3537.8351214687445 -76956.06806478304
397540.78866833163 -3637.398714964881 -76944.36600314321
397547.0365329545 -3736.9702302994474 -76931.9987896184
397558.8678218867 -3936.1316164210675 -76905.26898294369
397564.45117806667 -4035.7187800726833 -76890.9064180955
397569.8129654463 -4135.308451232456 -76875.87875796476
397574.95315317775 -4234.899274095305 -76860.18600698632
397579.87171170115 -4334.489891908451 -76843.8281657065
397589.0438293362 -4533.6650804611845 -76809.11719497686
397593.29733578296 -4633.246932694919 -76790.76404716248
397597.3291076949 -4732.82314280945 -76771.74577231299
397601.13912197517 -4832.392348878257 -76752.06235150379
397604.7273568236 -4931.953187853527 -76731.713761908
397611.2384075198 -5131.044306552851 -76689.0209655189
397614.16118626733 -5230.57185431562 -76666.67669352997
397616.8621113861 -5330.085571004631 -76643.66712235514
397619.34116758633 -5429.584087533509 -76619.99220960104
397621.5983408862 -5529.0660335215625 -76595.65190894765
397625.4469894073 -5727.974725707159 -76544.97493899838
397627.03844322107 -5827.3987244108075 -76518.638157381
397628.4079713238 -5926.800657527501 -76491.63576320958
397629.55556630297 -6026.179147769056 -76463.96769044691
397630.4812220669 -6125.532816377967 -76435.63386909352
397631.6666981973 -6324.160166144188 -76376.96868076177
397631.92651300423 -6423.431082173844 -76346.63715390721
397631.96437748166 -6522.671646255947 -76315.63955869392
397631.7802921769 -6621.88047184152 -76283.97580519809
397631.374258973 -6721.056170733367 -76251.64579948633
397629.8963630954 -6919.302627224316 -76184.98663557938
397628.8245108908 -7018.370599914681 -76150.65726938698
397627.53073173144 -7117.399876032435 -76115.6612349645
397626.0150342205 -7216.389058681839 -76079.9984181891
397624.2774283144 -7315.336749134743 -76043.66870086944
397620.1365379242 -7513.102049188337 -75969.00807142272
397617.7332801452 -7611.916851887914 -75930.67690246952
397615.108167387 -7710.684548525174 -75891.67831929607
397612.26121641794 -7809.403730736352 -75852.01218319652
397609.1924453783 -7908.072988134442 -75811.67835132533
397602.3895225303 -8105.256076631535 -75729.00700810914
397598.65541389544 -8203.767076546279 -75686.66919025553
397594.69957154384 -8302.222489213174 -75643.66306358526
397590.5220205299 -8400.620893636267 -75599.98846435158
397586.1227873023 -8498.960866597663 -75555.64522458447
397576.6593869921 -8695.459813949808 -75464.9521303613
397571.5952798104 -8793.615930487847 -75418.60191870986
397566.30961022485 -8891.707899789519 -75371.5823521018
397560.80241171166 -8989.734287012221 -75323.89324121508
397555.0737191648 -9087.693654883555 -75275.53439240748
397542.95199866 -9283.405571119447 -75176.80668475563
397536.5590476167 -9381.155232468147 -75126.43741686785
397529.9447563776 -9478.832100361025 -75075.39759293533
397523.1091669897 -9576.434724836394 -75023.68699744635
397516.05232294335 -9673.961653284541 -74971.30541045872
397501.2750520849 -9868.78259819482 -74864.52835994752
397493.5547195147 -9966.073695858231 -74810.13243420736
397485.6133207798 -10063.283259820337 -74755.06459249389
397477.4509066601 -10160.409823662161 -74699.32459240803
397469.0675294081 -10257.451918086648 -74642.91218699563
397451.63810190774 -10451.276806867094 -74528.0691494651
397442.5921635715 -10548.05664788039 -74469.6380004608
397433.3254859367 -10644.746112709961 -74410.5334123112
397423.83812869387 -10741.34371706698 -74350.75511494461
397414.1301530371 -10837.847973541247 -74290.30283359453
397394.052598806 -11030.570477341922 -74167.37519625433
397383.6831501852 -11126.785733861578 -74104.8992670314
397373.09334306885 -11222.901660798927 -74041.74820730755
397362.2832462501 -11318.916754499336 -73977.92171846087
397351.2529300595 -11414.829507928669 -73913.41949701901
397328.53192860325 -11606.341948672218 -73782.38661804207
397316.84139173606 -11701.93860461715 -73715.85532905953
397304.9309323055 -11797.426857460909 -73648.64704452945
397292.8006284163 -11892.805182593691 -73580.76143630427
397280.4505597457 -11988.072051751484 -73512.1981712135
397255.09145467466 -12178.265290529394 -73373.03731245516
397242.0825855526 -12273.188584920108 -73302.43902705506
397228.8542862188 -12367.994272779297 -73231.161701261
397215.4066443134 -12462.680806848384 -73159.20497632053
397201.7397490885 -12557.246635921361 -73086.56848826788
397173.7485637911 -12746.009954212295 -72939.2547406941
397159.42446034617 -12840.204320820774 -72864.57672686964
397144.8814768507 -12934.271737109604 -72789.21744125655
397130.11971072195 -13028.210631361515 -72713.17649330769
397115.13926103176 -13122.01942759794 -72636.45348705305
397084.5227155696 -13309.240400475903 -72480.95968840909
397068.8868262792 -13402.649403360167 -72402.1880766298
397053.0326664054 -13495.92196060213 -72322.73276768798
397036.960343403 -13589.056474086277 -72242.59333793372
397020.6699664267 -13682.051341098919 -72161.76935806384
396987.4354957156 -13867.615701511942 -71998.06600225614
396970.4916288587 -13960.181965963335 -71915.1857390794
396953.3301618003 -14052.602125924457 -71831.61915122528
396935.9512123122 -14144.874554797594 -71747.36578050588
396918.3548999146 -14236.997621024344 -71662.42516282795
396882.51067326235 -14420.789114122119 -71490.48030043107
396864.26300686493 -14512.45425250087 -71403.47509759746
396845.79847328924 -14603.963451118347 -71315.780731484
396827.1172009245 -14695.315052649672 -71227.3967077934
396808.2193199597 -14786.507394418246 -71138.32252604706
396769.7742620414 -14968.407620791912 -70958.10165527584
396750.2273545486 -15059.112152666876 -70866.95393394843
396730.464377396 -15149.650719177853 -70775.11398985982
396710.48546991096 -15240.021629848505 -70682.58129088457
396690.2907732768 -15330.22318842779 -70589.35529841446
396649.2545866331 -15510.111434990713 -70400.82124582487
396628.413388358 -15599.794700929297 -70305.5120755952
396607.3569844222 -15689.301770533648 -70209.5073915405
396586.0855254365 -15778.630917551403 -70112.80662182944
396564.59916392737 -15867.780409497014 -70015.4091878187
396520.98235308536 -16045.53346658187 -69818.5219779168
396498.8522184779 -16134.133534857247 -69719.03101015434
396476.5078108195 -16222.546954166713 -69618.84099422989
396453.94929237297 -16310.771959633874 -69517.95131655618
396431.1768273816 -16398.806779650953 -69416.36135637434
396384.99072470126 -16574.298742722443 -69211.078069214
396361.57742549817 -16661.75230811327 -69107.3834642881
396337.9508567442 -16749.008532546024 -69002.98602082863
396314.1111927508 -16836.065609422418 -68897.88508125482
396290.0586098776 -16922.92172487015 -68792.07998042219
396241.3154032444 -17096.023779048384 -68578.35459616956
396216.62514255405 -17182.266052801195 -68470.43294401745
396191.7226891474 -17268.300034972563 -68361.80439299966
396166.6082298077 -17354.12387386484 -68252.46823910075
396141.28195344034 -17439.73570991399 -68142.42377031344
396089.9947159294 -17610.315895269378 -67920.20699963416
396064.0341433216 -17695.280485171785 -67808.03323308786
396037.86253078387 -17780.025553207444 -67695.14822218884
396011.48007802526 -17864.54919888854 -67581.5512138231
395984.8869869558 -17948.849513212623 -67467.24144641786
395931.06970861 -18116.772468521423 -67236.48054541118
395903.8459362811 -18200.39124789379 -67120.02784562715
395876.41235556424 -18283.77897244753 -67002.85925426852
395848.7691795808 -18366.93368886198 -66884.97396621596
395820.91662373795 -18449.853434590896 -66766.3711673815
395764.584245615 -18614.980116926377 -66527.00973563481
395736.1048657066 -18697.183081176256 -66406.249428893
395707.4169907127 -18779.143129766835 -66284.76826352459
395678.52084768884 -18860.85825210634 -66162.5653792315
395649.41666606604 -18942.32642759584 -66039.63990619047
395590.5851167208 -19104.51380476435 -65791.61766635948
395560.8582198805 -19185.22891395853 -65666.51911141178
395530.9242262383 -19265.688891046073 -65540.69439119818
395500.7833773424 -19345.891663280112 -65414.14258677635
395470.4359172136 -19425.835147045378 -65286.86276907077
395409.12215180456 -19584.935859451867 -65030.11532619934
395378.1563470812 -19664.088865139696 -64900.64579124884
395346.98493227357 -19742.974136134988 -64770.44442322388
395315.60816402175 -19821.589532148686 -64639.51024075075
395284.02630154253 -19899.932901072032 -64507.8422516581
395220.2483437613 -20055.794889102548 -64242.30083023797
395188.0527799395 -20133.30914336619 -64108.425358520006
395155.65318488854 -20210.542640501513 -63973.81200115923
395123.04983098316 -20287.49316672091 -63838.4597102096
395090.242993287 -20364.1584953638 -63702.36742620025
395024.01998033386 -20516.624587791488 -63427.958582726285
394990.60436882067 -20592.420832196425 -63289.639845536425
394956.98640104407 -20667.922839875664 -63150.5767595711
394923.1663658046 -20743.128316941344 -63010.768205780034
394889.14455471013 -20818.034955463616 -62870.213052791936
394820.4967855559 -20966.94241370199 -62586.85836129321
394785.8714249418 -21040.938545465204 -62444.05649716515
394751.0454834074 -21114.626462345906 -62300.50338231451
394716.0192669188 -21188.00378302079 -62156.197821622874
394680.79308437905 -21261.068110823777 -62011.13860677833
394609.74207157694 -21406.248123046575 -61718.7543144923
394573.9178740074 -21478.358935321212 -61571.42675306676
394537.89497581846 -21550.14700995019 -61423.340569201166
394501.6737009386 -21621.609870003846 -61274.49448626647
394465.2543763707 -21692.745021758627 -61124.887213482914
394391.82290170476 -21834.022139955247 -60823.38386348353
394354.8114212071 -21904.159032634372 -60671.485132425776
394317.60323027143 -21973.958068948465 -60518.819903484924
394280.1986716435 -22043.416667235884 -60365.386812547826
394242.59809129266 -22112.53222741788 -60211.18448029942
394166.8102655746 -22249.723739325575 -59900.46649748531
394128.6237284998 -22317.79439617927 -59743.94801059927
394090.24258634006 -22385.511424577024 -59586.654609376135
394051.66720157827 -22452.87212790576 -59428.58483565512
394012.89794008096 -22519.873789314697 -59269.73721491764
393934.779267432 -22652.789015826944 -58949.702451304656
393895.43060518435 -22718.69704308571 -58788.51227575366
393855.8895640664 -22784.234952053393 -58626.53818741116
393816.1565272878 -22849.399919689346 -58463.77862684817
393776.2318816135 -22914.189100667325 -58300.232017005335
393695.80932859826 -23042.628607714196 -57970.77125174174
393655.31221283786 -23106.27312837308 -57804.85385201334
393614.62507140526 -23169.530250784395 -57638.142913922435
393573.7483093007 -23232.397012555288 -57470.63676881847
393532.6823352659 -23294.87042669702 -57302.33372901802
393449.98440527066 -23418.625138670013 -56963.33011793989
393408.35328578984 -23479.90033578084 -56792.6260738826
393366.5346274053 -23540.769982950816 -56621.11818905371
393324.5288580542 -23601.230963835347 -56448.80467680942
393282.33640961454 -23661.280134879744 -56275.68372992479
393197.39322289097 -23780.13033435717 -55927.0121987846
393154.64336837817 -23838.924935362364 -55751.45789469032
393111.7086023909 -23897.294870683265 -55575.088715708116
393068.5893770369 -23955.236853480692 -55397.90274751361
393025.286148579 -24012.74756673767 -55219.89805349027
392938.1295284007 -24126.46176246409 -54861.42462821047
392894.2770703179 -24182.658455155102 -54680.95190951265
392850.2424764833 -24238.410297622977 -54499.652489472326
392806.02622450277 -24293.71381372808 -54317.52431537154
392761.6287963676 -24348.565493772887 -54134.565310306396
392672.2923617695 -24456.899135438787 -53766.146376722405
392627.35434158164 -24510.373904332097 -53580.68217042263
392582.23711787263 -24563.382450422778 -53394.378576897354
392536.94119517435 -24615.921086819606 -53207.2333931714
392491.46708265325 -24667.986089210106 -53019.24438998482
392399.986348237 -24770.680103420138 -52640.72587453086
392353.9807682358 -24821.30147315762 -52450.19176894366
392307.79908228863 -24871.433923248653 -52258.804656480235
392261.44182339025 -24921.073531494698 -52066.56217075233
392214.9095294361 -24970.216333844175 -51873.46191675763
392121.3220127277 -25066.995450557763 -51484.67837840569
392074.26789068995 -25114.62362024974 -51288.99015722378
392027.04093512497 -25161.738693001244 -51092.4342932633
391979.64170914027 -25208.336483091705 -50895.00824211442
391932.07078103034 -25254.412757844075 -50696.7094281649
391836.4161178494 -25344.98359027506 -50297.483050642346
391788.33354575525 -25389.46943938381 -50096.550175662494
391740.0815975911 -25433.416354049667 -49894.733914108925
391691.66086834564 -25476.819852483273 -49692.03152730829
391643.0719585012 -25519.67540003803 -49488.44024250514
391545.3920267338 -25603.724233183057 -49078.57971438463
391496.30223372567 -25644.90817541539 -48872.3047505022
391447.04671805725 -25685.525477771316 -48665.129446418316
391397.6261084875 -25725.571324692835 -48457.0508511171
391348.041039596 -25765.040840912712 -48248.06597629315
391248.380091606 -25842.231074117084 -47827.365244982386
391198.3055112778 -25879.941730632778 -47615.64322026246
391148.0690692835 -25917.055932847918 -47403.00257836233
391097.671430159 -25953.568487574878 -47189.44013578039
391047.1132646054 -25989.47413392425 -46974.95266815045
390945.5180681963 -26059.443310632232 -46543.189552139294
390894.4824101022 -26093.495967376995 -46325.90724493274
390843.28897122125 -26126.919965397345 -46107.68659369942
390791.93845397164 -26159.709682608707 -45888.52415999527
390740.4315672953 -26191.859419856537 -45668.4164605255
390636.95155440527 -26254.215762157117 -45225.35110259823
390584.9798792307 -26284.41056787758 -45002.386246865586
390532.8547368263 -26313.941791295118 -44778.46172933707
390480.5768696458 -26342.803321204112 -44553.573831592155
390428.1470270209 -26370.988958290767 -44327.71878591843
390322.8344474907 -26425.30730398126 -43873.091928738024
390269.9532441359 -26451.427154880104 -43644.312328193184
390216.9231325396 -26476.845393191874 -43414.54999999992
390163.7448972233 -26501.555347456626 -43183.80091790272
390110.41932988487 -26525.550245024056 -42952.06100142458
390003.3294020054 -26571.367258972426 -42485.592067083606
389949.56666099577 -26593.175302031 -42250.85460927598
389895.659827038 -26614.240136548568 -42015.109435400416
389841.60972798965 -26634.554446249374 -41778.352180599875
389787.4171988776 -26654.110798043115 -41540.578420416765
389678.6082257935 -26690.919293982937 -41061.9633825572
389623.99348654906 -26708.155961290773 -40821.11294972433
389569.23972607695 -26724.60371070076 -40579.22769943516
389514.34781209216 -26740.254479497784 -40336.30289575715
389459.3186170665 -26755.100069106018 -40092.33373808783
389348.85188679496 -26782.34221475303 -39601.2428327843
389293.416098456 -26794.72165959147 -39354.111159383334
389237.8465055608 -26806.26169301404 -39105.915284958974
389182.1439125219 -26816.95337055374 -38856.6501048497
389126.30894757103 -26826.787565583443 -38606.31051326096
389013.19238420896 -26843.707629555345 -38102.796067420764
388955.0193176974 -26850.647376219098 -37849.95869874633
388895.7004148473 -26856.53933063516 -37596.42281297992
388835.23806695937 -26861.364431173624 -37342.18342322854
388773.6348159015 -26865.10345628021 -37087.235419933444
388647.01634180726 -26869.24554328704 -36575.19258026158
388582.00674426486 -26869.60929299141 -36318.08697545837
388515.8674882706 -26868.808331708948 -36060.25121851621
388448.6016330328 -26866.822534616127 -35801.67964750793
388380.212337028 -26863.631579456367 -35542.366485187486
388240.0765670956 -26853.551885301462 -35021.49168160262
388168.3369343313 -26846.621465013508 -34759.91787720153
388095.4875631875 -26838.4025150943 -34497.57814223981
388021.5322165614 -26828.87365402301 -34234.46604378316
387946.47498947993 -26818.01329617455 -33970.574926220805
387794.946977081 -26792.630841244198 -33439.6677781958
387719.044637416 -26778.203241811927 -33172.408791691385
387643.0532485281 -26762.599988700098 -32903.93595160234
387566.9748303947 -26745.807062201333 -32634.24158425421
387490.8113901841 -26727.81012627754 -32363.317909962232
387338.2375333674 -26688.145266778065 -31817.750928900525
387261.83121598867 -26666.447029333885 -31543.091454060777
387185.34809756576 -26643.484138374788 -31267.170322543763
387108.7903099736 -26619.24055922405 -30989.979117001716
387032.16000000987 -26593.699879460823 -30711.509290559647
386878.69056869973 -26538.659627455832 -30150.698887505143
386801.855912695 -26509.125249801447 -29868.340509257738
386724.9576671214 -26478.22413295151 -29584.66790154531
386647.99815691495 -26445.937800590917 -29299.671793712114
386570.9797458818 -26412.2473198092 -29013.342762350985
386416.77587774233 -26340.575800919105 -28436.647455466955
386339.59535298037 -26302.554465302877 -28146.2615450507
386262.3657908194 -26263.0483488996 -27854.503437593692
386242.47865194594 -26252.636264778797 -27779.17922976017
386222.58847949555 -26242.124008882332 -27703.763248246334
386182.79921254714 -26220.7974804046 -27552.655255495665
386162.9002079092 -26209.98245080506 -27476.962888044094
386142.99834941706 -26199.065735345106 -27401.17803447665
386123.0936825259 -26188.046949067415 -27325.300514798593
386103.18625290407 -26176.925704391044 -27249.330148254794
386063.3632892159 -26154.374276249833 -27097.110147729436
386043.4478475661 -26142.943304278033 -27020.860148408607
386023.529828022 -26131.40829684198 -26944.516571537515
386003.6092773421 -26119.768852860678 -26868.07923251408
385983.686242508 -26108.024568474575 -26791.547945957904
385943.83290943125 -26084.21984899493 -26638.202784816458
385923.9027062841 -26072.158592045405 -26561.38853555231
385903.9702091777 -26059.990850923637 -26484.479589391853
385884.03546623664 -26047.716207466718 -26407.4757570191
385864.09852581983 -26035.33424056665 -26330.37684832228
385824.21824717644 -26010.24663710558 -26175.893037513157
385804.2750068554 -25997.540143340822 -26098.50775117264
385784.32976487314 -25984.724611665715 -26021.026620045985
385764.38257078815 -25971.799605805467 -25943.449449999905
385744.43347440433 -25958.764686361075 -25865.776046088442
385704.5297751973 -25932.363333315738 -25710.139752805822
385684.5752732293 -25918.99600501364 -25632.176469455004
385664.6190706767 -25905.516973660873 -25554.116164274117
385644.6612186035 -25891.9257837625 -25475.958638213448
385624.70176833146 -25878.221976506655 -25397.703691394643
385584.77827978285 -25850.474657888375 -25240.900731810594
385564.81434546097 -25836.43021201322 -25162.352315122494
385544.8490208541 -25822.271279685898 -25083.705669825613
385524.8823586084 -25807.997384997856 -25004.960591860545
385504.9144116419 -25793.608048515773 -24926.11687632446
385464.9748765892 -25764.481114595023 -24768.132708696216
385445.0033957181 -25749.742540338102 -24688.991842559935
385425.03084456065 -25734.886570575934 -24609.751510759903
385405.0572774284 -25719.912707699463 -24530.411504141463
385385.08274891885 -25704.820450350744 -24450.971612693025
385345.13102760253 -25674.27872782555 -24291.791330963042
385325.15394544357 -25658.8282408347 -24212.05051635553
385305.1761232078 -25643.257315662217 -24132.208968262214
385285.19761696097 -25627.565431609648 -24052.26647235711
385265.21848307014 -25611.752063987577 -23972.22281344579
385225.25855934864 -25579.758759068627 -23811.83114147418
385205.2778837839 -25563.57775205543 -23731.48269366756
385185.2968091131 -25547.273121952872 -23651.03221335899
385165.3153932513 -25530.84432347237 -23570.47948098729
385145.3336944325 -25514.290807072633 -23489.824276113577
385105.36968246644 -25480.807400812173 -23328.205562708183
385085.38748740323 -25463.876390191286 -23247.241608898876
385065.4052455576 -25446.818420036445 -23166.174292030126
385045.4230167978 -25429.632918845513 -23085.003387256744
385025.44086132856 -25412.319310580348 -23003.728668849344
384985.4770127795 -25377.30544569707 -22840.86688378967
384965.49544181774 -25359.604013873974 -22759.27936125144
384945.51418838894 -25341.772124464347 -22677.587113306276
384925.53331442625 -25323.80917799436 -22595.789909794592
384905.55288221757 -25305.714570147138 -22513.88751966963
384865.59359401406 -25269.127928515427 -22349.766250956523
384845.6148644038 -25250.6346613953 -22267.546905838648
384825.636829324 -25232.00726611563 -22185.221441048456
384805.6595528923 -25213.245113324585 -22102.789621104184
384785.68309960264 -25194.34756849408 -22020.25120963812
384745.7329223285 -25156.143738370953 -21854.853662244277
384725.75932924775 -25136.836157612714 -21771.99404915818
384705.7868211232 -25117.390593763186 -21689.026890235746
384685.8154643872 -25097.806385522956 -21605.95194469265
384665.84532587114 -25078.08286605446 -21522.768970864967
384625.9089728451 -25038.21519801064 -21356.077967311947
384605.9428940305 -25018.06968749486 -21272.569449876133
384585.9783048345 -24997.782141738713 -21188.951928738956
384566.01527414564 -24977.35186524571 -21105.225157866313
384546.0538712764 -24956.77815658747 -21021.388890357004
384506.1362283916 -24915.19760698779 -20853.386873504605
384486.1801291598 -24894.189332904807 -20769.220626049344
384466.225939324 -24873.034760230617 -20684.94388573968
384446.2737303821 -24851.73315682332 -20600.556401384507
384426.32357428345 -24830.28378418035 -20516.05792094548
384386.4297106935 -24786.93874492156 -20346.7269594513
384366.4861493971 -24765.04156881531 -20261.893970121735
384346.54493334313 -24742.99360433665 -20176.948968169054
384326.6061368067 -24720.79408003016 -20091.891697385927
384306.6698345431 -24698.442217612028 -20006.72190074657
384266.80501428613 -24653.278330670408 -19836.043697738678
384246.8766482506 -24630.464714693146 -19750.53477327987
384226.95108041354 -24607.495577526523 -19664.91228679734
384207.0283880094 -24584.370105489936 -19579.17597726599
384187.1086487847 -24561.08747756365 -19493.32558288169
384147.2783434534 -24514.047432728064 -19321.2814884896
384127.36793545133 -24490.288336269994 -19235.087261050136
384107.46079684905 -24466.368724638534 -19148.77789391177
384087.55700803944 -24442.287738746214 -19062.3531214991
384067.6566499626 -24418.04451160781 -18975.812677509963
384027.86655253975 -24369.067825572965 -18802.38370602072
384007.9769778652 -24344.332592326806 -18715.494642375546
383988.09116327896 -24319.43156893126 -18628.488834886215
383968.20919255086 -24294.363847410223 -18541.366013777242
383948.33115003596 -24269.128511278075 -18454.12590861388
383908.58719003526 -24218.151286043456 -18279.2927611666
383888.72144424863 -24192.407520445875 -18191.69917483578
383868.85997008777 -24166.49238702339 -18103.987216385292
383849.00285493897 -24140.40492509572 -18016.156612288676
383829.15018681594 -24114.14416480208 -17928.207088445943
383789.45854688564 -24061.09882306109 -17751.950182353172
383769.6197543118 -24034.312254917808 -17663.64224918558
383749.78576724627 -24007.348414771142 -17575.214294472582
383729.95667695504 -23980.206285049135 -17486.666041504122
383710.13257537835 -23952.884838262315 -17397.997213104256
383670.4997095496 -23897.699833167884 -17220.296719099995
383650.69113262306 -23869.834169115144 -17131.264497001248
383630.88791907934 -23841.784976237173 -17042.110586526924
383611.090164355 -23813.551175467772 -16952.83470849226
383591.2979646122 -23785.13167701242 -16863.436583380386
383551.73061840085 -23727.731173364402 -16684.272472349116
383531.955667966 -23698.74793364325 -16594.50592596669
383512.1866645988 -23669.574526881537 -16504.616011635953
383492.4237082275 -23640.20980745225 -16414.602448575664
383472.66689956276 -23610.652618106753 -16324.464955837564
383433.1721321663 -23550.9561416162 -16143.81705688674
383413.43437885813 -23520.81448043424 -16053.306088226616
383393.7031841243 -23490.475600933794 -15962.670065061298
383373.9786527409 -23459.938285341133 -15871.908706094027
383354.2608903288 -23429.201303275073 -15781.021730063607
383314.8460991968 -23367.123354113715 -15598.869802175188
383295.14928604686 -23335.77986163769 -15507.604288320363
383275.4596730316 -23304.2316515638 -15416.212033491143
383255.7773701697 -23272.477427803293 -15324.692757199193
383236.1024883956 -23240.515880570438 -15233.046179239318
383196.7754364988 -23175.965506901208 -15049.369999189592
383177.12349293457 -23143.3739906589 -14957.339838528893
383157.4794236006 -23110.569770930495 -14865.18125915895
383137.84334419935 -23077.551466490026 -14772.893983015354
383118.2153714265 -23044.31768120837 -14680.477732618387
383078.9842176015 -22977.198007805368 -14495.257202408096
383059.3812750354 -22943.309250971102 -14402.452371074221
383039.7869160992 -22909.199275424202 -14309.517462567845
383020.2012626707 -22874.866607243875 -14216.452203214249
383000.6244377087 -22840.30975626878 -14123.256320289833
382961.4977705194 -22770.517462660886 -13936.471598001897
382941.9481797574 -22735.27895635019 -13842.882218572717
382922.4079204252 -22699.810139394012 -13749.161135589438
382902.8771211273 -22664.10943679096 -13655.308082154195
382883.3559116478 -22628.175255813665 -13561.32279276494
382844.3427872822 -22555.59999761285 -13372.954451594695
382824.8511380205 -22518.955643911824 -13278.570876547381
382805.3696098629 -22482.071258331027 -13184.054019192834
382785.8983387604 -22444.94515546855 -13089.403622305239
382766.437461954 -22407.57563054417 -12994.619430593613
382727.5474467634 -22332.09939673309 -12804.648651813597
382708.11858949123 -22293.989178729473 -12709.461564756693
382688.70068878157 -22255.62851981671 -12614.139683116111
382669.2938886304 -22217.01561381773 -12518.682762846745
382649.898334449 -22178.148633336074 -12423.090562491374
382611.1415528494 -22099.64503127463 -12231.499369366478
382591.7806235324 -22060.004645832716 -12135.499907735884
382572.4315364345 -22020.10265749937 -12039.364228560537
382553.0944443872 -21979.937127755176 -11943.092105227062
382533.76950177865 -21939.506094806817 -11846.68331450126
382495.15669036715 -21857.839553557264 -11653.45485572051
382475.8691383553 -21816.600001979557 -11556.634759443059
382456.5943694183 -21775.086859879666 -11459.677139647547
382437.3325461202 -21733.298043479073 -11362.581792303823
382418.08383274253 -21691.231443429133 -11265.348517720066
382379.62640163954 -21606.256324677845 -11070.467410834579
382360.4180213303 -21563.343455714006 -10972.819202478064
382341.2234258357 -21520.144101719612 -10875.032315159247
382322.0427884738 -21476.656019211787 -10777.106573677464
382302.87628446484 -21432.876936567423 -10679.04180833394
382264.5863870936 -21344.436540922205 -10482.494556084159
382245.4633539818 -21299.770539812867 -10384.011759277191
382226.3551747941 -21254.804161390424 -10285.389319277416
382207.26203477144 -21209.534986290204 -10186.62709729442
382188.1841212675 -21163.960564126937 -10087.724961452754
382150.07473402057 -21071.886018878686 -9889.50045685637
382131.0436458937 -21025.3808352524 -9790.177861341304
382112.028555598 -20978.56028240365 -9690.714899018869
382093.02966163855 -20931.421746945605 -9591.11147672078
382074.0471648748 -20883.962581238662 -9491.367509912234
382036.1321784109 -20788.07159378842 -9291.45764972755
382017.2001026042 -20739.634300261016 -9191.29163339041
381998.2852518733 -20690.865431707054 -9090.984827317603
381979.38783953164 -20641.762160353086 -8990.537195174109
381960.5080815278 -20592.32162054256 -8889.948711351935
381922.8024058065 -20492.417079613115 -8688.34914223545
381903.9769336231 -20441.94715187526 -8587.33806294792
381885.1700069536 -20391.128101083435 -8486.186144845762
381866.38185570814 -20339.956862196148 -8384.893422096146
381847.6127127564 -20288.43032820804 -8283.459942148695
381810.13239836483 -20184.298732707237 -8080.170969755913
381791.4217080005 -20131.68724074165 -7978.315643007127
381772.7309882063 -20078.70759124066 -7876.319891493876
381754.0604875659 -20025.356456169804 -7774.183836585203
381735.4104580006 -19971.63046094202 -7671.907616058496
381698.17283688317 -19863.04015397775 -7466.935314836041
381679.58576649084 -19808.168852856932 -7364.239597109025
381661.0202096406 -19752.908711091557 -7261.404440976971
381642.4764360131 -19697.256108726746 -7158.43007545929
381623.9547190688 -19641.207374095637 -7055.316749816589
381586.9785684584 -19527.90655726893 -6848.674320743635
381568.52470135153 -19470.646864808885 -6745.145823638477
381550.0940242193 -19412.975817622162 -6641.479580626355
381531.6868306796 -19354.88947131606 -6537.675953477336
381513.30341864994 -19296.383823988872 -6433.735328914268
381476.6091528629 -19178.09832490161 -6225.444764543548
381458.29891730903 -19118.310172396297 -6121.0957310703225
381440.0136998768 -19058.086115212518 -6016.611514784303
381421.7538214647 -18997.421848005404 -5911.992641096833
381403.51960788504 -18936.3130014179 -5807.239666179377
381367.1295037143 -18812.74376564719 -5597.333797736596
381348.97429034277 -18750.274307164476 -5492.182180387602
381330.8460964843 -18687.342128277938 -5386.899016549628
381312.7452742728 -18623.942521771223 -5281.485033395778
381294.6721814828 -18560.07070914032 -5175.940996037145
381258.61064427265 -18430.890987276885 -4964.466017005656
381240.6229448279 -18365.57315285436 -4858.536807668545
381222.6644650432 -18299.763259226664 -4752.481011758311
381204.7355929851 -18233.456151604536 -4646.2996053842635
381186.8367232261 -18166.64659580667 -4539.993611490519
381151.1306023923 -18031.49879736897 -4327.012197233125
381133.32417445845 -17963.149676377536 -4220.339072359541
381115.5493954507 -17894.276347517745 -4113.545954625609
381097.8066949722 -17824.873157651054 -4006.6341276201374
381080.09651016886 -17754.934365278663 -3899.604932825122
381044.7754750393 -17613.426555722006 -3685.2001078826806
381027.165538473 -17541.84559940805 -3577.8274693756543
381009.5899455158 -17469.70515905263 -3470.343450945096
380992.04917402484 -17396.99902719635 -3362.7497165116224
380974.5437106446 -17323.720898193053 -3255.048001670931
380939.6407001212 -17175.422924902407 -3039.3279472806876
380922.244172317 -17100.389962827754 -2931.313461279408
380904.8849918008 -17024.758764493057 -2823.1987076957657
380887.56369276653 -16948.52250714356 -2714.985821675561
380870.2808196961 -16871.67425922935 -2606.6770272577796
380835.83258249646 -16716.113510519648 -2389.781073559423
380818.66836132755 -16637.386586078403 -2281.1988368260545
380801.5448526471 -16558.01882004441 -2172.5305439605904
380784.46265674784 -16478.00270911573 -2063.778914994845
380767.4223860264 -16397.330629999586 -1954.9467804087235
380733.4701322651 -16233.98746267782 -1737.0528932306956
380716.5594376394 -16151.300510819277 -1627.997391438277
380699.6932457531 -16067.92585966012 -1518.8738946144724
380682.87223482504 -15983.855257424553 -1409.685850061845
380666.09709738137 -15899.080320948922 -1300.4368425528742
380632.68728707056 -15727.383244441537 -1081.7709960781897
380616.0540745608 -15640.44366434327 -972.3620611647356
380599.46965714195 -15552.764866221576 -862.9079826753251
380582.9348053199 -15464.337782232995 -753.4131137331284
380566.4503065865 -15375.153202237132 -643.881978821994
380533.6356062944 -15194.473992039691 -424.7299046666172
380517.3070692251 -15102.960215052984 -315.1189303168039
380501.03221530665 -15010.65064537938 -205.4916339172841
380484.8119247879 -14917.535337063146 -95.85349828844653
380468.6470981574 -14823.604192591847 13.789779922775438
380436.48754337226 -14633.253239872765 233.06785977770906
380420.4947229507 -14536.812467985697 342.69012503055234
380404.56118319667 -14439.513930720372 452.29244242790156
380388.6879352967 -14341.346756142968 561.8679192363899
380372.8760146224 -14242.299915037062 671.4093958437078
380341.4404217867 -14041.522327621791 890.3603150821283
380325.8189480103 -13939.768733657482 999.7540120049159
380310.2631998136 -13837.089778059084 1109.082195377217
380294.774344963 -13733.47364304265 1218.3362132834898
380279.3535801665 -13628.908354321036 1327.507081045676
380248.721257577 -13416.881642750766 1545.561688843556
380233.5122459515 -13309.395499971015 1654.425682042177
380218.37641860533 -13200.910767491685 1763.1670044554965
380203.3151306683 -13091.414711334648 1871.7748130059622
380188.3297718835 -12980.894452871853 1980.2378508832144
380158.59258007223 -12756.729112748742 2196.6824276357042
380143.8437090867 -12643.057584700297 2304.6392459381887
380129.1766935489 -12528.30897137069 2412.401819822461
380114.59311239666 -12412.469734493305 2519.956587723431
380100.09458581876 -12295.526220917916 2627.289476528306
380071.35939060914 -12058.271221549421 2841.2306582218366
380057.126179512 -11937.931925307928 2947.808082828692
380042.9849405709 -11816.432750499276 3054.1018534402497
380028.9375186667 -11693.75959703488 3160.0950599063
380014.9858074579 -11569.898307532463 3265.770165625311
379987.3773435993 -11318.554484876708 3476.092671786353
379973.7246341257 -11191.043475527998 3580.701678931366
379960.1757244023 -11062.2874105778 3684.9157556672576
379946.7327720471 -10932.272069860359 3788.7139161782598
379933.3979915348 -10800.983275060247 3892.0744193294045
379907.0620963285 -10534.528951480741 4097.391578568556
379894.06570698594 -10399.335479900736 4199.300774824562
379881.18694281706 -10262.812721197335 4300.677349397842
379868.4283225683 -10124.94706876049 4401.495449800022
379855.7924296704 -9985.725116285475 4501.728334989561
379830.89949011436 -9703.159891440791 4700.326925009105
379818.6479440914 -9559.791122050287 4798.634515383942
379806.5301287221 -9415.015137725431 4896.240622222358
379794.5489672843 -9268.820085365809 4993.1137542136
379782.70745373855 -9121.194550326929 5089.221414627783
379759.45570334594 -8821.608861668543 5279.005215151514
379748.05181298027 -8669.62852455747 5372.61120350518
379736.8002640048 -8516.177449678169 5465.31139511443
379725.7044105081 -8361.247203930625 5557.0680705389395
379714.76767871465 -8204.830128606498 5647.842442162399
379693.3856427379 -7887.509126285236 5826.283778019689
379682.94754613127 -7726.594363731386 5913.867831607423
379672.6829840405 -7564.171246925926 6000.303776090999
379662.59573074454 -7400.237038104767 6085.547537163697
379652.68962543295 -7234.790212279693 6169.554023329286
379633.43652517773 -6899.359166038441 6333.66987454171
379624.09750934085 -6729.378704748511 6413.684224548574
379614.95559269015 -6557.893316648599 6492.271349961182
379606.0148940565 -6384.908800908741 6569.3815692119415
379597.27957594115 -6210.432682218827 6644.96442790141
379580.44191731076 -5857.044888067383 6791.34278298545
379572.34806970553 -5678.157675000241 6862.034136528081
379564.47657499043 -5497.827953004141 6930.990016078949
379556.8317232076 -5316.073166005726 6998.157250418886
379549.4178076358 -5132.912985254004 7063.482413950218
379535.29992086784 -4762.466693866831 7188.3922641731015
379528.6044700043 -4575.231686953242 7247.869923273875
379522.15697544266 -4386.693607694008 7305.2917334168915
379515.9616025628 -4196.884228474535 7360.604923071123
379510.02245845797 -4005.8378830016595 7413.757294867977
379498.9289208251 -3620.1845742138244 7513.374663384326
379493.7823396987 -3425.6592535461295 7559.739652516482
379488.9075863386 -3230.0602419047596 7603.744165955301
379484.3082887726 -3033.4348165668407 7645.341463313303
379479.9879399219 -2835.832779650498 7684.486441652044
379472.1973048699 -2437.9103580094406 7755.248331722277
379468.7332100065 -2237.7016286981047 7786.784891797086
379465.5604209483 -2036.739410387762 7815.70878962843
379462.681559583 -1835.0849916935504 7841.985853433547
379460.09903684666 -1632.8016216002638 7865.584615866169
379455.831531487 -1226.6099241821053 7904.635806608816
379454.1502217293 -1022.8364971559 7920.040157872035
379452.772578882 -818.7035573764181 7932.670301501409
379451.69981271814 -614.281672764756 7942.5103684537435
379450.93287047825 -409.6422955764785 7949.547926317838
379450.31890716683 -2.443750032928428e-06 7955.183351446907
