CIC_OEM_VERS = 2.0
CREATION_DATE  = 2020-06-05T09:00:00
ORIGINATOR     = SPACEBEL

META_START

OBJECT_NAME = Gateway
OBJECT_ID = Gateway

CENTER_NAME = Sol/Earth
REF_FRAME   = EME2000
TIME_SYSTEM = UTC

META_STOP

55276 18000.0 379441.475 0 7662.095247
55276 18000.00000177527 379441.475 1.94077E-06 7662.095247
55276 18000.00000532581 379441.475 5.8223E-06 7662.095247
55276 18000.0000124269 379441.475 1.35854E-05 7662.095247
55276 18000.000026629 379441.475 2.91115E-05 7662.095247
55276 18000.0000550334 379441.475 6.01637E-05 7662.095247
55276 18000.000111842 379441.475 0.000122268 7662.095247
55276 18000.000225459 379441.475 0.000246477 7662.095247
55276 18000.000452694 379441.475 0.000494895 7662.095247
55276 18000.000907163 379441.475 0.000991731 7662.095247
55276 18000.001816101 379441.475 0.001985403 7662.095247
55276 18000.003633976 379441.475 0.003972747 7662.095247
55276 18000.007269728 379441.475 0.007947435 7662.095247
55276 18000.014541231 379441.475 0.015896811 7662.095247
55276 18000.029084238 379441.475 0.031795563 7662.095247
55276 18000.058170251 379441.475 0.063593068 7662.095246
55276 18000.116342278 379441.475 0.127188076 7662.095246
55276 18000.232686332 379441.475 0.254378093 7662.095244
55276 18000.465374439 379441.475 0.508758127 7662.095238
55276 18000.930750652 379441.475 1.017518193 7662.095211
55276 18001.396126866 379441.475 1.526278258 7662.095166
55276 18001.86150308 379441.475 2.035038318 7662.095103
55276 18002.326879294 379441.475 2.543798374 7662.095021
55276 18003.257631722 379441.4751 3.561318466 7662.094805
55276 18005.119136577 379441.4751 5.59635854 7662.094157
55276 18008.842146288 379441.4754 9.666437978 7662.091996
55276 18012.565156 379441.4757 13.73651596 7662.088682
55276 18016.28816571 379441.4762 17.80659186 7662.084215
55276 18020.01117542 379441.4768 21.87666508 7662.078595
55276 18023.73418513 379441.4775 25.94673499 7662.071823
55276 18031.18020455 379441.4794 34.08686246 7662.054821
55276 18038.62622397 379441.4817 42.22696935 7662.033208
55276 18046.0722434 379441.4845 50.36705074 7662.006984
55276 18053.51826282 379441.4878 58.50710171 7661.976149
55276 18060.96428224 379441.4916 66.64711737 7661.940704
55276 18068.41030166 379441.4959 74.78709278 7661.900649
55276 18083.3023405 379441.506 91.06690324 7661.806707
55276 18098.19437935 379441.5181 107.3464938 7661.694323
55276 18113.0864182 379441.5322 123.6258251 7661.5635
55276 18127.978457 379441.5482 139.9048579 7661.414239
55276 18142.8704959 379441.5662 156.1835529 7661.24654
55276 18157.7625347 379441.5862 172.4618707 7661.060405
55276 18172.6545736 379441.6082 188.7397722 7660.855835
55276 18187.5466124 379441.6322 205.0172181 7660.632833
55276 18202.4386512 379441.6581 221.294169 7660.3914
55276 18217.3306901 379441.6861 237.5705858 7660.131539
55276 18232.2227289 379441.716 253.8464292 7659.853252
55276 18247.1147678 379441.7479 270.12166 7659.55654
55276 18262.0068066 379441.7817 286.396239 7659.241408
55276 18276.8988455 379441.8176 302.6701269 7658.907857
55276 18291.7908843 379441.8554 318.9432846 7658.55589
55276 18306.682923200002 379441.8952 335.215673 7658.18551
55276 18321.574962 379441.937 351.4872528 7657.796721
55276 18336.4670008 379441.9808 367.757985 7657.389526
55276 18351.3590397 379442.0265 384.0278304 7656.963929
55276 18381.1431174 379442.124 416.5647044 7656.057541
55276 18407.5826173 379442.2171 445.4445228 7655.191298
55276 18434.0221173 379442.3164 474.320958 7654.267109
55276 18460.4616173 379442.422 503.1937918 7653.284999
55276 18486.9011172 379442.5338 532.0628064 7652.244995
55276 18513.3406172 379442.6519 560.9277841 7651.147125
55276 18539.7801172 379442.7761 589.7885073 7649.991418
55276 18566.2196171 379442.9066 618.6447591 7648.777908
55276 18592.6591171 379443.0433 647.4963224 7647.506626
55276 18619.098617 379443.1863 676.3429809 7646.177607
55276 18645.538117 379443.3354 705.1845183 7644.790887
55276 18671.977617 379443.4908 734.0207186 7643.346504
55276 18698.4171169 379443.6523 762.8513665 7641.844497
55276 18724.8566169 379443.8201 791.6762467 7640.284907
55276 18751.2961169 379443.994 820.4951445 7638.667775
55276 18777.7356168 379444.1742 849.3078454 7636.993147
55276 18804.1751168 379444.3606 878.1141356 7635.261067
55276 18830.6146168 379444.5531 906.9138014 7633.471581
55276 18857.0541167 379444.7519 935.7066298 7631.624739
55276 18883.4936167 379444.9568 964.4924081 7629.720589
55276 18909.9331167 379445.1679 993.2709241 7627.759184
55276 18936.3726166 379445.3852 1022.041966 7625.740576
55276 18962.8121166 379445.6086 1050.805323 7623.664819
55276 18989.2516166 379445.8383 1079.560783 7621.53197
55276 19015.691117 379446.0741 1108.308138 7619.342085
55276 19042.130616 379446.316 1137.047176 7617.095222
55276 19068.570116 379446.5641 1165.777689 7614.791443
55276 19095.009616 379446.8184 1194.499469 7612.430809
55276 19121.449116 379447.0788 1223.212306 7610.013383
55276 19147.888616 379447.3453 1251.915995 7607.539229
55276 19174.328116 379447.618 1280.610327 7605.008413
55276 19200.767616 379447.8968 1309.295097 7602.421003
55276 19227.207116 379448.1817 1337.970099 7599.777067
55276 19253.646615999998 379448.4727 1366.635128 7597.076675
55276 19280.086116 379448.7699 1395.289979 7594.3199
55276 19332.965116 379449.3825 1452.568335 7588.63749
55276 19378.568488 379449.9305 1501.931164 7583.556496
55276 19424.171859000002 379450.4965 1551.26087 7578.308821
55276 19469.775231 379451.0806 1600.556423 7572.894875
55276 19515.378602 379451.6828 1649.816804 7567.315082
55276 19560.981974 379452.303 1699.040998 7561.569873
55276 19606.585345 379452.9411 1748.227997 7555.659695
55276 19652.188717 379453.5972 1797.376799 7549.585003
55276 19697.792088 379454.2712 1846.486412 7543.346266
55276 19743.39546 379454.963 1895.555848 7536.943962
55276 19788.998831 379455.6727 1944.584128 7530.378581
55276 19834.602203 379456.4002 1993.570281 7523.650625
55276 19880.205574 379457.1455 2042.513341 7516.760603
55276 19925.808946 379457.9084 2091.412353 7509.709039
55276 19971.412317 379458.689 2140.266369 7502.496464
55276 20017.015689 379459.4873 2189.074447 7495.123421
55276 20062.61906 379460.3031 2237.835657 7487.590462
55276 20108.222432 379461.1365 2286.549073 7479.898149
55276 20153.825803 379461.9874 2335.21378 7472.047054
55276 20199.429175 379462.8557 2383.828871 7464.037758
55276 20245.032546 379463.7415 2432.393449 7455.870853
55276 20290.635918 379464.6446 2480.906623 7447.546938
55276 20336.23929 379465.565 2529.367513 7439.066622
55276 20381.842661 379466.5027 2577.775247 7430.430522
55276 20427.446033 379467.4577 2626.128962 7421.639265
55276 20473.049404 379468.4298 2674.427805 7412.693486
55276 20564.256147 379470.4253 2770.857508 7394.34094
55276 20637.274075 379472.0719 2847.891715 7379.208226
55276 20702.99021 379473.591 2917.093976 7365.256629
55276 20768.706345 379475.1452 2986.171997 7350.992469
55276 20834.422481 379476.7342 3055.123431 7336.417813
55276 20900.138616 379478.3578 3123.94597 7321.534757
55276 20965.854751 379480.0161 3192.637353 7306.345425
55276 21031.570886 379481.7086 3261.195358 7290.851971
55276 21097.287021 379483.4354 3329.617807 7275.056572
55276 21163.003156 379485.1962 3397.902567 7258.961432
55276 21228.719291 379486.9908 3466.047546 7242.568778
55276 21294.435427 379488.8191 3534.050697 7225.880861
55276 21360.151562 379490.6809 3601.910018 7208.899954
55276 21425.867697 379492.576 3669.623547 7191.628349
55276 21491.583832 379494.5043 3737.189371 7174.068358
55276 21557.299967 379496.4655 3804.605616 7156.222312
55276 21623.016102 379498.4595 3871.870456 7138.092559
55276 21688.732237 379500.486 3938.982108 7119.681463
55276 21754.448373 379502.545 4005.938831 7100.991404
55276 21820.164508 379504.6361 4072.73893 7082.024774
55276 21885.880643 379506.7593 4139.380753 7062.783981
55276 21951.596778 379508.9143 4205.862691 7043.271442
55276 22017.312913 379511.101 4272.183181 7023.489586
55276 22083.029048 379513.3191 4338.340701 7003.440854
55276 22148.745183 379515.5684 4404.333773 6983.127693
55276 22214.461319000002 379517.8488 4470.160961 6962.552559
55276 22280.177454 379520.1601 4535.820874 6941.717916
55276 22345.893589 379522.502 4601.31216 6920.626232
55276 22411.609724 379524.8744 4666.633513 6899.279982
55276 22477.325859 379527.2771 4731.783666 6877.681645
55276 22543.041994 379529.7099 4796.761395 6855.833702
55276 22608.758129 379532.1725 4861.565516 6833.738638
55276 22674.474265 379534.6649 4926.194888 6811.398939
55276 22740.1904 379537.1867 4990.648409 6788.817092
55276 22805.906535000002 379539.7378 5054.925016 6765.995582
55276 22871.62267 379542.3179 5119.023688 6742.936897
55276 22937.338805 379544.927 5182.943441 6719.643521
55276 23003.05494 379547.5648 5246.683333 6696.117934
55276 23068.771076 379550.231 5310.242457 6672.362617
55276 23134.487211 379552.9255 5373.619947 6648.380044
55276 23200.203346000002 379555.6482 5436.814972 6624.172686
55276 23265.919481 379558.3987 5499.826739 6599.743007
55276 23331.635616 379561.1769 5562.654492 6575.093468
55276 23397.351751000002 379563.9826 5625.297511 6550.226522
55276 23463.067886 379566.8156 5687.755112 6525.144613
55276 23528.784022 379569.6757 5750.026644 6499.850181
55276 23594.500157000002 379572.5627 5812.111493 6474.345654
55276 23660.216292 379575.4764 5874.009077 6448.633455
55276 23725.932427 379578.4166 5935.71885 6422.715995
55276 23791.648562000002 379581.3831 5997.240298 6396.595675
55276 23857.364697 379584.3758 6058.572937 6370.274887
55276 23923.080832 379587.3943 6119.716319 6343.756012
55276 23988.796968 379590.4386 6180.670025 6317.041418
55276 24054.513103 379593.5084 6241.433667 6290.133463
55276 24120.229238 379596.6036 6302.006888 6263.034492
55276 24185.945373 379599.7239 6362.389361 6235.746838
55276 24251.661508 379602.8692 6422.580787 6208.272819
55276 24317.377643 379606.0392 6482.580897 6180.614743
55276 24383.093778000002 379609.2338 6542.38945 6152.774902
55276 24448.809914 379612.4528 6602.006231 6124.755573
55276 24580.242184 379618.9633 6720.663762 6068.187495
55276 24678.912694 379623.9135 6809.238557 6025.264931
55276 24777.583203000002 379628.9169 6897.3796 5981.960437
55276 24876.253713 379633.9728 6985.08667 5938.281429
55276 24974.924222 379639.0805 7072.359669 5894.235246
55276 25073.594731999998 379644.2394 7159.198614 5849.82914
55276 25172.265242 379649.4489 7245.603637 5805.07028
55276 25270.935751 379654.7085 7331.574979 5759.96575
55276 25369.606261 379660.0175 7417.112987 5714.522546
55276 25468.27677 379665.3754 7502.218111 5668.747576
55276 25566.94728 379670.7815 7586.890897 5622.647659
55276 25665.61779 379676.2353 7671.131987 5576.229525
55276 25764.288299 379681.7362 7754.942115 5529.499814
55276 25862.958809 379687.2837 7838.3221 5482.465073
55276 25961.629319 379692.8771 7921.272847 5435.13176
55276 26060.299828 379698.516 8003.79534 5387.506241
55276 26158.970338 379704.1998 8085.890641 5339.59479
55276 26257.640847000002 379709.9279 8167.559887 5291.403587
55276 26356.311357 379715.6998 8248.804284 5242.938725
55276 26454.981867000002 379721.515 8329.625106 5194.206199
55276 26553.652376 379727.373 8410.023693 5145.211919
55276 26652.322886 379733.2732 8490.001445 5095.961697
55276 26750.993394999998 379739.2151 8569.559821 5046.461258
55276 26849.663905 379745.1982 8648.700339 4996.716235
55276 26948.334414999998 379751.2221 8727.424565 4946.732171
55276 27047.004924 379757.2863 8805.734121 4896.514518
55276 27145.675434 379763.3902 8883.630672 4846.068641
55276 27244.345943 379769.5333 8961.115932 4795.399813
55276 27343.016453 379775.7153 9038.191658 4744.513221
55276 27441.686963 379781.9356 9114.859646 4693.413965
55276 27540.357472 379788.1938 9191.121731 4642.107057
55276 27639.027982 379794.4894 9266.979784 4590.597424
55276 27737.698492 379800.822 9342.435712 4538.889907
55276 27836.369001 379807.1911 9417.491452 4486.989263
55276 27935.039511000003 379813.5963 9492.14897 4434.900167
55276 28033.71002 379820.0372 9566.410263 4382.627211
55276 28132.380530000002 379826.5134 9640.277352 4330.174903
55276 28231.05104 379833.0243 9713.752284 4277.547673
55276 28329.721550000002 379839.5697 9786.837125 4224.749872
55276 28428.39206 379846.1491 9859.533967 4171.785769
55276 28527.062570000002 379852.7621 9931.844918 4118.659558
55276 28625.733079999998 379859.4083 10003.7721 4065.375356
55276 28724.40359 379866.0873 10075.31767 4011.937204
55276 28823.074099999998 379872.7988 10146.48376 3958.349068
55276 28921.74461 379879.5423 10217.27257 3904.61484
55276 29020.415119999998 379886.3175 10287.68626 3850.738342
55276 29119.08563 379893.124 10357.72703 3796.723321
55276 29217.756139999998 379899.9615 10427.39708 3742.573455
55276 29316.42665 379906.8296 10496.69863 3688.292355
55276 29415.09715 379913.7279 10565.63389 3633.883559
55276 29513.767659999998 379920.6561 10634.20508 3579.350542
55276 29612.43817 379927.6138 10702.41444 3524.69671
55276 29711.108679999998 379934.6008 10770.26419 3469.925404
55276 29809.77919 379941.6166 10837.75658 3415.039903
55276 29908.449699999997 379948.661 10904.89383 3360.043421
55276 30007.12021 379955.7336 10971.67819 3304.939109
55276 30105.79072 379962.8342 11038.1119 3249.73006
55276 30204.46123 379969.9623 11104.19718 3194.419305
55276 30303.13174 379977.1177 11169.93629 3139.009816
55276 30401.80225 379984.3001 11235.33145 3083.504507
55276 30500.47276 379991.5092 11300.3849 3027.906235
55276 30599.14327 379998.7446 11365.09885 2972.217802
55276 30697.81378 380006.0062 11429.47555 2916.441954
55276 30796.48429 380013.2935 11493.5172 2860.581382
55276 30895.1548 380020.6064 11557.22602 2804.638726
55276 30993.82531 380027.9444 11620.60422 2748.616573
55276 31092.49582 380035.3075 11683.65399 2692.517458
55276 31191.16633 380042.6953 11746.37754 2636.343866
55276 31289.83684 380050.1074 11808.77705 2580.098234
55276 31388.50735 380057.5438 11870.8547 2523.782948
55276 31487.17786 380065.004 11932.61265 2467.400349
55276 31585.84837 380072.4879 11994.05308 2410.95273
55276 31684.51888 380079.9951 12055.17813 2354.442338
55276 31783.18939 380087.5255 12115.98994 2297.871375
55276 31881.8599 380095.0788 12176.49066 2241.241999
55276 31980.5304 380102.6547 12236.6824 2184.556326
55276 32079.20091 380110.2531 12296.56728 2127.816427
55276 32177.87142 380117.8736 12356.14739 2071.024334
55276 32276.54193 380125.5161 12415.42484 2014.182036
55276 32375.21244 380133.1803 12474.4017 1957.291482
55276 32473.88295 380140.866 12533.08003 1900.354584
55276 32572.55346 380148.5729 12591.4619 1843.373212
55276 32671.22397 380156.3009 12649.54936 1786.349201
55276 32769.89448 380164.0498 12707.34442 1729.284348
55276 32868.56499 380171.8192 12764.84912 1672.180413
55276 32967.2355 380179.6091 12822.06546 1615.03912
55276 33065.90601 380187.4191 12878.99544 1557.86216
55276 33164.57652 380195.2492 12935.64104 1500.651188
55276 33263.24703 380203.099 12992.00423 1443.407825
55276 33361.91754 380210.9685 13048.08697 1386.133661
55276 33460.58805 380218.8573 13103.8912 1328.830251
55276 33559.25856 380226.7654 13159.41886 1271.499121
55276 33657.92907 380234.6925 13214.67186 1214.141765
55276 33756.59958 380242.6384 13269.6521 1156.759645
55276 33855.27009 380250.6029 13324.36148 1099.354196
55276 33953.9406 380258.5859 13378.80187 1041.926821
55276 34052.61111 380266.5872 13432.97515 984.4788955
55276 34151.28162 380274.6066 13486.88315 927.0117672
55276 34249.95213 380282.6439 13540.52773 869.5267558
55276 34348.62264 380290.699 13593.91069 812.0251541
55276 34447.29315 380298.7716 13647.03386 754.5082284
55276 34545.963650000005 380306.8617 13699.89902 696.9772191
55276 34644.63416 380314.969 13752.50797 639.4333411
55276 34743.30467 380323.0934 13804.86247 581.8777844
55276 34841.97518 380331.2347 13856.96427 524.3117146
55276 34940.645690000005 380339.3927 13908.81513 466.7362735
55276 35039.3162 380347.5674 13960.41676 409.1525791
55276 35137.98671 380355.7585 14011.77089 351.5617267
55276 35236.65722 380363.9659 14062.87921 293.964789
55276 35335.327730000005 380372.1895 14113.74342 236.3628165
55276 35433.99824 380380.429 14164.36519 178.7568382
55276 35532.66875 380388.6844 14214.74617 121.1478618
55276 35631.33926 380396.9555 14264.88803 63.53687436
55276 35730.009770000004 380405.2421 14314.79239 5.924842419
55276 35828.68028 380413.5441 14364.46087 -51.68728739
55276 35927.35079 380421.8615 14413.89509 -109.298588
55276 36026.0213 380430.1939 14463.09664 -166.9081515
55276 36124.691810000004 380438.5413 14512.0671 -224.5150887
55276 36223.36232 380446.9036 14560.80803 -282.118529
55276 36322.03283 380455.2807 14609.32101 -339.7176196
55276 36420.70334 380463.6723 14657.60757 -397.3115257
55276 36519.37385 380472.0784 14705.66923 -454.8994294
55276 36618.04436 380480.4988 14753.50753 -512.4805303
55276 36716.714869999996 380488.9334 14801.12395 -570.0540441
